%!PS-Adobe-3.0 EPSF-3.0
%%Creator: MATLAB, The MathWorks, Inc. Version 8.0.0.783 (R2012b). Operating System: Microsoft Windows 7.
%%Title: C:\MyWorkplace\researchWork\GBT\GBT_BER_WORK\RESULTS\equalization.eps
%%CreationDate: 05/02/2017  19:01:26
%%DocumentNeededFonts: Helvetica
%%+ Helvetica-Bold
%%DocumentProcessColors: Cyan Magenta Yellow Black
%%LanguageLevel: 2
%%Pages: 1
%%BoundingBox:  -255   131   851   710
%%EndComments

%%BeginProlog
% MathWorks dictionary
/MathWorks 160 dict begin
% definition operators
/bdef {bind def} bind def
/ldef {load def} bind def
/xdef {exch def} bdef
/xstore {exch store} bdef
% operator abbreviations
/c  /clip ldef
/cc /concat ldef
/cp /closepath ldef
/gr /grestore ldef
/gs /gsave ldef
/mt /moveto ldef
/np /newpath ldef
/cm /currentmatrix ldef
/sm /setmatrix ldef
/rm /rmoveto ldef
/rl /rlineto ldef
/s {show newpath} bdef
/sc {setcmykcolor} bdef
/sr /setrgbcolor ldef
/sg /setgray ldef
/w /setlinewidth ldef
/j /setlinejoin ldef
/cap /setlinecap ldef
/rc {rectclip} bdef
/rf {rectfill} bdef
% page state control
/pgsv () def
/bpage {/pgsv save def} bdef
/epage {pgsv restore} bdef
/bplot /gsave ldef
/eplot {stroke grestore} bdef
% orientation switch
/portraitMode 0 def /landscapeMode 1 def /rotateMode 2 def
% coordinate system mappings
/dpi2point 0 def
% font control
/FontSize 0 def
/FMS {/FontSize xstore findfont [FontSize 0 0 FontSize neg 0 0]
  makefont setfont} bdef
/ISOLatin1Encoding where {pop /WindowsLatin1Encoding 256 array bdef
ISOLatin1Encoding WindowsLatin1Encoding copy pop
/.notdef/.notdef/quotesinglbase/florin/quotedblbase/ellipsis/dagger
/daggerdbl/circumflex/perthousand/Scaron/guilsinglleft/OE/.notdef/.notdef
/.notdef/.notdef/quoteleft/quoteright/quotedblleft/quotedblright/bullet
/endash/emdash/tilde/trademark/scaron/guilsinglright/oe/.notdef/.notdef
/Ydieresis WindowsLatin1Encoding 128 32 getinterval astore pop}
{/WindowsLatin1Encoding StandardEncoding bdef} ifelse
/reencode {exch dup where {pop load} {pop StandardEncoding} ifelse
  exch dup 3 1 roll findfont dup length dict begin
  { 1 index /FID ne {def}{pop pop} ifelse } forall
  /Encoding exch def currentdict end definefont pop} bdef
/isroman {findfont /CharStrings get /Agrave known} bdef
/FMSR {3 1 roll 1 index dup isroman {reencode} {pop pop} ifelse
  exch FMS} bdef
/csm {1 dpi2point div -1 dpi2point div scale neg translate
 dup landscapeMode eq {pop -90 rotate}
  {rotateMode eq {90 rotate} if} ifelse} bdef
% line types: solid, dotted, dashed, dotdash
/SO { [] 0 setdash } bdef
/DO { [.5 dpi2point mul 4 dpi2point mul] 0 setdash } bdef
/DA { [6 dpi2point mul] 0 setdash } bdef
/DD { [.5 dpi2point mul 4 dpi2point mul 6 dpi2point mul 4
  dpi2point mul] 0 setdash } bdef
% macros for lines and objects
/L {lineto stroke} bdef
/MP {3 1 roll moveto 1 sub {rlineto} repeat} bdef
/AP {{rlineto} repeat} bdef
/PDlw -1 def
/W {/PDlw currentlinewidth def setlinewidth} def
/PP {closepath eofill} bdef
/DP {closepath stroke} bdef
/MR {4 -2 roll moveto dup  0 exch rlineto exch 0 rlineto
  neg 0 exch rlineto closepath} bdef
/FR {MR stroke} bdef
/PR {MR fill} bdef
/L1i {{currentfile picstr readhexstring pop} image} bdef
/tMatrix matrix def
/MakeOval {newpath tMatrix currentmatrix pop translate scale
0 0 1 0 360 arc tMatrix setmatrix} bdef
/FO {MakeOval stroke} bdef
/PO {MakeOval fill} bdef
/PD {currentlinewidth 2 div 0 360 arc fill
   PDlw -1 eq not {PDlw w /PDlw -1 def} if} def
/FA {newpath tMatrix currentmatrix pop translate scale
  0 0 1 5 -2 roll arc tMatrix setmatrix stroke} bdef
/PA {newpath tMatrix currentmatrix pop	translate 0 0 moveto scale
  0 0 1 5 -2 roll arc closepath tMatrix setmatrix fill} bdef
/FAn {newpath tMatrix currentmatrix pop translate scale
  0 0 1 5 -2 roll arcn tMatrix setmatrix stroke} bdef
/PAn {newpath tMatrix currentmatrix pop translate 0 0 moveto scale
  0 0 1 5 -2 roll arcn closepath tMatrix setmatrix fill} bdef
/vradius 0 def /hradius 0 def /lry 0 def
/lrx 0 def /uly 0 def /ulx 0 def /rad 0 def
/MRR {/vradius xdef /hradius xdef /lry xdef /lrx xdef /uly xdef
  /ulx xdef newpath tMatrix currentmatrix pop ulx hradius add uly
  vradius add translate hradius vradius scale 0 0 1 180 270 arc 
  tMatrix setmatrix lrx hradius sub uly vradius add translate
  hradius vradius scale 0 0 1 270 360 arc tMatrix setmatrix
  lrx hradius sub lry vradius sub translate hradius vradius scale
  0 0 1 0 90 arc tMatrix setmatrix ulx hradius add lry vradius sub
  translate hradius vradius scale 0 0 1 90 180 arc tMatrix setmatrix
  closepath} bdef
/FRR {MRR stroke } bdef
/PRR {MRR fill } bdef
/MlrRR {/lry xdef /lrx xdef /uly xdef /ulx xdef /rad lry uly sub 2 div def
  newpath tMatrix currentmatrix pop ulx rad add uly rad add translate
  rad rad scale 0 0 1 90 270 arc tMatrix setmatrix lrx rad sub lry rad
  sub translate rad rad scale 0 0 1 270 90 arc tMatrix setmatrix
  closepath} bdef
/FlrRR {MlrRR stroke } bdef
/PlrRR {MlrRR fill } bdef
/MtbRR {/lry xdef /lrx xdef /uly xdef /ulx xdef /rad lrx ulx sub 2 div def
  newpath tMatrix currentmatrix pop ulx rad add uly rad add translate
  rad rad scale 0 0 1 180 360 arc tMatrix setmatrix lrx rad sub lry rad
  sub translate rad rad scale 0 0 1 0 180 arc tMatrix setmatrix
  closepath} bdef
/FtbRR {MtbRR stroke } bdef
/PtbRR {MtbRR fill } bdef
/stri 6 array def /dtri 6 array def
/smat 6 array def /dmat 6 array def
/tmat1 6 array def /tmat2 6 array def /dif 3 array def
/asub {/ind2 exch def /ind1 exch def dup dup
  ind1 get exch ind2 get sub exch } bdef
/tri_to_matrix {
  2 0 asub 3 1 asub 4 0 asub 5 1 asub
  dup 0 get exch 1 get 7 -1 roll astore } bdef
/compute_transform {
  dmat dtri tri_to_matrix tmat1 invertmatrix 
  smat stri tri_to_matrix tmat2 concatmatrix } bdef
/ds {stri astore pop} bdef
/dt {dtri astore pop} bdef
/db {2 copy /cols xdef /rows xdef mul dup 3 mul string
  currentfile 
  3 index 0 eq {/ASCIIHexDecode filter}
  {/ASCII85Decode filter 3 index 2 eq {/RunLengthDecode filter} if }
  ifelse exch readstring pop
  dup 0 3 index getinterval /rbmap xdef
  dup 2 index dup getinterval /gbmap xdef
  1 index dup 2 mul exch getinterval /bbmap xdef pop pop}bdef
/it {gs np dtri aload pop moveto lineto lineto cp c
  cols rows 8 compute_transform 
  rbmap gbmap bbmap true 3 colorimage gr}bdef
/il {newpath moveto lineto stroke}bdef
currentdict end def
%%EndProlog

%%BeginSetup
MathWorks begin

0 cap

end
%%EndSetup

%%Page: 1 1
%%BeginPageSetup
%%PageBoundingBox:  -255   131   851   710
MathWorks begin
bpage
%%EndPageSetup

%%BeginObject: obj1
bplot

/dpi2point 12 def
portraitMode -3060 8520 csm

    0     0 13277  6942 rc
99 dict begin %Colortable dictionary
/c0 { 0.000000 0.000000 0.000000 sr} bdef
/c1 { 1.000000 1.000000 1.000000 sr} bdef
/c2 { 0.900000 0.000000 0.000000 sr} bdef
/c3 { 0.000000 0.820000 0.000000 sr} bdef
/c4 { 0.000000 0.000000 0.800000 sr} bdef
/c5 { 0.910000 0.820000 0.320000 sr} bdef
/c6 { 1.000000 0.260000 0.820000 sr} bdef
/c7 { 0.000000 0.820000 0.820000 sr} bdef
c0
1 j
1 sg
   0    0 13278 6943 rf
6 w
0 sg
%%IncludeResource: font Helvetica-Bold
/Helvetica-Bold /WindowsLatin1Encoding 216 FMSR

2548  486 mt 
(TRANCEIVER PARAMETER TUNING PLOT WITH EQUALIZATION VARIATIO\
N) s
gs 5060 521 3622 5658 rc
2263 0 6418 3349 2 MP stroke
-1131 -1960 6418 3349 2 MP stroke
-1131 1960 6418 3349 2 MP stroke
0 -114 6984 3406 2 MP stroke
0 -114 7549 3406 2 MP stroke
0 -114 8115 3406 2 MP stroke
0 -114 8681 3406 2 MP stroke
gr

%%IncludeResource: font Helvetica-Bold
/Helvetica-Bold /WindowsLatin1Encoding 120 FMSR

6984 3619 mt 
(3.75) s
7549 3619 mt 
(7.5) s
8115 3619 mt 
(11.25) s
8681 3619 mt 
(15) s
%%IncludeResource: font Helvetica-Bold
/Helvetica-Bold /WindowsLatin1Encoding 168 FMSR

8772 3390 mt 
(Equalization Control) s
8772 3589 mt 
(                    ) s
gs 5060 521 3622 5658 rc
-98 56 6184 2831 2 MP stroke
-98 56 5901 2341 2 MP stroke
-98 57 5618 1851 2 MP stroke
-98 57 5336 1361 2 MP stroke
gr

%%IncludeResource: font Helvetica-Bold
/Helvetica-Bold /WindowsLatin1Encoding 120 FMSR

6331 2790 mt 
(15.5) s
6048 2300 mt 
(31) s
5765 1810 mt 
(46.5) s
5483 1320 mt 
(62) s
%%IncludeResource: font Helvetica-Bold
/Helvetica-Bold /WindowsLatin1Encoding 168 FMSR

4526 1272 mt 
(Eye Width) s
4902 1471 mt 
(         ) s
gs 5060 521 3622 5658 rc
98 56 6086 3811 2 MP stroke
98 56 5803 4301 2 MP stroke
98 57 5520 4790 2 MP stroke
98 57 5238 5280 2 MP stroke
gr

%%IncludeResource: font Helvetica-Bold
/Helvetica-Bold /WindowsLatin1Encoding 120 FMSR

5773 3770 mt 
(2.5) s
5590 4260 mt 
(5) s
5207 4750 mt 
(7.5) s
4958 5240 mt 
(10) s
%%IncludeResource: font Helvetica-Bold
/Helvetica-Bold /WindowsLatin1Encoding 168 FMSR

4412 5500 mt 
(Eye Height) s
4811 5699 mt 
(          ) s
gs 5060 521 3622 5658 rc
18 w
1131 -1960 -73 3793 -1058 -1833 6418 3349 4 MP stroke
/c8 { 0.000000 0.000000 0.400000 sr} bdef
c8
1282 -1960 -54 3825 -1228 -1865 6569 3349 4 MP stroke
c4
1433 -1960 -73 3793 -1360 -1833 6720 3349 4 MP stroke
/c9 { 0.000000 0.200000 1.000000 sr} bdef
c9
1584 -1960 -54 3825 -1530 -1865 6871 3349 4 MP stroke
/c10 { 0.000000 0.600000 1.000000 sr} bdef
c10
1734 -1960 -36 3856 -1698 -1896 7021 3349 4 MP stroke
/c11 { 0.000000 1.000000 1.000000 sr} bdef
c11
1885 -1960 -54 3825 -1831 -1865 7172 3349 4 MP stroke
/c12 { 0.000000 1.000000 0.600000 sr} bdef
c12
2036 -1960 -36 3856 -2000 -1896 7323 3349 4 MP stroke
/c13 { 0.000000 1.000000 0.200000 sr} bdef
c13
2187 -1960 -36 3856 -2151 -1896 7474 3349 4 MP stroke
/c14 { 0.200000 1.000000 0.000000 sr} bdef
c14
2338 -1960 -36 3856 -2302 -1896 7625 3349 4 MP stroke
/c15 { 0.600000 1.000000 0.000000 sr} bdef
c15
2489 -1960 -36 3856 -2453 -1896 7776 3349 4 MP stroke
/c16 { 1.000000 1.000000 0.000000 sr} bdef
c16
2639 -1960 -18 3888 -2621 -1928 7926 3349 4 MP stroke
/c17 { 1.000000 0.600000 0.400000 sr} bdef
c17
2790 -1960 0 3920 -2790 -1960 8077 3349 4 MP stroke
/c18 { 1.000000 0.200000 0.800000 sr} bdef
c18
2941 -1960 0 3920 -2941 -1960 8228 3349 4 MP stroke
/c19 { 1.000000 0.000000 0.800000 sr} bdef
c19
3092 -1960 0 3920 -3092 -1960 8379 3349 4 MP stroke
/c20 { 1.000000 0.000000 0.400000 sr} bdef
c20
3243 -1960 0 3920 -3243 -1960 8530 3349 4 MP stroke
/c21 { 1.000000 0.000000 0.000000 sr} bdef
c21
3281 -1764 95 3692 -3376 -1928 8681 3349 4 MP stroke
gr

18 w
c21
0 sg
%%IncludeResource: font Helvetica
/Helvetica /WindowsLatin1Encoding 120 FMSR

5030 6237 mt 
( ) s
8652  579 mt 
( ) s
6 w
1 sg
0 2730 1636 0 0 -2730 3366 4587 4 MP
PP
-1636 0 0 2730 1636 0 0 -2730 3366 4587 5 MP stroke
4 w
DO
SO
6 w
0 sg
3366 1857 mt 5002 1857 L
3366 4587 mt 5002 4587 L
5002 4587 mt 5002 1857 L
3366 4587 mt 3366 1857 L
3366 4587 mt 5002 4587 L
3366 4587 mt 3366 1857 L
3366 1857 mt 5002 1857 L
3366 4587 mt 5002 4587 L
5002 4587 mt 5002 1857 L
3366 4587 mt 3366 1857 L
3839 2004 mt 
(EQUALIZATION = 0) s
gs 3366 1857 1637 2731 rc
18 w
364 0 3438 1962 2 MP stroke
gr

18 w
3839 2172 mt 
(EQUALIZATION = 1) s
gs 3366 1857 1637 2731 rc
c8
364 0 3438 2130 2 MP stroke
gr

c8
0 sg
3839 2340 mt 
(EQUALIZATION = 2) s
gs 3366 1857 1637 2731 rc
c4
364 0 3438 2298 2 MP stroke
gr

c4
0 sg
3839 2508 mt 
(EQUALIZATION = 3) s
gs 3366 1857 1637 2731 rc
c9
364 0 3438 2466 2 MP stroke
gr

c9
0 sg
3839 2676 mt 
(EQUALIZATION = 4) s
gs 3366 1857 1637 2731 rc
c10
364 0 3438 2634 2 MP stroke
gr

c10
0 sg
3839 2844 mt 
(EQUALIZATION = 5) s
gs 3366 1857 1637 2731 rc
c11
364 0 3438 2802 2 MP stroke
gr

c11
0 sg
3839 3012 mt 
(EQUALIZATION = 6) s
gs 3366 1857 1637 2731 rc
c12
364 0 3438 2970 2 MP stroke
gr

c12
0 sg
3839 3180 mt 
(EQUALIZATION = 7) s
gs 3366 1857 1637 2731 rc
c13
364 0 3438 3138 2 MP stroke
gr

c13
0 sg
3839 3349 mt 
(EQUALIZATION = 8) s
gs 3366 1857 1637 2731 rc
c14
364 0 3438 3306 2 MP stroke
gr

c14
0 sg
3839 3517 mt 
(EQUALIZATION = 9) s
gs 3366 1857 1637 2731 rc
c15
364 0 3438 3474 2 MP stroke
gr

c15
0 sg
3839 3685 mt 
(EQUALIZATION = 10) s
gs 3366 1857 1637 2731 rc
c16
364 0 3438 3642 2 MP stroke
gr

c16
0 sg
3839 3853 mt 
(EQUALIZATION = 11) s
gs 3366 1857 1637 2731 rc
c17
364 0 3438 3810 2 MP stroke
gr

c17
0 sg
3839 4021 mt 
(EQUALIZATION = 12) s
gs 3366 1857 1637 2731 rc
c18
364 0 3438 3978 2 MP stroke
gr

c18
0 sg
3839 4189 mt 
(EQUALIZATION = 13) s
gs 3366 1857 1637 2731 rc
c19
364 0 3438 4146 2 MP stroke
gr

c19
0 sg
3839 4357 mt 
(EQUALIZATION = 14) s
gs 3366 1857 1637 2731 rc
c20
364 0 3438 4314 2 MP stroke
gr

c20
0 sg
3839 4525 mt 
(EQUALIZATION = 15) s
gs 3366 1857 1637 2731 rc
c21
364 0 3438 4482 2 MP stroke
6 w
gr

6 w
c21

end %%Color Dict

eplot
%%EndObject

epage
end

showpage

%%Trailer
%%EOF
