\relax 
\providecommand\HyperFirstAtBeginDocument{\AtBeginDocument}
\HyperFirstAtBeginDocument{\ifx\hyper@anchor\@undefined
\global\let\oldcontentsline\contentsline
\gdef\contentsline#1#2#3#4{\oldcontentsline{#1}{#2}{#3}}
\global\let\oldnewlabel\newlabel
\gdef\newlabel#1#2{\newlabelxx{#1}#2}
\gdef\newlabelxx#1#2#3#4#5#6{\oldnewlabel{#1}{{#2}{#3}}}
\AtEndDocument{\ifx\hyper@anchor\@undefined
\let\contentsline\oldcontentsline
\let\newlabel\oldnewlabel
\fi}
\fi}
\global\let\hyper@last\relax 
\gdef\HyperFirstAtBeginDocument#1{#1}
\providecommand\HyField@AuxAddToFields[1]{}
\citation{mendez2016fpga}
\citation{mendez2016fpga}
\@writefile{toc}{\contentsline {section}{\numberline {1}GBT Specification}{2}{section.1}}
\@writefile{toc}{\contentsline {subsection}{\numberline {1.1}GBT Frame}{2}{subsection.1.1}}
\@writefile{lof}{\contentsline {figure}{\numberline {1}{\ignorespaces Frame structure of GBT \cite  {mendez2016fpga}\relax }}{2}{figure.caption.2}}
\providecommand*\caption@xref[2]{\@setref\relax\@undefined{#1}}
\newlabel{fig:frame}{{1}{2}{Frame structure of GBT \cite {mendez2016fpga}\relax \relax }{figure.caption.2}{}}
\@writefile{toc}{\contentsline {subsection}{\numberline {1.2}Forward Error Correction (FEC) In GBT Scheme}{2}{subsection.1.2}}
\@writefile{toc}{\contentsline {section}{\numberline {2}Measurement Setup}{2}{section.2}}
\citation{rudd2000statistical}
\citation{detraz2009fpga}
\citation{soos2008gbt}
\@writefile{lof}{\contentsline {figure}{\numberline {2}{\ignorespaces \textbf  {Measurement Setup}\relax }}{3}{figure.caption.3}}
\newlabel{fig:setup:ber}{{2}{3}{\textbf {Measurement Setup}\relax \relax }{figure.caption.3}{}}
\@writefile{toc}{\contentsline {section}{\numberline {3}GBT BER Measurement}{3}{section.3}}
\newlabel{eq:BER:CL}{{1}{3}{GBT BER Measurement\relax }{equation.3.1}{}}
\newlabel{eq:ber:diff}{{2}{3}{GBT BER Measurement\relax }{equation.3.2}{}}
\@writefile{lof}{\contentsline {figure}{\numberline {3}{\ignorespaces Time required to reach $10^{-12}$ BER vs. line rate. Showing the cases for GBT and TTC-PON.\relax }}{4}{figure.caption.4}}
\newlabel{fig:CL}{{3}{4}{Time required to reach $10^{-12}$ BER vs. line rate. Showing the cases for GBT and TTC-PON.\relax \relax }{figure.caption.4}{}}
\@writefile{lof}{\contentsline {figure}{\numberline {4}{\ignorespaces Showing GBT BER measurement for GBT and widebus FEC scheme \relax }}{4}{figure.caption.5}}
\newlabel{fig:gbtber:plot}{{4}{4}{Showing GBT BER measurement for GBT and widebus FEC scheme \relax \relax }{figure.caption.5}{}}
\citation{schwemmer2014evaluation}
\citation{schwemmer2014evaluation}
\citation{schwemmer2014evaluation}
\@writefile{toc}{\contentsline {paragraph}{Power Measurement}{5}{section*.6}}
\@writefile{lof}{\contentsline {figure}{\numberline {5}{\ignorespaces Showing power Monitor of GBT Firmware during data communication mode in : (a) GBT Scheme and (b) Widebus Scheme\relax }}{5}{figure.caption.8}}
\newlabel{fig:gbbt_power}{{5}{5}{Showing power Monitor of GBT Firmware during data communication mode in : (a) GBT Scheme and (b) Widebus Scheme\relax \relax }{figure.caption.8}{}}
\@writefile{lof}{\contentsline {figure}{\numberline {6}{\ignorespaces OM3 and OM4 BER curves and Eye Diagrams (From the research article \cite  {schwemmer2014evaluation})\relax }}{5}{figure.caption.9}}
\citation{jneye2017altera}
\citation{altera2015hps}
\citation{altera2012xcvr}
\citation{alteraBlake}
\citation{emphasis2010altera}
\citation{arria2017guide}
\bibstyle{IEEEtran}
\bibdata{reference}
\@writefile{toc}{\contentsline {section}{\numberline {4}Transceiver Optimization}{6}{section.4}}
\@writefile{lof}{\contentsline {figure}{\numberline {7}{\ignorespaces \textbf  {Transceiver parameter tuning plot with VOD variation}\relax }}{7}{figure.caption.10}}
\newlabel{fig:xcvr:vod}{{7}{7}{\textbf {Transceiver parameter tuning plot with VOD variation}\relax \relax }{figure.caption.10}{}}
\@writefile{lof}{\contentsline {figure}{\numberline {8}{\ignorespaces \textbf  {Transceiver parameter tuning plot with PRE-EMPHASIS 1st PRE TAP variation}\relax }}{7}{figure.caption.11}}
\newlabel{fig:xcvr:pre_emphasis_1st_pre_tap}{{8}{7}{\textbf {Transceiver parameter tuning plot with PRE-EMPHASIS 1st PRE TAP variation}\relax \relax }{figure.caption.11}{}}
\@writefile{lof}{\contentsline {figure}{\numberline {9}{\ignorespaces \textbf  {Transceiver parameter tuning plot with PRE-EMPHASIS 1st POST TAP variation}\relax }}{8}{figure.caption.12}}
\newlabel{fig:xcvr:pre_emphasis_1st_post_tap}{{9}{8}{\textbf {Transceiver parameter tuning plot with PRE-EMPHASIS 1st POST TAP variation}\relax \relax }{figure.caption.12}{}}
\@writefile{lof}{\contentsline {figure}{\numberline {10}{\ignorespaces \textbf  {Transceiver parameter tuning plot with PRE-EMPHASIS 2nd PRE TAP variation}\relax }}{8}{figure.caption.13}}
\newlabel{fig:xcvr:pre_emphasis_2nd_pre_tap}{{10}{8}{\textbf {Transceiver parameter tuning plot with PRE-EMPHASIS 2nd PRE TAP variation}\relax \relax }{figure.caption.13}{}}
\@writefile{lof}{\contentsline {figure}{\numberline {11}{\ignorespaces \textbf  {Transceiver parameter tuning plot with PRE-EMPHASIS 2nd POST TAP variation}\relax }}{9}{figure.caption.14}}
\newlabel{fig:xcvr:pre_emphasis_2nd_post_tap}{{11}{9}{\textbf {Transceiver parameter tuning plot with PRE-EMPHASIS 2nd POST TAP variation}\relax \relax }{figure.caption.14}{}}
\@writefile{lof}{\contentsline {figure}{\numberline {12}{\ignorespaces \textbf  {Transceiver parameter tuning plot with EQUALIZATION variation}\relax }}{9}{figure.caption.15}}
\newlabel{fig:xcvr:equalization}{{12}{9}{\textbf {Transceiver parameter tuning plot with EQUALIZATION variation}\relax \relax }{figure.caption.15}{}}
\@writefile{lof}{\contentsline {figure}{\numberline {13}{\ignorespaces \textbf  {Transceiver parameter tuning plot with VGA variation}\relax }}{10}{figure.caption.16}}
\newlabel{fig:xcvr:vga}{{13}{10}{\textbf {Transceiver parameter tuning plot with VGA variation}\relax \relax }{figure.caption.16}{}}
\@writefile{lof}{\contentsline {figure}{\numberline {14}{\ignorespaces \textbf  {Transceiver parameter tuned showing values for default vs best}\relax }}{10}{figure.caption.17}}
\newlabel{fig:xcvr:tuned_parameter}{{14}{10}{\textbf {Transceiver parameter tuned showing values for default vs best}\relax \relax }{figure.caption.17}{}}
\@writefile{lof}{\contentsline {figure}{\numberline {15}{\ignorespaces \textbf  {Transceiver parameter performance with PRBS variation}\relax }}{11}{figure.caption.18}}
\newlabel{fig:xcvr:prbs}{{15}{11}{\textbf {Transceiver parameter performance with PRBS variation}\relax \relax }{figure.caption.18}{}}
\@writefile{lof}{\contentsline {figure}{\numberline {16}{\ignorespaces Eye Diagram (a) Default parameter settings; (b) Optimized parameter settings\relax }}{11}{figure.caption.19}}
\newlabel{fig:eye:diagram}{{16}{11}{Eye Diagram (a) Default parameter settings; (b) Optimized parameter settings\relax \relax }{figure.caption.19}{}}
\bibcite{mendez2016fpga}{1}
\bibcite{rudd2000statistical}{2}
\bibcite{detraz2009fpga}{3}
\bibcite{soos2008gbt}{4}
\bibcite{schwemmer2014evaluation}{5}
\bibcite{jneye2017altera}{6}
\bibcite{altera2015hps}{7}
\bibcite{altera2012xcvr}{8}
\bibcite{alteraBlake}{9}
\bibcite{emphasis2010altera}{10}
\bibcite{arria2017guide}{11}
\@writefile{toc}{\contentsline {section}{\numberline {5}Appendix I}{13}{section.5}}
\@writefile{toc}{\contentsline {section}{\numberline {6}AppendixII}{13}{section.6}}
\newlabel{appndx}{{6}{13}{AppendixII\relax }{section.6}{}}
\@writefile{lof}{\contentsline {figure}{\numberline {17}{\ignorespaces  Reed-Solomon Codeword\relax }}{13}{figure.caption.22}}
\@writefile{lot}{\contentsline {table}{\numberline {1}{\ignorespaces Table for GF(4)\relax }}{13}{table.caption.24}}
