\contentsline {section}{\numberline {1}GBT Specification}{2}{section.1}
\contentsline {subsection}{\numberline {1.1}GBT Frame}{2}{subsection.1.1}
\contentsline {subsection}{\numberline {1.2}Forward Error Correction (FEC) In GBT Scheme}{2}{subsection.1.2}
\contentsline {section}{\numberline {2}Measurement Setup}{2}{section.2}
\contentsline {section}{\numberline {3}GBT BER Measurement}{3}{section.3}
\contentsline {paragraph}{Power Measurement}{5}{section*.6}
\contentsline {section}{\numberline {4}Transceiver Optimization}{6}{section.4}
\contentsline {section}{\numberline {5}Appendix I}{13}{section.5}
\contentsline {section}{\numberline {6}AppendixII}{13}{section.6}
