\BOOKMARK [1][-]{section.1}{GBT Specification}{}% 1
\BOOKMARK [2][-]{subsection.1.1}{GBT Frame}{section.1}% 2
\BOOKMARK [2][-]{subsection.1.2}{Forward Error Correction \(FEC\) In GBT Scheme}{section.1}% 3
\BOOKMARK [1][-]{section.2}{Measurement Setup}{}% 4
\BOOKMARK [1][-]{section.3}{GBT BER Measurement}{}% 5
\BOOKMARK [1][-]{section.4}{Transceiver Optimization}{}% 6
\BOOKMARK [1][-]{section.5}{Appendix I}{}% 7
\BOOKMARK [1][-]{section.6}{AppendixII}{}% 8
