%!PS-Adobe-3.0 EPSF-3.0
%%Creator: MATLAB, The MathWorks, Inc. Version 8.0.0.783 (R2012b). Operating System: Microsoft Windows 7.
%%Title: C:\MyWorkplace\researchWork\GBT\GBT_BER_WORK\RESULTS\pre_emphasis_2nd_post_tap.eps
%%CreationDate: 05/02/2017  19:02:22
%%DocumentNeededFonts: Helvetica
%%+ Helvetica-Bold
%%DocumentProcessColors: Cyan Magenta Yellow Black
%%LanguageLevel: 2
%%Pages: 1
%%BoundingBox:  -255   131   851   710
%%EndComments

%%BeginProlog
% MathWorks dictionary
/MathWorks 160 dict begin
% definition operators
/bdef {bind def} bind def
/ldef {load def} bind def
/xdef {exch def} bdef
/xstore {exch store} bdef
% operator abbreviations
/c  /clip ldef
/cc /concat ldef
/cp /closepath ldef
/gr /grestore ldef
/gs /gsave ldef
/mt /moveto ldef
/np /newpath ldef
/cm /currentmatrix ldef
/sm /setmatrix ldef
/rm /rmoveto ldef
/rl /rlineto ldef
/s {show newpath} bdef
/sc {setcmykcolor} bdef
/sr /setrgbcolor ldef
/sg /setgray ldef
/w /setlinewidth ldef
/j /setlinejoin ldef
/cap /setlinecap ldef
/rc {rectclip} bdef
/rf {rectfill} bdef
% page state control
/pgsv () def
/bpage {/pgsv save def} bdef
/epage {pgsv restore} bdef
/bplot /gsave ldef
/eplot {stroke grestore} bdef
% orientation switch
/portraitMode 0 def /landscapeMode 1 def /rotateMode 2 def
% coordinate system mappings
/dpi2point 0 def
% font control
/FontSize 0 def
/FMS {/FontSize xstore findfont [FontSize 0 0 FontSize neg 0 0]
  makefont setfont} bdef
/ISOLatin1Encoding where {pop /WindowsLatin1Encoding 256 array bdef
ISOLatin1Encoding WindowsLatin1Encoding copy pop
/.notdef/.notdef/quotesinglbase/florin/quotedblbase/ellipsis/dagger
/daggerdbl/circumflex/perthousand/Scaron/guilsinglleft/OE/.notdef/.notdef
/.notdef/.notdef/quoteleft/quoteright/quotedblleft/quotedblright/bullet
/endash/emdash/tilde/trademark/scaron/guilsinglright/oe/.notdef/.notdef
/Ydieresis WindowsLatin1Encoding 128 32 getinterval astore pop}
{/WindowsLatin1Encoding StandardEncoding bdef} ifelse
/reencode {exch dup where {pop load} {pop StandardEncoding} ifelse
  exch dup 3 1 roll findfont dup length dict begin
  { 1 index /FID ne {def}{pop pop} ifelse } forall
  /Encoding exch def currentdict end definefont pop} bdef
/isroman {findfont /CharStrings get /Agrave known} bdef
/FMSR {3 1 roll 1 index dup isroman {reencode} {pop pop} ifelse
  exch FMS} bdef
/csm {1 dpi2point div -1 dpi2point div scale neg translate
 dup landscapeMode eq {pop -90 rotate}
  {rotateMode eq {90 rotate} if} ifelse} bdef
% line types: solid, dotted, dashed, dotdash
/SO { [] 0 setdash } bdef
/DO { [.5 dpi2point mul 4 dpi2point mul] 0 setdash } bdef
/DA { [6 dpi2point mul] 0 setdash } bdef
/DD { [.5 dpi2point mul 4 dpi2point mul 6 dpi2point mul 4
  dpi2point mul] 0 setdash } bdef
% macros for lines and objects
/L {lineto stroke} bdef
/MP {3 1 roll moveto 1 sub {rlineto} repeat} bdef
/AP {{rlineto} repeat} bdef
/PDlw -1 def
/W {/PDlw currentlinewidth def setlinewidth} def
/PP {closepath eofill} bdef
/DP {closepath stroke} bdef
/MR {4 -2 roll moveto dup  0 exch rlineto exch 0 rlineto
  neg 0 exch rlineto closepath} bdef
/FR {MR stroke} bdef
/PR {MR fill} bdef
/L1i {{currentfile picstr readhexstring pop} image} bdef
/tMatrix matrix def
/MakeOval {newpath tMatrix currentmatrix pop translate scale
0 0 1 0 360 arc tMatrix setmatrix} bdef
/FO {MakeOval stroke} bdef
/PO {MakeOval fill} bdef
/PD {currentlinewidth 2 div 0 360 arc fill
   PDlw -1 eq not {PDlw w /PDlw -1 def} if} def
/FA {newpath tMatrix currentmatrix pop translate scale
  0 0 1 5 -2 roll arc tMatrix setmatrix stroke} bdef
/PA {newpath tMatrix currentmatrix pop	translate 0 0 moveto scale
  0 0 1 5 -2 roll arc closepath tMatrix setmatrix fill} bdef
/FAn {newpath tMatrix currentmatrix pop translate scale
  0 0 1 5 -2 roll arcn tMatrix setmatrix stroke} bdef
/PAn {newpath tMatrix currentmatrix pop translate 0 0 moveto scale
  0 0 1 5 -2 roll arcn closepath tMatrix setmatrix fill} bdef
/vradius 0 def /hradius 0 def /lry 0 def
/lrx 0 def /uly 0 def /ulx 0 def /rad 0 def
/MRR {/vradius xdef /hradius xdef /lry xdef /lrx xdef /uly xdef
  /ulx xdef newpath tMatrix currentmatrix pop ulx hradius add uly
  vradius add translate hradius vradius scale 0 0 1 180 270 arc 
  tMatrix setmatrix lrx hradius sub uly vradius add translate
  hradius vradius scale 0 0 1 270 360 arc tMatrix setmatrix
  lrx hradius sub lry vradius sub translate hradius vradius scale
  0 0 1 0 90 arc tMatrix setmatrix ulx hradius add lry vradius sub
  translate hradius vradius scale 0 0 1 90 180 arc tMatrix setmatrix
  closepath} bdef
/FRR {MRR stroke } bdef
/PRR {MRR fill } bdef
/MlrRR {/lry xdef /lrx xdef /uly xdef /ulx xdef /rad lry uly sub 2 div def
  newpath tMatrix currentmatrix pop ulx rad add uly rad add translate
  rad rad scale 0 0 1 90 270 arc tMatrix setmatrix lrx rad sub lry rad
  sub translate rad rad scale 0 0 1 270 90 arc tMatrix setmatrix
  closepath} bdef
/FlrRR {MlrRR stroke } bdef
/PlrRR {MlrRR fill } bdef
/MtbRR {/lry xdef /lrx xdef /uly xdef /ulx xdef /rad lrx ulx sub 2 div def
  newpath tMatrix currentmatrix pop ulx rad add uly rad add translate
  rad rad scale 0 0 1 180 360 arc tMatrix setmatrix lrx rad sub lry rad
  sub translate rad rad scale 0 0 1 0 180 arc tMatrix setmatrix
  closepath} bdef
/FtbRR {MtbRR stroke } bdef
/PtbRR {MtbRR fill } bdef
/stri 6 array def /dtri 6 array def
/smat 6 array def /dmat 6 array def
/tmat1 6 array def /tmat2 6 array def /dif 3 array def
/asub {/ind2 exch def /ind1 exch def dup dup
  ind1 get exch ind2 get sub exch } bdef
/tri_to_matrix {
  2 0 asub 3 1 asub 4 0 asub 5 1 asub
  dup 0 get exch 1 get 7 -1 roll astore } bdef
/compute_transform {
  dmat dtri tri_to_matrix tmat1 invertmatrix 
  smat stri tri_to_matrix tmat2 concatmatrix } bdef
/ds {stri astore pop} bdef
/dt {dtri astore pop} bdef
/db {2 copy /cols xdef /rows xdef mul dup 3 mul string
  currentfile 
  3 index 0 eq {/ASCIIHexDecode filter}
  {/ASCII85Decode filter 3 index 2 eq {/RunLengthDecode filter} if }
  ifelse exch readstring pop
  dup 0 3 index getinterval /rbmap xdef
  dup 2 index dup getinterval /gbmap xdef
  1 index dup 2 mul exch getinterval /bbmap xdef pop pop}bdef
/it {gs np dtri aload pop moveto lineto lineto cp c
  cols rows 8 compute_transform 
  rbmap gbmap bbmap true 3 colorimage gr}bdef
/il {newpath moveto lineto stroke}bdef
currentdict end def
%%EndProlog

%%BeginSetup
MathWorks begin

0 cap

end
%%EndSetup

%%Page: 1 1
%%BeginPageSetup
%%PageBoundingBox:  -255   131   851   710
MathWorks begin
bpage
%%EndPageSetup

%%BeginObject: obj1
bplot

/dpi2point 12 def
portraitMode -3060 8520 csm

    0     0 13277  6942 rc
107 dict begin %Colortable dictionary
/c0 { 0.000000 0.000000 0.000000 sr} bdef
/c1 { 1.000000 1.000000 1.000000 sr} bdef
/c2 { 0.900000 0.000000 0.000000 sr} bdef
/c3 { 0.000000 0.820000 0.000000 sr} bdef
/c4 { 0.000000 0.000000 0.800000 sr} bdef
/c5 { 0.910000 0.820000 0.320000 sr} bdef
/c6 { 1.000000 0.260000 0.820000 sr} bdef
/c7 { 0.000000 0.820000 0.820000 sr} bdef
c0
1 j
1 sg
   0    0 13278 6943 rf
6 w
0 sg
%%IncludeResource: font Helvetica-Bold
/Helvetica-Bold /WindowsLatin1Encoding 216 FMSR

1677  486 mt 
(TRANCEIVER PARAMETER TUNING PLOT WITH PRE-EMPHASIS 2nd POST\
-TAP VARIATION) s
gs 5060 521 3622 5658 rc
2263 0 6418 3349 2 MP stroke
-1131 -1960 6418 3349 2 MP stroke
-1131 1960 6418 3349 2 MP stroke
0 -114 6984 3406 2 MP stroke
0 -114 7549 3406 2 MP stroke
0 -114 8115 3406 2 MP stroke
0 -114 8681 3406 2 MP stroke
gr

%%IncludeResource: font Helvetica-Bold
/Helvetica-Bold /WindowsLatin1Encoding 120 FMSR

6984 3619 mt 
(-10.5) s
7549 3619 mt 
(-3) s
8115 3619 mt 
(4.5) s
8681 3619 mt 
(12) s
%%IncludeResource: font Helvetica-Bold
/Helvetica-Bold /WindowsLatin1Encoding 168 FMSR

8816 3373 mt 
(Pre-emphasis 2nd Post-Tap) s
8816 3572 mt 
(                         ) s
gs 5060 521 3622 5658 rc
-98 56 6184 2831 2 MP stroke
-98 56 5901 2341 2 MP stroke
-98 57 5618 1851 2 MP stroke
-98 57 5336 1361 2 MP stroke
gr

%%IncludeResource: font Helvetica-Bold
/Helvetica-Bold /WindowsLatin1Encoding 120 FMSR

6331 2790 mt 
(15) s
6048 2300 mt 
(30) s
5765 1810 mt 
(45) s
5428 1372 mt 
(60) s
%%IncludeResource: font Helvetica-Bold
/Helvetica-Bold /WindowsLatin1Encoding 168 FMSR

4861 1166 mt 
(Eye Width) s
5237 1365 mt 
(         ) s
gs 5060 521 3622 5658 rc
98 56 6086 3811 2 MP stroke
98 56 5803 4301 2 MP stroke
98 57 5520 4790 2 MP stroke
98 57 5238 5280 2 MP stroke
gr

%%IncludeResource: font Helvetica-Bold
/Helvetica-Bold /WindowsLatin1Encoding 120 FMSR

5941 3781 mt 
(2.5) s
5759 4276 mt 
(5) s
5359 4770 mt 
(7.5) s
5047 5211 mt 
(10) s
%%IncludeResource: font Helvetica-Bold
/Helvetica-Bold /WindowsLatin1Encoding 168 FMSR

4403 5464 mt 
(Eye Height) s
4802 5663 mt 
(          ) s
gs 5060 521 3622 5658 rc
18 w
1584 -1960 0 3920 -1584 -1960 6871 3349 4 MP stroke
/c8 { 0.000000 0.000000 0.250000 sr} bdef
c8
1659 -1960 0 3920 -1659 -1960 6946 3349 4 MP stroke
/c9 { 0.000000 0.000000 0.500000 sr} bdef
c9
1734 -1960 -18 3887 -1716 -1927 7021 3349 4 MP stroke
/c10 { 0.000000 0.000000 0.750000 sr} bdef
c10
1810 -1960 0 3920 -1810 -1960 7097 3349 4 MP stroke
/c11 { 0.000000 0.000000 1.000000 sr} bdef
c11
1885 -1960 -18 3887 -1867 -1927 7172 3349 4 MP stroke
/c12 { 0.000000 0.250000 1.000000 sr} bdef
c12
1961 -1960 0 3920 -1961 -1960 7248 3349 4 MP stroke
/c13 { 0.000000 0.500000 1.000000 sr} bdef
c13
2036 -1960 -18 3887 -2018 -1927 7323 3349 4 MP stroke
/c14 { 0.000000 0.750000 1.000000 sr} bdef
c14
2111 -1960 -37 3854 -2074 -1894 7398 3349 4 MP stroke
/c15 { 0.000000 1.000000 1.000000 sr} bdef
c15
2187 -1960 -37 3854 -2150 -1894 7474 3349 4 MP stroke
/c16 { 0.000000 1.000000 0.750000 sr} bdef
c16
2262 -1960 -37 3854 -2225 -1894 7549 3349 4 MP stroke
/c17 { 0.000000 1.000000 0.500000 sr} bdef
c17
2338 -1960 -37 3854 -2301 -1894 7625 3349 4 MP stroke
/c18 { 0.000000 1.000000 0.250000 sr} bdef
c18
2413 -1960 -18 3887 -2395 -1927 7700 3349 4 MP stroke
/c19 { 0.000000 1.000000 0.000000 sr} bdef
c19
2489 -1960 -37 3854 -2452 -1894 7776 3349 4 MP stroke
/c20 { 0.250000 1.000000 0.000000 sr} bdef
c20
2564 -1960 -18 3887 -2546 -1927 7851 3349 4 MP stroke
/c21 { 0.500000 1.000000 0.000000 sr} bdef
c21
2639 -1960 -37 3854 -2602 -1894 7926 3349 4 MP stroke
/c22 { 0.750000 1.000000 0.000000 sr} bdef
c22
2715 -1960 -18 3887 -2697 -1927 8002 3349 4 MP stroke
/c23 { 1.000000 1.000000 0.000000 sr} bdef
c23
2790 -1960 -56 3822 -2734 -1862 8077 3349 4 MP stroke
/c24 { 1.000000 0.750000 0.250000 sr} bdef
c24
2866 -1960 -56 3822 -2810 -1862 8153 3349 4 MP stroke
/c25 { 1.000000 0.500000 0.500000 sr} bdef
c25
2941 -1960 -75 3789 -2866 -1829 8228 3349 4 MP stroke
/c26 { 1.000000 0.250000 0.750000 sr} bdef
c26
3017 -1960 -75 3789 -2942 -1829 8304 3349 4 MP stroke
/c27 { 1.000000 0.000000 1.000000 sr} bdef
c27
3092 -1960 -37 3854 -3055 -1894 8379 3349 4 MP stroke
/c28 { 1.000000 0.000000 0.750000 sr} bdef
c28
3167 -1960 -37 3854 -3130 -1894 8454 3349 4 MP stroke
/c29 { 1.000000 0.000000 0.500000 sr} bdef
c29
3243 -1960 -75 3789 -3168 -1829 8530 3349 4 MP stroke
/c30 { 1.000000 0.000000 0.250000 sr} bdef
c30
3318 -1960 -56 3822 -3262 -1862 8605 3349 4 MP stroke
/c31 { 1.000000 0.000000 0.000000 sr} bdef
c31
3394 -1960 -75 3789 -3319 -1829 8681 3349 4 MP stroke
gr

18 w
c31
0 sg
%%IncludeResource: font Helvetica
/Helvetica /WindowsLatin1Encoding 120 FMSR

5030 6237 mt 
( ) s
8652  579 mt 
( ) s
6 w
1 sg
0 4242 2666 0 0 -4242 1994 5267 4 MP
PP
-2666 0 0 4242 2666 0 0 -4242 1994 5267 5 MP stroke
4 w
DO
SO
6 w
0 sg
1994 1025 mt 4660 1025 L
1994 5267 mt 4660 5267 L
4660 5267 mt 4660 1025 L
1994 5267 mt 1994 1025 L
1994 5267 mt 4660 5267 L
1994 5267 mt 1994 1025 L
1994 1025 mt 4660 1025 L
1994 5267 mt 4660 5267 L
4660 5267 mt 4660 1025 L
1994 5267 mt 1994 1025 L
2482 1172 mt 
(PRE-EMPHASIS 2nd POST-TAP = -12) s
gs 1994 1025 2667 4243 rc
18 w
375 0 2069 1130 2 MP stroke
gr

18 w
2482 1340 mt 
(PRE-EMPHASIS 2nd POST-TAP = -11) s
gs 1994 1025 2667 4243 rc
c8
375 0 2069 1298 2 MP stroke
gr

c8
0 sg
2482 1508 mt 
(PRE-EMPHASIS 2nd POST-TAP = -10) s
gs 1994 1025 2667 4243 rc
c9
375 0 2069 1466 2 MP stroke
gr

c9
0 sg
2482 1676 mt 
(PRE-EMPHASIS 2nd POST-TAP = -9) s
gs 1994 1025 2667 4243 rc
c10
375 0 2069 1634 2 MP stroke
gr

c10
0 sg
2482 1844 mt 
(PRE-EMPHASIS 2nd POST-TAP = -8) s
gs 1994 1025 2667 4243 rc
c11
375 0 2069 1802 2 MP stroke
gr

c11
0 sg
2482 2012 mt 
(PRE-EMPHASIS 2nd POST-TAP = -7) s
gs 1994 1025 2667 4243 rc
c12
375 0 2069 1970 2 MP stroke
gr

c12
0 sg
2482 2180 mt 
(PRE-EMPHASIS 2nd POST-TAP = -6) s
gs 1994 1025 2667 4243 rc
c13
375 0 2069 2138 2 MP stroke
gr

c13
0 sg
2482 2348 mt 
(PRE-EMPHASIS 2nd POST-TAP = -5) s
gs 1994 1025 2667 4243 rc
c14
375 0 2069 2306 2 MP stroke
gr

c14
0 sg
2482 2516 mt 
(PRE-EMPHASIS 2nd POST-TAP = -4) s
gs 1994 1025 2667 4243 rc
c15
375 0 2069 2474 2 MP stroke
gr

c15
0 sg
2482 2684 mt 
(PRE-EMPHASIS 2nd POST-TAP = -3) s
gs 1994 1025 2667 4243 rc
c16
375 0 2069 2642 2 MP stroke
gr

c16
0 sg
2482 2852 mt 
(PRE-EMPHASIS 2nd POST-TAP = -2) s
gs 1994 1025 2667 4243 rc
c17
375 0 2069 2810 2 MP stroke
gr

c17
0 sg
2482 3020 mt 
(PRE-EMPHASIS 2nd POST-TAP = -1) s
gs 1994 1025 2667 4243 rc
c18
375 0 2069 2978 2 MP stroke
gr

c18
0 sg
2482 3189 mt 
(PRE-EMPHASIS 2nd POST-TAP = 0) s
gs 1994 1025 2667 4243 rc
c19
375 0 2069 3146 2 MP stroke
gr

c19
0 sg
2482 3357 mt 
(PRE-EMPHASIS 2nd POST-TAP = 1) s
gs 1994 1025 2667 4243 rc
c20
375 0 2069 3314 2 MP stroke
gr

c20
0 sg
2482 3525 mt 
(PRE-EMPHASIS 2nd POST-TAP = 2) s
gs 1994 1025 2667 4243 rc
c21
375 0 2069 3482 2 MP stroke
gr

c21
0 sg
2482 3693 mt 
(PRE-EMPHASIS 2nd POST-TAP = 3) s
gs 1994 1025 2667 4243 rc
c22
375 0 2069 3650 2 MP stroke
gr

c22
0 sg
2482 3861 mt 
(PRE-EMPHASIS 2nd POST-TAP = 4) s
gs 1994 1025 2667 4243 rc
c23
375 0 2069 3818 2 MP stroke
gr

c23
0 sg
2482 4029 mt 
(PRE-EMPHASIS 2nd POST-TAP = 5) s
gs 1994 1025 2667 4243 rc
c24
375 0 2069 3986 2 MP stroke
gr

c24
0 sg
2482 4197 mt 
(PRE-EMPHASIS 2nd POST-TAP = 6) s
gs 1994 1025 2667 4243 rc
c25
375 0 2069 4154 2 MP stroke
gr

c25
0 sg
2482 4365 mt 
(PRE-EMPHASIS 2nd POST-TAP = 7) s
gs 1994 1025 2667 4243 rc
c26
375 0 2069 4322 2 MP stroke
gr

c26
0 sg
2482 4533 mt 
(PRE-EMPHASIS 2nd POST-TAP = 8) s
gs 1994 1025 2667 4243 rc
c27
375 0 2069 4490 2 MP stroke
gr

c27
0 sg
2482 4701 mt 
(PRE-EMPHASIS 2nd POST-TAP = 9) s
gs 1994 1025 2667 4243 rc
c28
375 0 2069 4658 2 MP stroke
gr

c28
0 sg
2482 4869 mt 
(PRE-EMPHASIS 2nd POST-TAP = 10) s
gs 1994 1025 2667 4243 rc
c29
375 0 2069 4826 2 MP stroke
gr

c29
0 sg
2482 5037 mt 
(PRE-EMPHASIS 2nd POST-TAP = 11) s
gs 1994 1025 2667 4243 rc
c30
375 0 2069 4994 2 MP stroke
gr

c30
0 sg
2482 5205 mt 
(PRE-EMPHASIS 2nd POST-TAP = 12) s
gs 1994 1025 2667 4243 rc
c31
375 0 2069 5162 2 MP stroke
6 w
gr

6 w
c31

end %%Color Dict

eplot
%%EndObject

epage
end

showpage

%%Trailer
%%EOF
