%!PS-Adobe-3.0 EPSF-3.0
%%Creator: MATLAB, The MathWorks, Inc. Version 8.0.0.783 (R2012b). Operating System: Microsoft Windows 7.
%%Title: C:\MyWorkplace\researchWork\GBT\GBT_BER_WORK\RESULTS\vod.eps
%%CreationDate: 05/02/2017  19:06:32
%%DocumentNeededFonts: Helvetica
%%+ Helvetica-Bold
%%DocumentProcessColors: Cyan Magenta Yellow Black
%%LanguageLevel: 2
%%Pages: 1
%%BoundingBox:  -278   155   874   685
%%EndComments

%%BeginProlog
% MathWorks dictionary
/MathWorks 160 dict begin
% definition operators
/bdef {bind def} bind def
/ldef {load def} bind def
/xdef {exch def} bdef
/xstore {exch store} bdef
% operator abbreviations
/c  /clip ldef
/cc /concat ldef
/cp /closepath ldef
/gr /grestore ldef
/gs /gsave ldef
/mt /moveto ldef
/np /newpath ldef
/cm /currentmatrix ldef
/sm /setmatrix ldef
/rm /rmoveto ldef
/rl /rlineto ldef
/s {show newpath} bdef
/sc {setcmykcolor} bdef
/sr /setrgbcolor ldef
/sg /setgray ldef
/w /setlinewidth ldef
/j /setlinejoin ldef
/cap /setlinecap ldef
/rc {rectclip} bdef
/rf {rectfill} bdef
% page state control
/pgsv () def
/bpage {/pgsv save def} bdef
/epage {pgsv restore} bdef
/bplot /gsave ldef
/eplot {stroke grestore} bdef
% orientation switch
/portraitMode 0 def /landscapeMode 1 def /rotateMode 2 def
% coordinate system mappings
/dpi2point 0 def
% font control
/FontSize 0 def
/FMS {/FontSize xstore findfont [FontSize 0 0 FontSize neg 0 0]
  makefont setfont} bdef
/ISOLatin1Encoding where {pop /WindowsLatin1Encoding 256 array bdef
ISOLatin1Encoding WindowsLatin1Encoding copy pop
/.notdef/.notdef/quotesinglbase/florin/quotedblbase/ellipsis/dagger
/daggerdbl/circumflex/perthousand/Scaron/guilsinglleft/OE/.notdef/.notdef
/.notdef/.notdef/quoteleft/quoteright/quotedblleft/quotedblright/bullet
/endash/emdash/tilde/trademark/scaron/guilsinglright/oe/.notdef/.notdef
/Ydieresis WindowsLatin1Encoding 128 32 getinterval astore pop}
{/WindowsLatin1Encoding StandardEncoding bdef} ifelse
/reencode {exch dup where {pop load} {pop StandardEncoding} ifelse
  exch dup 3 1 roll findfont dup length dict begin
  { 1 index /FID ne {def}{pop pop} ifelse } forall
  /Encoding exch def currentdict end definefont pop} bdef
/isroman {findfont /CharStrings get /Agrave known} bdef
/FMSR {3 1 roll 1 index dup isroman {reencode} {pop pop} ifelse
  exch FMS} bdef
/csm {1 dpi2point div -1 dpi2point div scale neg translate
 dup landscapeMode eq {pop -90 rotate}
  {rotateMode eq {90 rotate} if} ifelse} bdef
% line types: solid, dotted, dashed, dotdash
/SO { [] 0 setdash } bdef
/DO { [.5 dpi2point mul 4 dpi2point mul] 0 setdash } bdef
/DA { [6 dpi2point mul] 0 setdash } bdef
/DD { [.5 dpi2point mul 4 dpi2point mul 6 dpi2point mul 4
  dpi2point mul] 0 setdash } bdef
% macros for lines and objects
/L {lineto stroke} bdef
/MP {3 1 roll moveto 1 sub {rlineto} repeat} bdef
/AP {{rlineto} repeat} bdef
/PDlw -1 def
/W {/PDlw currentlinewidth def setlinewidth} def
/PP {closepath eofill} bdef
/DP {closepath stroke} bdef
/MR {4 -2 roll moveto dup  0 exch rlineto exch 0 rlineto
  neg 0 exch rlineto closepath} bdef
/FR {MR stroke} bdef
/PR {MR fill} bdef
/L1i {{currentfile picstr readhexstring pop} image} bdef
/tMatrix matrix def
/MakeOval {newpath tMatrix currentmatrix pop translate scale
0 0 1 0 360 arc tMatrix setmatrix} bdef
/FO {MakeOval stroke} bdef
/PO {MakeOval fill} bdef
/PD {currentlinewidth 2 div 0 360 arc fill
   PDlw -1 eq not {PDlw w /PDlw -1 def} if} def
/FA {newpath tMatrix currentmatrix pop translate scale
  0 0 1 5 -2 roll arc tMatrix setmatrix stroke} bdef
/PA {newpath tMatrix currentmatrix pop	translate 0 0 moveto scale
  0 0 1 5 -2 roll arc closepath tMatrix setmatrix fill} bdef
/FAn {newpath tMatrix currentmatrix pop translate scale
  0 0 1 5 -2 roll arcn tMatrix setmatrix stroke} bdef
/PAn {newpath tMatrix currentmatrix pop translate 0 0 moveto scale
  0 0 1 5 -2 roll arcn closepath tMatrix setmatrix fill} bdef
/vradius 0 def /hradius 0 def /lry 0 def
/lrx 0 def /uly 0 def /ulx 0 def /rad 0 def
/MRR {/vradius xdef /hradius xdef /lry xdef /lrx xdef /uly xdef
  /ulx xdef newpath tMatrix currentmatrix pop ulx hradius add uly
  vradius add translate hradius vradius scale 0 0 1 180 270 arc 
  tMatrix setmatrix lrx hradius sub uly vradius add translate
  hradius vradius scale 0 0 1 270 360 arc tMatrix setmatrix
  lrx hradius sub lry vradius sub translate hradius vradius scale
  0 0 1 0 90 arc tMatrix setmatrix ulx hradius add lry vradius sub
  translate hradius vradius scale 0 0 1 90 180 arc tMatrix setmatrix
  closepath} bdef
/FRR {MRR stroke } bdef
/PRR {MRR fill } bdef
/MlrRR {/lry xdef /lrx xdef /uly xdef /ulx xdef /rad lry uly sub 2 div def
  newpath tMatrix currentmatrix pop ulx rad add uly rad add translate
  rad rad scale 0 0 1 90 270 arc tMatrix setmatrix lrx rad sub lry rad
  sub translate rad rad scale 0 0 1 270 90 arc tMatrix setmatrix
  closepath} bdef
/FlrRR {MlrRR stroke } bdef
/PlrRR {MlrRR fill } bdef
/MtbRR {/lry xdef /lrx xdef /uly xdef /ulx xdef /rad lrx ulx sub 2 div def
  newpath tMatrix currentmatrix pop ulx rad add uly rad add translate
  rad rad scale 0 0 1 180 360 arc tMatrix setmatrix lrx rad sub lry rad
  sub translate rad rad scale 0 0 1 0 180 arc tMatrix setmatrix
  closepath} bdef
/FtbRR {MtbRR stroke } bdef
/PtbRR {MtbRR fill } bdef
/stri 6 array def /dtri 6 array def
/smat 6 array def /dmat 6 array def
/tmat1 6 array def /tmat2 6 array def /dif 3 array def
/asub {/ind2 exch def /ind1 exch def dup dup
  ind1 get exch ind2 get sub exch } bdef
/tri_to_matrix {
  2 0 asub 3 1 asub 4 0 asub 5 1 asub
  dup 0 get exch 1 get 7 -1 roll astore } bdef
/compute_transform {
  dmat dtri tri_to_matrix tmat1 invertmatrix 
  smat stri tri_to_matrix tmat2 concatmatrix } bdef
/ds {stri astore pop} bdef
/dt {dtri astore pop} bdef
/db {2 copy /cols xdef /rows xdef mul dup 3 mul string
  currentfile 
  3 index 0 eq {/ASCIIHexDecode filter}
  {/ASCII85Decode filter 3 index 2 eq {/RunLengthDecode filter} if }
  ifelse exch readstring pop
  dup 0 3 index getinterval /rbmap xdef
  dup 2 index dup getinterval /gbmap xdef
  1 index dup 2 mul exch getinterval /bbmap xdef pop pop}bdef
/it {gs np dtri aload pop moveto lineto lineto cp c
  cols rows 8 compute_transform 
  rbmap gbmap bbmap true 3 colorimage gr}bdef
/il {newpath moveto lineto stroke}bdef
currentdict end def
%%EndProlog

%%BeginSetup
MathWorks begin

0 cap

end
%%EndSetup

%%Page: 1 1
%%BeginPageSetup
%%PageBoundingBox:  -278   155   874   685
MathWorks begin
bpage
%%EndPageSetup

%%BeginObject: obj1
bplot

/dpi2point 12 def
portraitMode -3336 8220 csm

    0     0 13835  6357 rc
111 dict begin %Colortable dictionary
/c0 { 0.000000 0.000000 0.000000 sr} bdef
/c1 { 1.000000 1.000000 1.000000 sr} bdef
/c2 { 0.900000 0.000000 0.000000 sr} bdef
/c3 { 0.000000 0.820000 0.000000 sr} bdef
/c4 { 0.000000 0.000000 0.800000 sr} bdef
/c5 { 0.910000 0.820000 0.320000 sr} bdef
/c6 { 1.000000 0.260000 0.820000 sr} bdef
/c7 { 0.000000 0.820000 0.820000 sr} bdef
c0
1 j
1 sg
   0    0 13836 6358 rf
6 w
0 sg
%%IncludeResource: font Helvetica-Bold
/Helvetica-Bold /WindowsLatin1Encoding 216 FMSR

3449  452 mt 
(TRANCEIVER PARAMETER TUNING PLOT WITH VOD VARIATION) s
gs 5502 477 3316 5182 rc
2072 0 6745 3067 2 MP stroke
-1036 -1795 6745 3067 2 MP stroke
-1036 1795 6745 3067 2 MP stroke
0 -104 7263 3119 2 MP stroke
0 -104 7781 3119 2 MP stroke
0 -104 8299 3119 2 MP stroke
0 -104 8817 3119 2 MP stroke
gr

%%IncludeResource: font Helvetica-Bold
/Helvetica-Bold /WindowsLatin1Encoding 120 FMSR

7263 3318 mt 
(7.5) s
7781 3318 mt 
(15) s
8299 3318 mt 
(22.5) s
8817 3318 mt 
(30) s
%%IncludeResource: font Helvetica-Bold
/Helvetica-Bold /WindowsLatin1Encoding 168 FMSR

9025 3029 mt 
(VOD Control) s
9025 3228 mt 
(           ) s
gs 5502 477 3316 5182 rc
-90 52 6531 2592 2 MP stroke
-90 52 6272 2144 2 MP stroke
-90 52 6013 1695 2 MP stroke
-90 52 5754 1246 2 MP stroke
gr

%%IncludeResource: font Helvetica-Bold
/Helvetica-Bold /WindowsLatin1Encoding 120 FMSR

6665 2559 mt 
(14.75) s
6406 2110 mt 
(29.5) s
6147 1661 mt 
(44.25) s
5888 1213 mt 
(59) s
%%IncludeResource: font Helvetica-Bold
/Helvetica-Bold /WindowsLatin1Encoding 168 FMSR

4809 1055 mt 
(Eye Width) s
5185 1254 mt 
(         ) s
gs 5502 477 3316 5182 rc
90 52 6441 3490 2 MP stroke
90 52 6182 3938 2 MP stroke
90 52 5923 4387 2 MP stroke
90 52 5664 4836 2 MP stroke
gr

%%IncludeResource: font Helvetica-Bold
/Helvetica-Bold /WindowsLatin1Encoding 120 FMSR

6140 3456 mt 
(2.5) s
5981 3905 mt 
(5) s
5622 4353 mt 
(7.5) s
5396 4802 mt 
(10) s
%%IncludeResource: font Helvetica-Bold
/Helvetica-Bold /WindowsLatin1Encoding 168 FMSR

4739 5003 mt 
(Eye Height) s
5138 5202 mt 
(          ) s
gs 5502 477 3316 5182 rc
18 w
1243 -1795 -35 3529 -1208 -1734 6952 3067 4 MP stroke
/c8 { 0.000000 0.000000 0.222222 sr} bdef
c8
1312 -1795 -17 3559 -1295 -1764 7021 3067 4 MP stroke
/c9 { 0.000000 0.000000 0.444444 sr} bdef
c9
1381 -1795 -17 3559 -1364 -1764 7090 3067 4 MP stroke
/c10 { 0.000000 0.000000 0.666667 sr} bdef
c10
1451 -1795 -17 3559 -1434 -1764 7160 3067 4 MP stroke
/c11 { 0.000000 0.000000 0.888889 sr} bdef
c11
1520 -1795 -35 3529 -1485 -1734 7229 3067 4 MP stroke
/c12 { 0.000000 0.111111 1.000000 sr} bdef
c12
1589 -1795 -17 3559 -1572 -1764 7298 3067 4 MP stroke
/c13 { 0.000000 0.333333 1.000000 sr} bdef
c13
1658 -1795 0 3590 -1658 -1795 7367 3067 4 MP stroke
/c14 { 0.000000 0.555556 1.000000 sr} bdef
c14
1727 -1795 -17 3559 -1710 -1764 7436 3067 4 MP stroke
/c15 { 0.000000 0.777778 1.000000 sr} bdef
c15
1796 -1795 -17 3559 -1779 -1764 7505 3067 4 MP stroke
/c16 { 0.000000 1.000000 1.000000 sr} bdef
c16
1865 -1795 -35 3529 -1830 -1734 7574 3067 4 MP stroke
/c17 { 0.000000 1.000000 0.777778 sr} bdef
c17
1934 -1795 -17 3559 -1917 -1764 7643 3067 4 MP stroke
/c18 { 0.000000 1.000000 0.555556 sr} bdef
c18
2003 -1795 -17 3559 -1986 -1764 7712 3067 4 MP stroke
/c19 { 0.000000 1.000000 0.333333 sr} bdef
c19
2072 -1795 0 3590 -2072 -1795 7781 3067 4 MP stroke
/c20 { 0.000000 1.000000 0.111111 sr} bdef
c20
2141 -1795 0 3590 -2141 -1795 7850 3067 4 MP stroke
/c21 { 0.111111 1.000000 0.000000 sr} bdef
c21
2210 -1795 -17 3559 -2193 -1764 7919 3067 4 MP stroke
/c22 { 0.333333 1.000000 0.000000 sr} bdef
c22
2279 -1795 -17 3559 -2262 -1764 7988 3067 4 MP stroke
/c23 { 0.555556 1.000000 0.000000 sr} bdef
c23
2349 -1795 0 3590 -2349 -1795 8058 3067 4 MP stroke
/c24 { 0.777778 1.000000 0.000000 sr} bdef
c24
2418 -1795 0 3590 -2418 -1795 8127 3067 4 MP stroke
/c25 { 1.000000 1.000000 0.000000 sr} bdef
c25
2487 -1795 -35 3529 -2452 -1734 8196 3067 4 MP stroke
/c26 { 1.000000 0.777778 0.222222 sr} bdef
c26
2556 -1795 -17 3559 -2539 -1764 8265 3067 4 MP stroke
/c27 { 1.000000 0.555556 0.444444 sr} bdef
c27
2625 -1795 0 3590 -2625 -1795 8334 3067 4 MP stroke
/c28 { 1.000000 0.333333 0.666667 sr} bdef
c28
2694 -1795 0 3590 -2694 -1795 8403 3067 4 MP stroke
/c29 { 1.000000 0.111111 0.888889 sr} bdef
c29
2763 -1795 -17 3559 -2746 -1764 8472 3067 4 MP stroke
/c30 { 1.000000 0.000000 0.888889 sr} bdef
c30
2832 -1795 0 3590 -2832 -1795 8541 3067 4 MP stroke
/c31 { 1.000000 0.000000 0.666667 sr} bdef
c31
2901 -1795 -35 3529 -2866 -1734 8610 3067 4 MP stroke
/c32 { 1.000000 0.000000 0.444444 sr} bdef
c32
2970 -1795 0 3590 -2970 -1795 8679 3067 4 MP stroke
/c33 { 1.000000 0.000000 0.222222 sr} bdef
c33
3039 -1795 -17 3559 -3022 -1764 8748 3067 4 MP stroke
/c34 { 1.000000 0.000000 0.000000 sr} bdef
c34
3108 -1795 0 3590 -3108 -1795 8817 3067 4 MP stroke
gr

18 w
c34
0 sg
%%IncludeResource: font Helvetica
/Helvetica /WindowsLatin1Encoding 120 FMSR

5473 5716 mt 
( ) s
8789  534 mt 
( ) s
6 w
1 sg
0 4746 1044 0 0 -4746 3519 5428 4 MP
PP
-1044 0 0 4746 1044 0 0 -4746 3519 5428 5 MP stroke
4 w
DO
SO
6 w
0 sg
3519  682 mt 4563  682 L
3519 5428 mt 4563 5428 L
4563 5428 mt 4563  682 L
3519 5428 mt 3519  682 L
3519 5428 mt 4563 5428 L
3519 5428 mt 3519  682 L
3519  682 mt 4563  682 L
3519 5428 mt 4563 5428 L
4563 5428 mt 4563  682 L
3519 5428 mt 3519  682 L
3987  829 mt 
(VOD = 3) s
gs 3519 682 1045 4747 rc
18 w
360 0 3591 787 2 MP stroke
gr

18 w
3987  997 mt 
(VOD = 4) s
gs 3519 682 1045 4747 rc
c8
360 0 3591 955 2 MP stroke
gr

c8
0 sg
3987 1165 mt 
(VOD = 5) s
gs 3519 682 1045 4747 rc
c9
360 0 3591 1123 2 MP stroke
gr

c9
0 sg
3987 1333 mt 
(VOD = 6) s
gs 3519 682 1045 4747 rc
c10
360 0 3591 1290 2 MP stroke
gr

c10
0 sg
3987 1501 mt 
(VOD = 7) s
gs 3519 682 1045 4747 rc
c11
360 0 3591 1458 2 MP stroke
gr

c11
0 sg
3987 1669 mt 
(VOD = 8) s
gs 3519 682 1045 4747 rc
c12
360 0 3591 1626 2 MP stroke
gr

c12
0 sg
3987 1837 mt 
(VOD = 9) s
gs 3519 682 1045 4747 rc
c13
360 0 3591 1794 2 MP stroke
gr

c13
0 sg
3987 2005 mt 
(VOD = 10) s
gs 3519 682 1045 4747 rc
c14
360 0 3591 1962 2 MP stroke
gr

c14
0 sg
3987 2173 mt 
(VOD = 11) s
gs 3519 682 1045 4747 rc
c15
360 0 3591 2130 2 MP stroke
gr

c15
0 sg
3987 2341 mt 
(VOD = 12) s
gs 3519 682 1045 4747 rc
c16
360 0 3591 2298 2 MP stroke
gr

c16
0 sg
3987 2509 mt 
(VOD = 13) s
gs 3519 682 1045 4747 rc
c17
360 0 3591 2466 2 MP stroke
gr

c17
0 sg
3987 2677 mt 
(VOD = 14) s
gs 3519 682 1045 4747 rc
c18
360 0 3591 2634 2 MP stroke
gr

c18
0 sg
3987 2845 mt 
(VOD = 15) s
gs 3519 682 1045 4747 rc
c19
360 0 3591 2802 2 MP stroke
gr

c19
0 sg
3987 3013 mt 
(VOD = 16) s
gs 3519 682 1045 4747 rc
c20
360 0 3591 2970 2 MP stroke
gr

c20
0 sg
3987 3182 mt 
(VOD = 17) s
gs 3519 682 1045 4747 rc
c21
360 0 3591 3138 2 MP stroke
gr

c21
0 sg
3987 3350 mt 
(VOD = 18) s
gs 3519 682 1045 4747 rc
c22
360 0 3591 3306 2 MP stroke
gr

c22
0 sg
3987 3518 mt 
(VOD = 19) s
gs 3519 682 1045 4747 rc
c23
360 0 3591 3474 2 MP stroke
gr

c23
0 sg
3987 3686 mt 
(VOD = 20) s
gs 3519 682 1045 4747 rc
c24
360 0 3591 3642 2 MP stroke
gr

c24
0 sg
3987 3854 mt 
(VOD = 21) s
gs 3519 682 1045 4747 rc
c25
360 0 3591 3810 2 MP stroke
gr

c25
0 sg
3987 4022 mt 
(VOD = 22) s
gs 3519 682 1045 4747 rc
c26
360 0 3591 3978 2 MP stroke
gr

c26
0 sg
3987 4190 mt 
(VOD = 23) s
gs 3519 682 1045 4747 rc
c27
360 0 3591 4146 2 MP stroke
gr

c27
0 sg
3987 4358 mt 
(VOD = 24) s
gs 3519 682 1045 4747 rc
c28
360 0 3591 4314 2 MP stroke
gr

c28
0 sg
3987 4526 mt 
(VOD = 25) s
gs 3519 682 1045 4747 rc
c29
360 0 3591 4482 2 MP stroke
gr

c29
0 sg
3987 4694 mt 
(VOD = 26) s
gs 3519 682 1045 4747 rc
c30
360 0 3591 4650 2 MP stroke
gr

c30
0 sg
3987 4862 mt 
(VOD = 27) s
gs 3519 682 1045 4747 rc
c31
360 0 3591 4818 2 MP stroke
gr

c31
0 sg
3987 5030 mt 
(VOD = 28) s
gs 3519 682 1045 4747 rc
c32
360 0 3591 4986 2 MP stroke
gr

c32
0 sg
3987 5198 mt 
(VOD = 29) s
gs 3519 682 1045 4747 rc
c33
360 0 3591 5154 2 MP stroke
gr

c33
0 sg
3987 5366 mt 
(VOD = 30) s
gs 3519 682 1045 4747 rc
c34
360 0 3591 5322 2 MP stroke
6 w
gr

6 w
c34

end %%Color Dict

eplot
%%EndObject

epage
end

showpage

%%Trailer
%%EOF
