				GBT	WIDEBUS	10^11
-13.3	19					
-13.75	275					
-14.11	1875					
-14.38	6720					
-14.9	75078					
-15.3	389101					
-14.6	24805					
-15.7	1229293					
-15.9	2580389					
-17	51280224					
-15.54	824033					
-12.9	1					
-16.29	10000000					
