%!PS-Adobe-3.0 EPSF-3.0
%%Creator: MATLAB, The MathWorks, Inc. Version 8.0.0.783 (R2012b). Operating System: Microsoft Windows 7.
%%Title: C:\MyWorkplace\researchWork\GBT\GBT_BER_WORK\RESULTS\confidence_level.eps
%%CreationDate: 05/02/2017  19:04:32
%%DocumentNeededFonts: Helvetica
%%+ Helvetica-Bold
%%DocumentProcessColors: Cyan Magenta Yellow Black
%%LanguageLevel: 2
%%Pages: 1
%%BoundingBox:  -278   155   874   685
%%EndComments

%%BeginProlog
% MathWorks dictionary
/MathWorks 160 dict begin
% definition operators
/bdef {bind def} bind def
/ldef {load def} bind def
/xdef {exch def} bdef
/xstore {exch store} bdef
% operator abbreviations
/c  /clip ldef
/cc /concat ldef
/cp /closepath ldef
/gr /grestore ldef
/gs /gsave ldef
/mt /moveto ldef
/np /newpath ldef
/cm /currentmatrix ldef
/sm /setmatrix ldef
/rm /rmoveto ldef
/rl /rlineto ldef
/s {show newpath} bdef
/sc {setcmykcolor} bdef
/sr /setrgbcolor ldef
/sg /setgray ldef
/w /setlinewidth ldef
/j /setlinejoin ldef
/cap /setlinecap ldef
/rc {rectclip} bdef
/rf {rectfill} bdef
% page state control
/pgsv () def
/bpage {/pgsv save def} bdef
/epage {pgsv restore} bdef
/bplot /gsave ldef
/eplot {stroke grestore} bdef
% orientation switch
/portraitMode 0 def /landscapeMode 1 def /rotateMode 2 def
% coordinate system mappings
/dpi2point 0 def
% font control
/FontSize 0 def
/FMS {/FontSize xstore findfont [FontSize 0 0 FontSize neg 0 0]
  makefont setfont} bdef
/ISOLatin1Encoding where {pop /WindowsLatin1Encoding 256 array bdef
ISOLatin1Encoding WindowsLatin1Encoding copy pop
/.notdef/.notdef/quotesinglbase/florin/quotedblbase/ellipsis/dagger
/daggerdbl/circumflex/perthousand/Scaron/guilsinglleft/OE/.notdef/.notdef
/.notdef/.notdef/quoteleft/quoteright/quotedblleft/quotedblright/bullet
/endash/emdash/tilde/trademark/scaron/guilsinglright/oe/.notdef/.notdef
/Ydieresis WindowsLatin1Encoding 128 32 getinterval astore pop}
{/WindowsLatin1Encoding StandardEncoding bdef} ifelse
/reencode {exch dup where {pop load} {pop StandardEncoding} ifelse
  exch dup 3 1 roll findfont dup length dict begin
  { 1 index /FID ne {def}{pop pop} ifelse } forall
  /Encoding exch def currentdict end definefont pop} bdef
/isroman {findfont /CharStrings get /Agrave known} bdef
/FMSR {3 1 roll 1 index dup isroman {reencode} {pop pop} ifelse
  exch FMS} bdef
/csm {1 dpi2point div -1 dpi2point div scale neg translate
 dup landscapeMode eq {pop -90 rotate}
  {rotateMode eq {90 rotate} if} ifelse} bdef
% line types: solid, dotted, dashed, dotdash
/SO { [] 0 setdash } bdef
/DO { [.5 dpi2point mul 4 dpi2point mul] 0 setdash } bdef
/DA { [6 dpi2point mul] 0 setdash } bdef
/DD { [.5 dpi2point mul 4 dpi2point mul 6 dpi2point mul 4
  dpi2point mul] 0 setdash } bdef
% macros for lines and objects
/L {lineto stroke} bdef
/MP {3 1 roll moveto 1 sub {rlineto} repeat} bdef
/AP {{rlineto} repeat} bdef
/PDlw -1 def
/W {/PDlw currentlinewidth def setlinewidth} def
/PP {closepath eofill} bdef
/DP {closepath stroke} bdef
/MR {4 -2 roll moveto dup  0 exch rlineto exch 0 rlineto
  neg 0 exch rlineto closepath} bdef
/FR {MR stroke} bdef
/PR {MR fill} bdef
/L1i {{currentfile picstr readhexstring pop} image} bdef
/tMatrix matrix def
/MakeOval {newpath tMatrix currentmatrix pop translate scale
0 0 1 0 360 arc tMatrix setmatrix} bdef
/FO {MakeOval stroke} bdef
/PO {MakeOval fill} bdef
/PD {currentlinewidth 2 div 0 360 arc fill
   PDlw -1 eq not {PDlw w /PDlw -1 def} if} def
/FA {newpath tMatrix currentmatrix pop translate scale
  0 0 1 5 -2 roll arc tMatrix setmatrix stroke} bdef
/PA {newpath tMatrix currentmatrix pop	translate 0 0 moveto scale
  0 0 1 5 -2 roll arc closepath tMatrix setmatrix fill} bdef
/FAn {newpath tMatrix currentmatrix pop translate scale
  0 0 1 5 -2 roll arcn tMatrix setmatrix stroke} bdef
/PAn {newpath tMatrix currentmatrix pop translate 0 0 moveto scale
  0 0 1 5 -2 roll arcn closepath tMatrix setmatrix fill} bdef
/vradius 0 def /hradius 0 def /lry 0 def
/lrx 0 def /uly 0 def /ulx 0 def /rad 0 def
/MRR {/vradius xdef /hradius xdef /lry xdef /lrx xdef /uly xdef
  /ulx xdef newpath tMatrix currentmatrix pop ulx hradius add uly
  vradius add translate hradius vradius scale 0 0 1 180 270 arc 
  tMatrix setmatrix lrx hradius sub uly vradius add translate
  hradius vradius scale 0 0 1 270 360 arc tMatrix setmatrix
  lrx hradius sub lry vradius sub translate hradius vradius scale
  0 0 1 0 90 arc tMatrix setmatrix ulx hradius add lry vradius sub
  translate hradius vradius scale 0 0 1 90 180 arc tMatrix setmatrix
  closepath} bdef
/FRR {MRR stroke } bdef
/PRR {MRR fill } bdef
/MlrRR {/lry xdef /lrx xdef /uly xdef /ulx xdef /rad lry uly sub 2 div def
  newpath tMatrix currentmatrix pop ulx rad add uly rad add translate
  rad rad scale 0 0 1 90 270 arc tMatrix setmatrix lrx rad sub lry rad
  sub translate rad rad scale 0 0 1 270 90 arc tMatrix setmatrix
  closepath} bdef
/FlrRR {MlrRR stroke } bdef
/PlrRR {MlrRR fill } bdef
/MtbRR {/lry xdef /lrx xdef /uly xdef /ulx xdef /rad lrx ulx sub 2 div def
  newpath tMatrix currentmatrix pop ulx rad add uly rad add translate
  rad rad scale 0 0 1 180 360 arc tMatrix setmatrix lrx rad sub lry rad
  sub translate rad rad scale 0 0 1 0 180 arc tMatrix setmatrix
  closepath} bdef
/FtbRR {MtbRR stroke } bdef
/PtbRR {MtbRR fill } bdef
/stri 6 array def /dtri 6 array def
/smat 6 array def /dmat 6 array def
/tmat1 6 array def /tmat2 6 array def /dif 3 array def
/asub {/ind2 exch def /ind1 exch def dup dup
  ind1 get exch ind2 get sub exch } bdef
/tri_to_matrix {
  2 0 asub 3 1 asub 4 0 asub 5 1 asub
  dup 0 get exch 1 get 7 -1 roll astore } bdef
/compute_transform {
  dmat dtri tri_to_matrix tmat1 invertmatrix 
  smat stri tri_to_matrix tmat2 concatmatrix } bdef
/ds {stri astore pop} bdef
/dt {dtri astore pop} bdef
/db {2 copy /cols xdef /rows xdef mul dup 3 mul string
  currentfile 
  3 index 0 eq {/ASCIIHexDecode filter}
  {/ASCII85Decode filter 3 index 2 eq {/RunLengthDecode filter} if }
  ifelse exch readstring pop
  dup 0 3 index getinterval /rbmap xdef
  dup 2 index dup getinterval /gbmap xdef
  1 index dup 2 mul exch getinterval /bbmap xdef pop pop}bdef
/it {gs np dtri aload pop moveto lineto lineto cp c
  cols rows 8 compute_transform 
  rbmap gbmap bbmap true 3 colorimage gr}bdef
/il {newpath moveto lineto stroke}bdef
currentdict end def
%%EndProlog

%%BeginSetup
MathWorks begin

0 cap

end
%%EndSetup

%%Page: 1 1
%%BeginPageSetup
%%PageBoundingBox:  -278   155   874   685
MathWorks begin
bpage
%%EndPageSetup

%%BeginObject: obj1
bplot

/dpi2point 12 def
portraitMode -3336 8220 csm

    0     0 13835  6357 rc
86 dict begin %Colortable dictionary
/c0 { 0.000000 0.000000 0.000000 sr} bdef
/c1 { 1.000000 1.000000 1.000000 sr} bdef
/c2 { 0.900000 0.000000 0.000000 sr} bdef
/c3 { 0.000000 0.820000 0.000000 sr} bdef
/c4 { 0.000000 0.000000 0.800000 sr} bdef
/c5 { 0.910000 0.820000 0.320000 sr} bdef
/c6 { 1.000000 0.260000 0.820000 sr} bdef
/c7 { 0.000000 0.820000 0.820000 sr} bdef
c0
1 j
1 sg
   0    0 13836 6358 rf
6 w
0 5181 10722 0 0 -5181 1799 5658 4 MP
PP
-10722 0 0 5181 10722 0 0 -5181 1799 5658 5 MP stroke
4 w
DO
SO
6 w
0 sg
1799  477 mt 12521  477 L
1799 5658 mt 12521 5658 L
12521 5658 mt 12521  477 L
1799 5658 mt 1799  477 L
1799 5658 mt 12521 5658 L
1799 5658 mt 1799  477 L
1799 5658 mt 1799 5550 L
1799  477 mt 1799  584 L
%%IncludeResource: font Helvetica-Bold
/Helvetica-Bold /WindowsLatin1Encoding 192 FMSR

1746 5876 mt 
(2) s
2067 5658 mt 2067 5604 L
2067  477 mt 2067  530 L
2335 5658 mt 2335 5604 L
2335  477 mt 2335  530 L
2603 5658 mt 2603 5604 L
2603  477 mt 2603  530 L
2871 5658 mt 2871 5604 L
2871  477 mt 2871  530 L
3139 5658 mt 3139 5604 L
3139  477 mt 3139  530 L
3139 5658 mt 3139 5604 L
3139  477 mt 3139  530 L
3139 5658 mt 3139 5604 L
3139  477 mt 3139  530 L
3139 5658 mt 3139 5604 L
3139  477 mt 3139  530 L
3139 5658 mt 3139 5604 L
3139  477 mt 3139  530 L
3139 5658 mt 3139 5550 L
3139  477 mt 3139  584 L
3086 5876 mt 
(3) s
3407 5658 mt 3407 5604 L
3407  477 mt 3407  530 L
3675 5658 mt 3675 5604 L
3675  477 mt 3675  530 L
3943 5658 mt 3943 5604 L
3943  477 mt 3943  530 L
4211 5658 mt 4211 5604 L
4211  477 mt 4211  530 L
4479 5658 mt 4479 5604 L
4479  477 mt 4479  530 L
4479 5658 mt 4479 5604 L
4479  477 mt 4479  530 L
4479 5658 mt 4479 5604 L
4479  477 mt 4479  530 L
4479 5658 mt 4479 5604 L
4479  477 mt 4479  530 L
4479 5658 mt 4479 5604 L
4479  477 mt 4479  530 L
4479 5658 mt 4479 5550 L
4479  477 mt 4479  584 L
4426 5876 mt 
(4) s
4747 5658 mt 4747 5604 L
4747  477 mt 4747  530 L
5015 5658 mt 5015 5604 L
5015  477 mt 5015  530 L
5283 5658 mt 5283 5604 L
5283  477 mt 5283  530 L
5551 5658 mt 5551 5604 L
5551  477 mt 5551  530 L
5819 5658 mt 5819 5604 L
5819  477 mt 5819  530 L
5819 5658 mt 5819 5604 L
5819  477 mt 5819  530 L
5819 5658 mt 5819 5604 L
5819  477 mt 5819  530 L
5819 5658 mt 5819 5604 L
5819  477 mt 5819  530 L
5819 5658 mt 5819 5604 L
5819  477 mt 5819  530 L
5819 5658 mt 5819 5550 L
5819  477 mt 5819  584 L
5766 5876 mt 
(5) s
6087 5658 mt 6087 5604 L
6087  477 mt 6087  530 L
6355 5658 mt 6355 5604 L
6355  477 mt 6355  530 L
6623 5658 mt 6623 5604 L
6623  477 mt 6623  530 L
6891 5658 mt 6891 5604 L
6891  477 mt 6891  530 L
7160 5658 mt 7160 5604 L
7160  477 mt 7160  530 L
7160 5658 mt 7160 5604 L
7160  477 mt 7160  530 L
7160 5658 mt 7160 5604 L
7160  477 mt 7160  530 L
7160 5658 mt 7160 5604 L
7160  477 mt 7160  530 L
7160 5658 mt 7160 5604 L
7160  477 mt 7160  530 L
7160 5658 mt 7160 5550 L
7160  477 mt 7160  584 L
7107 5876 mt 
(6) s
7428 5658 mt 7428 5604 L
7428  477 mt 7428  530 L
7696 5658 mt 7696 5604 L
7696  477 mt 7696  530 L
7964 5658 mt 7964 5604 L
7964  477 mt 7964  530 L
8232 5658 mt 8232 5604 L
8232  477 mt 8232  530 L
8500 5658 mt 8500 5604 L
8500  477 mt 8500  530 L
8500 5658 mt 8500 5604 L
8500  477 mt 8500  530 L
8500 5658 mt 8500 5604 L
8500  477 mt 8500  530 L
8500 5658 mt 8500 5604 L
8500  477 mt 8500  530 L
8500 5658 mt 8500 5604 L
8500  477 mt 8500  530 L
8500 5658 mt 8500 5550 L
8500  477 mt 8500  584 L
8447 5876 mt 
(7) s
8768 5658 mt 8768 5604 L
8768  477 mt 8768  530 L
9036 5658 mt 9036 5604 L
9036  477 mt 9036  530 L
9304 5658 mt 9304 5604 L
9304  477 mt 9304  530 L
9572 5658 mt 9572 5604 L
9572  477 mt 9572  530 L
9840 5658 mt 9840 5604 L
9840  477 mt 9840  530 L
9840 5658 mt 9840 5604 L
9840  477 mt 9840  530 L
9840 5658 mt 9840 5604 L
9840  477 mt 9840  530 L
9840 5658 mt 9840 5604 L
9840  477 mt 9840  530 L
9840 5658 mt 9840 5604 L
9840  477 mt 9840  530 L
9840 5658 mt 9840 5550 L
9840  477 mt 9840  584 L
9787 5876 mt 
(8) s
10108 5658 mt 10108 5604 L
10108  477 mt 10108  530 L
10376 5658 mt 10376 5604 L
10376  477 mt 10376  530 L
10644 5658 mt 10644 5604 L
10644  477 mt 10644  530 L
10912 5658 mt 10912 5604 L
10912  477 mt 10912  530 L
11180 5658 mt 11180 5604 L
11180  477 mt 11180  530 L
11180 5658 mt 11180 5604 L
11180  477 mt 11180  530 L
11180 5658 mt 11180 5604 L
11180  477 mt 11180  530 L
11180 5658 mt 11180 5604 L
11180  477 mt 11180  530 L
11180 5658 mt 11180 5604 L
11180  477 mt 11180  530 L
11180 5658 mt 11180 5550 L
11180  477 mt 11180  584 L
11127 5876 mt 
(9) s
11448 5658 mt 11448 5604 L
11448  477 mt 11448  530 L
11716 5658 mt 11716 5604 L
11716  477 mt 11716  530 L
11984 5658 mt 11984 5604 L
11984  477 mt 11984  530 L
12252 5658 mt 12252 5604 L
12252  477 mt 12252  530 L
12521 5658 mt 12521 5604 L
12521  477 mt 12521  530 L
12521 5658 mt 12521 5604 L
12521  477 mt 12521  530 L
12521 5658 mt 12521 5604 L
12521  477 mt 12521  530 L
12521 5658 mt 12521 5604 L
12521  477 mt 12521  530 L
12521 5658 mt 12521 5604 L
12521  477 mt 12521  530 L
12521 5658 mt 12521 5550 L
12521  477 mt 12521  584 L
12415 5876 mt 
(10) s
1799 5658 mt 1906 5658 L
12521 5658 mt 12413 5658 L
1658 5731 mt 
(0) s
1799 5139 mt 1852 5139 L
12521 5139 mt 12467 5139 L
1799 4621 mt 1852 4621 L
12521 4621 mt 12467 4621 L
1799 4621 mt 1852 4621 L
12521 4621 mt 12467 4621 L
1799 4621 mt 1852 4621 L
12521 4621 mt 12467 4621 L
1799 4621 mt 1852 4621 L
12521 4621 mt 12467 4621 L
1799 4621 mt 1852 4621 L
12521 4621 mt 12467 4621 L
1799 4621 mt 1852 4621 L
12521 4621 mt 12467 4621 L
1799 4621 mt 1852 4621 L
12521 4621 mt 12467 4621 L
1799 4621 mt 1852 4621 L
12521 4621 mt 12467 4621 L
1799 4621 mt 1906 4621 L
12521 4621 mt 12413 4621 L
1444 4694 mt 
(500) s
1799 4103 mt 1852 4103 L
12521 4103 mt 12467 4103 L
1799 3585 mt 1852 3585 L
12521 3585 mt 12467 3585 L
1799 3585 mt 1852 3585 L
12521 3585 mt 12467 3585 L
1799 3585 mt 1852 3585 L
12521 3585 mt 12467 3585 L
1799 3585 mt 1852 3585 L
12521 3585 mt 12467 3585 L
1799 3585 mt 1852 3585 L
12521 3585 mt 12467 3585 L
1799 3585 mt 1852 3585 L
12521 3585 mt 12467 3585 L
1799 3585 mt 1852 3585 L
12521 3585 mt 12467 3585 L
1799 3585 mt 1852 3585 L
12521 3585 mt 12467 3585 L
1799 3585 mt 1906 3585 L
12521 3585 mt 12413 3585 L
1337 3658 mt 
(1000) s
1799 3067 mt 1852 3067 L
12521 3067 mt 12467 3067 L
1799 2549 mt 1852 2549 L
12521 2549 mt 12467 2549 L
1799 2549 mt 1852 2549 L
12521 2549 mt 12467 2549 L
1799 2549 mt 1852 2549 L
12521 2549 mt 12467 2549 L
1799 2549 mt 1852 2549 L
12521 2549 mt 12467 2549 L
1799 2549 mt 1852 2549 L
12521 2549 mt 12467 2549 L
1799 2549 mt 1852 2549 L
12521 2549 mt 12467 2549 L
1799 2549 mt 1852 2549 L
12521 2549 mt 12467 2549 L
1799 2549 mt 1852 2549 L
12521 2549 mt 12467 2549 L
1799 2549 mt 1906 2549 L
12521 2549 mt 12413 2549 L
1337 2622 mt 
(1500) s
1799 2031 mt 1852 2031 L
12521 2031 mt 12467 2031 L
1799 1513 mt 1852 1513 L
12521 1513 mt 12467 1513 L
1799 1513 mt 1852 1513 L
12521 1513 mt 12467 1513 L
1799 1513 mt 1852 1513 L
12521 1513 mt 12467 1513 L
1799 1513 mt 1852 1513 L
12521 1513 mt 12467 1513 L
1799 1513 mt 1852 1513 L
12521 1513 mt 12467 1513 L
1799 1513 mt 1852 1513 L
12521 1513 mt 12467 1513 L
1799 1513 mt 1852 1513 L
12521 1513 mt 12467 1513 L
1799 1513 mt 1852 1513 L
12521 1513 mt 12467 1513 L
1799 1513 mt 1906 1513 L
12521 1513 mt 12413 1513 L
1337 1586 mt 
(2000) s
1799  995 mt 1852  995 L
12521  995 mt 12467  995 L
1799  477 mt 1852  477 L
12521  477 mt 12467  477 L
1799  477 mt 1852  477 L
12521  477 mt 12467  477 L
1799  477 mt 1852  477 L
12521  477 mt 12467  477 L
1799  477 mt 1852  477 L
12521  477 mt 12467  477 L
1799  477 mt 1852  477 L
12521  477 mt 12467  477 L
1799  477 mt 1852  477 L
12521  477 mt 12467  477 L
1799  477 mt 1852  477 L
12521  477 mt 12467  477 L
1799  477 mt 1852  477 L
12521  477 mt 12467  477 L
1799  477 mt 1906  477 L
12521  477 mt 12413  477 L
1337  550 mt 
(2500) s
1799  477 mt 12521  477 L
1799 5658 mt 12521 5658 L
12521 5658 mt 12521  477 L
1799 5658 mt 1799  477 L
gs 1799 477 10723 5182 rc
24 w
/c8 { 0.000000 0.000000 1.000000 sr} bdef
c8
27 1 27 1 27 1 27 1 27 1 26 0 27 1 27 1 
27 1 27 1 26 1 27 1 27 1 27 1 27 1 26 1 
27 1 27 2 27 1 27 1 26 1 27 1 27 1 27 1 
27 1 26 1 27 1 27 1 27 1 27 1 26 1 27 1 
27 1 27 2 27 1 26 1 27 1 27 1 27 1 27 1 
27 1 26 1 27 2 27 1 27 1 27 1 26 1 27 1 
27 2 27 1 27 1 26 1 27 1 27 1 27 2 27 1 
26 1 27 1 27 2 27 1 27 1 26 1 27 1 27 2 
27 1 27 1 26 2 27 1 27 1 27 1 27 2 26 1 
27 1 27 2 27 1 27 1 26 2 27 1 27 1 27 2 
27 1 27 1 26 2 27 1 27 1 27 2 27 1 26 2 
27 1 27 1 27 2 27 1 26 2 27 1 27 2 27 1 
27 2 26 1 27 1 27 2 27 1 27 2 26 1 27 2 
27 2 27 1 27 2 26 1 27 2 27 1 27 2 27 1 
26 2 27 2 27 1 27 2 27 1 26 2 27 2 27 1 
27 2 27 2 27 1 26 2 27 2 27 1 27 2 27 2 
26 2 27 1 27 2 27 2 27 2 26 1 27 2 27 2 
27 2 27 2 26 1 27 2 27 2 27 2 27 2 26 2 
27 2 27 1 27 2 27 2 26 2 27 2 27 2 27 2 
27 2 26 2 27 2 27 2 27 2 27 2 26 2 27 2 
27 2 27 2 27 2 27 3 26 2 27 2 27 2 27 2 
27 2 26 3 27 2 27 2 27 2 27 2 26 3 27 2 
27 2 27 2 27 3 26 2 27 2 27 3 27 2 27 3 
26 2 27 2 27 3 27 2 27 3 26 2 27 3 27 2 
27 3 27 2 26 3 27 2 27 3 27 3 27 2 26 3 
27 2 27 3 27 3 27 3 27 2 26 3 27 3 27 3 
27 2 27 3 26 3 27 3 27 3 27 3 27 3 26 3 
27 3 27 3 27 3 27 3 26 3 27 3 27 3 27 3 
27 3 26 3 27 3 27 4 27 3 27 3 26 3 27 4 
27 3 27 3 27 4 26 3 27 4 27 3 27 4 27 3 
27 4 26 3 27 4 27 4 27 3 27 4 26 4 27 3 
27 4 27 4 27 4 26 4 27 3 27 4 27 4 27 4 
26 4 27 4 27 5 27 4 27 4 26 4 27 4 27 4 
27 5 27 4 26 5 27 4 27 4 27 5 27 4 26 5 
27 5 27 4 27 5 27 5 26 4 27 5 27 5 27 5 
27 5 27 5 26 5 27 5 27 5 27 5 27 6 26 5 
27 5 27 6 27 5 27 6 26 5 27 6 27 5 27 6 
27 6 26 6 27 6 4506 4470 300 MP stroke
27 5 27 6 27 7 26 6 27 6 27 6 27 6 27 7 
26 6 27 7 27 6 27 7 27 7 26 6 27 7 27 7 
27 7 27 7 26 7 27 8 27 7 27 7 27 8 27 7 
26 8 27 8 27 8 27 8 27 8 26 8 27 8 27 8 
27 9 27 8 26 9 27 9 27 8 27 9 27 9 26 9 
27 10 27 9 27 10 27 9 26 10 27 10 27 10 27 10 
27 10 26 11 27 10 27 11 27 11 27 11 26 11 27 11 
27 11 27 12 27 12 26 12 27 12 27 12 27 12 27 13 
27 13 26 13 27 13 27 13 27 14 27 14 26 14 27 14 
27 15 27 14 27 15 26 15 27 16 27 15 27 16 27 16 
26 17 27 16 27 17 27 18 27 17 26 18 27 18 27 19 
27 19 27 19 26 20 27 19 27 21 27 20 27 21 26 22 
27 22 27 22 27 23 27 23 26 23 1799 3272 102 MP stroke
/c9 { 1.000000 0.000000 0.000000 sr} bdef
c9
27 2 27 1 27 1 27 1 27 2 26 1 27 1 27 1 
27 2 27 1 26 1 27 2 27 1 27 1 27 2 26 1 
27 1 27 2 27 1 27 1 26 2 27 1 27 1 27 2 
27 1 26 1 27 2 27 1 27 2 27 1 26 1 27 2 
27 1 27 2 27 1 26 2 27 1 27 1 27 2 27 1 
27 2 26 1 27 2 27 1 27 2 27 1 26 2 27 1 
27 2 27 1 27 2 26 1 27 2 27 2 27 1 27 2 
26 1 27 2 27 1 27 2 27 2 26 1 27 2 27 1 
27 2 27 2 26 1 27 2 27 2 27 1 27 2 26 2 
27 1 27 2 27 2 27 2 26 1 27 2 27 2 27 2 
27 1 27 2 26 2 27 2 27 1 27 2 27 2 26 2 
27 2 27 2 27 1 27 2 26 2 27 2 27 2 27 2 
27 2 26 2 27 2 27 2 27 1 27 2 26 2 27 2 
27 2 27 2 27 2 26 2 27 2 27 2 27 2 27 3 
26 2 27 2 27 2 27 2 27 2 26 2 27 2 27 2 
27 3 27 2 27 2 26 2 27 2 27 2 27 3 27 2 
26 2 27 2 27 3 27 2 27 2 26 3 27 2 27 2 
27 3 27 2 26 2 27 3 27 2 27 3 27 2 26 2 
27 3 27 2 27 3 27 2 26 3 27 2 27 3 27 3 
27 2 26 3 27 2 27 3 27 3 27 2 26 3 27 2 
27 3 27 3 27 3 27 2 26 3 27 3 27 3 27 2 
27 3 26 3 27 3 27 3 27 3 27 3 26 3 27 3 
27 3 27 3 27 3 26 3 27 3 27 3 27 3 27 3 
26 3 27 3 27 3 27 3 27 4 26 3 27 3 27 3 
27 4 27 3 26 3 27 4 27 3 27 3 27 4 26 3 
27 4 27 3 27 4 27 3 27 4 26 3 27 4 27 4 
27 3 27 4 26 4 27 3 27 4 27 4 27 4 26 4 
27 3 27 4 27 4 27 4 26 4 27 4 27 4 27 4 
27 4 26 4 27 5 27 4 27 4 27 4 26 4 27 5 
27 4 27 4 27 5 26 4 27 5 27 4 27 5 27 4 
27 5 26 5 27 4 27 5 27 5 27 5 26 4 27 5 
27 5 27 5 27 5 26 5 27 5 27 5 27 6 27 5 
26 5 27 5 27 6 27 5 27 5 26 6 27 5 27 6 
27 5 27 6 26 6 27 6 27 5 27 6 27 6 26 6 
27 6 27 6 27 6 27 6 26 7 27 6 27 6 27 6 
27 7 27 6 26 7 27 7 27 6 27 7 27 7 26 7 
27 7 27 7 27 7 27 7 26 7 27 7 27 8 27 7 
27 8 26 7 27 8 4506 4113 300 MP stroke
27 8 27 7 27 8 26 8 27 8 27 8 27 9 27 8 
26 8 27 9 27 8 27 9 27 9 26 8 27 9 27 9 
27 10 27 9 26 9 27 10 27 9 27 10 27 9 27 10 
26 10 27 10 27 11 27 10 27 10 26 11 27 10 27 11 
27 11 27 11 26 11 27 12 27 11 27 12 27 12 26 12 
27 12 27 12 27 12 27 13 26 12 27 13 27 13 27 13 
27 14 26 13 27 14 27 14 27 14 27 14 26 15 27 14 
27 15 27 15 27 16 26 15 27 16 27 16 27 16 27 16 
27 17 26 17 27 17 27 17 27 18 27 18 26 18 27 19 
27 19 27 19 27 19 26 20 27 20 27 20 27 21 27 21 
26 21 27 22 27 22 27 23 27 23 26 23 27 23 27 25 
27 24 27 25 26 25 27 26 27 27 27 27 27 27 26 28 
27 28 27 29 27 30 27 30 26 31 1799 2553 102 MP stroke
/c10 { 0.000000 1.000000 0.000000 sr} bdef
c10
27 2 27 2 27 2 27 2 27 2 26 1 27 2 27 2 
27 2 27 2 26 2 27 2 27 2 27 2 27 2 26 2 
27 2 27 3 27 2 27 2 26 2 27 2 27 2 27 2 
27 2 26 2 27 2 27 2 27 3 27 2 26 2 27 2 
27 2 27 3 27 2 26 2 27 2 27 2 27 3 27 2 
27 2 26 2 27 3 27 2 27 2 27 3 26 2 27 2 
27 3 27 2 27 2 26 3 27 2 27 2 27 3 27 2 
26 3 27 2 27 3 27 2 27 2 26 3 27 2 27 3 
27 2 27 3 26 3 27 2 27 3 27 2 27 3 26 2 
27 3 27 3 27 2 27 3 26 3 27 2 27 3 27 3 
27 2 27 3 26 3 27 3 27 2 27 3 27 3 26 3 
27 3 27 2 27 3 27 3 26 3 27 3 27 3 27 3 
27 3 26 3 27 2 27 3 27 3 27 3 26 3 27 4 
27 3 27 3 27 3 26 3 27 3 27 3 27 3 27 3 
26 4 27 3 27 3 27 3 27 3 26 4 27 3 27 3 
27 4 27 3 27 3 26 4 27 3 27 3 27 4 27 3 
26 4 27 3 27 4 27 3 27 4 26 3 27 4 27 3 
27 4 27 4 26 3 27 4 27 4 27 3 27 4 26 4 
27 4 27 3 27 4 27 4 26 4 27 4 27 4 27 4 
27 4 26 4 27 4 27 4 27 4 27 4 26 4 27 4 
27 4 27 4 27 4 27 5 26 4 27 4 27 4 27 5 
27 4 26 5 27 4 27 4 27 5 27 4 26 5 27 4 
27 5 27 4 27 5 26 5 27 4 27 5 27 5 27 5 
26 4 27 5 27 5 27 5 27 5 26 5 27 5 27 5 
27 5 27 5 26 5 27 5 27 5 27 6 27 5 26 5 
27 5 27 6 27 5 27 6 27 5 26 6 27 5 27 6 
27 5 27 6 26 6 27 5 27 6 27 6 27 6 26 6 
27 6 27 6 27 6 27 6 26 6 27 6 27 6 27 6 
27 7 26 6 27 6 27 7 27 6 27 7 26 6 27 7 
27 7 27 6 27 7 26 7 27 7 27 7 27 7 27 7 
27 7 26 7 27 7 27 8 27 7 27 7 26 8 27 7 
27 8 27 7 27 8 26 8 27 7 27 8 27 8 27 8 
26 8 27 8 27 9 27 8 27 8 26 8 27 9 27 8 
27 9 27 9 26 9 27 8 27 9 27 9 27 9 26 9 
27 10 27 9 27 9 27 10 26 9 27 10 27 10 27 10 
27 9 27 10 26 11 27 10 27 10 27 10 27 11 26 10 
27 11 27 11 27 11 27 11 26 11 27 11 27 11 27 12 
27 11 26 12 27 12 4506 3283 300 MP stroke
27 11 27 12 27 13 26 12 27 12 27 13 27 12 27 13 
26 13 27 13 27 13 27 13 27 14 26 13 27 14 27 14 
27 14 27 14 26 14 27 15 27 15 27 14 27 15 27 15 
26 16 27 15 27 16 27 16 27 16 26 16 27 16 27 17 
27 17 27 17 26 17 27 18 27 17 27 18 27 18 26 18 
27 19 27 19 27 19 27 19 26 19 27 20 27 20 27 20 
27 21 26 21 27 21 27 21 27 22 27 22 26 22 27 22 
27 23 27 23 27 24 26 24 27 24 27 25 27 24 27 26 
27 25 26 26 27 27 27 26 27 28 27 27 26 28 27 29 
27 29 27 29 27 30 26 30 27 31 27 31 27 32 27 32 
26 33 27 33 27 34 27 35 27 35 26 36 27 36 27 37 
27 38 27 38 26 40 27 39 27 41 27 41 27 42 26 43 
27 44 27 44 27 46 27 46 26 47 1799 886 102 MP stroke
gr

24 w
c10
0 sg
%%IncludeResource: font Symbol
/Symbol /WindowsLatin1Encoding 192 FMSR

6153 6072 mt 
(\254) s
%%IncludeResource: font Helvetica-Bold
/Helvetica-Bold /WindowsLatin1Encoding 192 FMSR

6342 6072 mt 
( Line Rate \(Gbps\) ) s
%%IncludeResource: font Symbol
/Symbol /WindowsLatin1Encoding 192 FMSR

7984 6072 mt 
(\256) s
%%IncludeResource: font Helvetica-Bold
/Helvetica-Bold /WindowsLatin1Encoding 192 FMSR

1226 5612 mt  -90 rotate
(Test Time needed to reach 10) s
90 rotate
%%IncludeResource: font Helvetica-Bold
/Helvetica-Bold /WindowsLatin1Encoding 144 FMSR

1130 2956 mt  -90 rotate
(-12) s
90 rotate
%%IncludeResource: font Helvetica-Bold
/Helvetica-Bold /WindowsLatin1Encoding 192 FMSR

1226 2712 mt  -90 rotate
( with no errors \(secs\) ) s
90 rotate
%%IncludeResource: font Symbol
/Symbol /WindowsLatin1Encoding 192 FMSR

1226  724 mt  -90 rotate
(\256) s
90 rotate
%%IncludeResource: font Helvetica
/Helvetica /WindowsLatin1Encoding 120 FMSR

1782 5701 mt 
( ) s
12505  519 mt 
( ) s
%%IncludeResource: font Helvetica-Bold
/Helvetica-Bold /WindowsLatin1Encoding 144 FMSR

5605 1481 mt 
(GBT line rate = 4.8 Gbps) s
2371  813 mt 
(TTC-PON upstream rate = 2.4 Gbps) s
9317  850 mt 
(TTC-PON downstream rate = 9.6 Gbps) s
6 w
1 sg
0 951 1602 0 0 -951 9731 3040 4 MP
PP
-1602 0 0 951 1602 0 0 -951 9731 3040 5 MP stroke
4 w
DO
SO
6 w
0 sg
9731 2089 mt 11333 2089 L
9731 3040 mt 11333 3040 L
11333 3040 mt 11333 2089 L
9731 3040 mt 9731 2089 L
9731 3040 mt 11333 3040 L
9731 3040 mt 9731 2089 L
9731 2089 mt 11333 2089 L
9731 3040 mt 11333 3040 L
11333 3040 mt 11333 2089 L
9731 3040 mt 9731 2089 L
%%IncludeResource: font Helvetica-Bold
/Helvetica-Bold /WindowsLatin1Encoding 240 FMSR

10199 2350 mt 
(CL = 0.90) s
gs 9731 2089 1603 952 rc
24 w
c8
360 0 9803 2261 2 MP stroke
gr

24 w
c8
0 sg
10199 2653 mt 
(CL = 0.95) s
gs 9731 2089 1603 952 rc
c9
360 0 9803 2564 2 MP stroke
gr

c9
0 sg
10199 2956 mt 
(CL = 0.99) s
gs 9731 2089 1603 952 rc
c10
360 0 9803 2867 2 MP stroke
6 w
gr

6 w
c10
DO
0 sg
0 -5158 5548 5650 2 MP stroke
0 -5158 2339 5647 2 MP stroke
0 -5158 11986 5675 2 MP stroke
SO

end %%Color Dict

eplot
%%EndObject

epage
end

showpage

%%Trailer
%%EOF
