%!PS-Adobe-3.0 EPSF-3.0
%%Creator: MATLAB, The MathWorks, Inc. Version 8.0.0.783 (R2012b). Operating System: Microsoft Windows 7.
%%Title: C:\MyWorkplace\researchWork\GBT\GBT_BER_WORK\RESULTS\GBT_BER.eps
%%CreationDate: 05/02/2017  19:00:00
%%DocumentNeededFonts: Helvetica
%%+ Helvetica-Bold
%%DocumentProcessColors: Cyan Magenta Yellow Black
%%LanguageLevel: 2
%%Pages: 1
%%BoundingBox:  -278   163   874   677
%%EndComments

%%BeginProlog
% MathWorks dictionary
/MathWorks 160 dict begin
% definition operators
/bdef {bind def} bind def
/ldef {load def} bind def
/xdef {exch def} bdef
/xstore {exch store} bdef
% operator abbreviations
/c  /clip ldef
/cc /concat ldef
/cp /closepath ldef
/gr /grestore ldef
/gs /gsave ldef
/mt /moveto ldef
/np /newpath ldef
/cm /currentmatrix ldef
/sm /setmatrix ldef
/rm /rmoveto ldef
/rl /rlineto ldef
/s {show newpath} bdef
/sc {setcmykcolor} bdef
/sr /setrgbcolor ldef
/sg /setgray ldef
/w /setlinewidth ldef
/j /setlinejoin ldef
/cap /setlinecap ldef
/rc {rectclip} bdef
/rf {rectfill} bdef
% page state control
/pgsv () def
/bpage {/pgsv save def} bdef
/epage {pgsv restore} bdef
/bplot /gsave ldef
/eplot {stroke grestore} bdef
% orientation switch
/portraitMode 0 def /landscapeMode 1 def /rotateMode 2 def
% coordinate system mappings
/dpi2point 0 def
% font control
/FontSize 0 def
/FMS {/FontSize xstore findfont [FontSize 0 0 FontSize neg 0 0]
  makefont setfont} bdef
/ISOLatin1Encoding where {pop /WindowsLatin1Encoding 256 array bdef
ISOLatin1Encoding WindowsLatin1Encoding copy pop
/.notdef/.notdef/quotesinglbase/florin/quotedblbase/ellipsis/dagger
/daggerdbl/circumflex/perthousand/Scaron/guilsinglleft/OE/.notdef/.notdef
/.notdef/.notdef/quoteleft/quoteright/quotedblleft/quotedblright/bullet
/endash/emdash/tilde/trademark/scaron/guilsinglright/oe/.notdef/.notdef
/Ydieresis WindowsLatin1Encoding 128 32 getinterval astore pop}
{/WindowsLatin1Encoding StandardEncoding bdef} ifelse
/reencode {exch dup where {pop load} {pop StandardEncoding} ifelse
  exch dup 3 1 roll findfont dup length dict begin
  { 1 index /FID ne {def}{pop pop} ifelse } forall
  /Encoding exch def currentdict end definefont pop} bdef
/isroman {findfont /CharStrings get /Agrave known} bdef
/FMSR {3 1 roll 1 index dup isroman {reencode} {pop pop} ifelse
  exch FMS} bdef
/csm {1 dpi2point div -1 dpi2point div scale neg translate
 dup landscapeMode eq {pop -90 rotate}
  {rotateMode eq {90 rotate} if} ifelse} bdef
% line types: solid, dotted, dashed, dotdash
/SO { [] 0 setdash } bdef
/DO { [.5 dpi2point mul 4 dpi2point mul] 0 setdash } bdef
/DA { [6 dpi2point mul] 0 setdash } bdef
/DD { [.5 dpi2point mul 4 dpi2point mul 6 dpi2point mul 4
  dpi2point mul] 0 setdash } bdef
% macros for lines and objects
/L {lineto stroke} bdef
/MP {3 1 roll moveto 1 sub {rlineto} repeat} bdef
/AP {{rlineto} repeat} bdef
/PDlw -1 def
/W {/PDlw currentlinewidth def setlinewidth} def
/PP {closepath eofill} bdef
/DP {closepath stroke} bdef
/MR {4 -2 roll moveto dup  0 exch rlineto exch 0 rlineto
  neg 0 exch rlineto closepath} bdef
/FR {MR stroke} bdef
/PR {MR fill} bdef
/L1i {{currentfile picstr readhexstring pop} image} bdef
/tMatrix matrix def
/MakeOval {newpath tMatrix currentmatrix pop translate scale
0 0 1 0 360 arc tMatrix setmatrix} bdef
/FO {MakeOval stroke} bdef
/PO {MakeOval fill} bdef
/PD {currentlinewidth 2 div 0 360 arc fill
   PDlw -1 eq not {PDlw w /PDlw -1 def} if} def
/FA {newpath tMatrix currentmatrix pop translate scale
  0 0 1 5 -2 roll arc tMatrix setmatrix stroke} bdef
/PA {newpath tMatrix currentmatrix pop	translate 0 0 moveto scale
  0 0 1 5 -2 roll arc closepath tMatrix setmatrix fill} bdef
/FAn {newpath tMatrix currentmatrix pop translate scale
  0 0 1 5 -2 roll arcn tMatrix setmatrix stroke} bdef
/PAn {newpath tMatrix currentmatrix pop translate 0 0 moveto scale
  0 0 1 5 -2 roll arcn closepath tMatrix setmatrix fill} bdef
/vradius 0 def /hradius 0 def /lry 0 def
/lrx 0 def /uly 0 def /ulx 0 def /rad 0 def
/MRR {/vradius xdef /hradius xdef /lry xdef /lrx xdef /uly xdef
  /ulx xdef newpath tMatrix currentmatrix pop ulx hradius add uly
  vradius add translate hradius vradius scale 0 0 1 180 270 arc 
  tMatrix setmatrix lrx hradius sub uly vradius add translate
  hradius vradius scale 0 0 1 270 360 arc tMatrix setmatrix
  lrx hradius sub lry vradius sub translate hradius vradius scale
  0 0 1 0 90 arc tMatrix setmatrix ulx hradius add lry vradius sub
  translate hradius vradius scale 0 0 1 90 180 arc tMatrix setmatrix
  closepath} bdef
/FRR {MRR stroke } bdef
/PRR {MRR fill } bdef
/MlrRR {/lry xdef /lrx xdef /uly xdef /ulx xdef /rad lry uly sub 2 div def
  newpath tMatrix currentmatrix pop ulx rad add uly rad add translate
  rad rad scale 0 0 1 90 270 arc tMatrix setmatrix lrx rad sub lry rad
  sub translate rad rad scale 0 0 1 270 90 arc tMatrix setmatrix
  closepath} bdef
/FlrRR {MlrRR stroke } bdef
/PlrRR {MlrRR fill } bdef
/MtbRR {/lry xdef /lrx xdef /uly xdef /ulx xdef /rad lrx ulx sub 2 div def
  newpath tMatrix currentmatrix pop ulx rad add uly rad add translate
  rad rad scale 0 0 1 180 360 arc tMatrix setmatrix lrx rad sub lry rad
  sub translate rad rad scale 0 0 1 0 180 arc tMatrix setmatrix
  closepath} bdef
/FtbRR {MtbRR stroke } bdef
/PtbRR {MtbRR fill } bdef
/stri 6 array def /dtri 6 array def
/smat 6 array def /dmat 6 array def
/tmat1 6 array def /tmat2 6 array def /dif 3 array def
/asub {/ind2 exch def /ind1 exch def dup dup
  ind1 get exch ind2 get sub exch } bdef
/tri_to_matrix {
  2 0 asub 3 1 asub 4 0 asub 5 1 asub
  dup 0 get exch 1 get 7 -1 roll astore } bdef
/compute_transform {
  dmat dtri tri_to_matrix tmat1 invertmatrix 
  smat stri tri_to_matrix tmat2 concatmatrix } bdef
/ds {stri astore pop} bdef
/dt {dtri astore pop} bdef
/db {2 copy /cols xdef /rows xdef mul dup 3 mul string
  currentfile 
  3 index 0 eq {/ASCIIHexDecode filter}
  {/ASCII85Decode filter 3 index 2 eq {/RunLengthDecode filter} if }
  ifelse exch readstring pop
  dup 0 3 index getinterval /rbmap xdef
  dup 2 index dup getinterval /gbmap xdef
  1 index dup 2 mul exch getinterval /bbmap xdef pop pop}bdef
/it {gs np dtri aload pop moveto lineto lineto cp c
  cols rows 8 compute_transform 
  rbmap gbmap bbmap true 3 colorimage gr}bdef
/il {newpath moveto lineto stroke}bdef
currentdict end def
%%EndProlog

%%BeginSetup
MathWorks begin

0 cap

end
%%EndSetup

%%Page: 1 1
%%BeginPageSetup
%%PageBoundingBox:  -278   163   874   677
MathWorks begin
bpage
%%EndPageSetup

%%BeginObject: obj1
bplot

/dpi2point 12 def
portraitMode -3336 8124 csm

    0     0 13835  6159 rc
86 dict begin %Colortable dictionary
/c0 { 0.000000 0.000000 0.000000 sr} bdef
/c1 { 1.000000 1.000000 1.000000 sr} bdef
/c2 { 0.900000 0.000000 0.000000 sr} bdef
/c3 { 0.000000 0.820000 0.000000 sr} bdef
/c4 { 0.000000 0.000000 0.800000 sr} bdef
/c5 { 0.910000 0.820000 0.320000 sr} bdef
/c6 { 1.000000 0.260000 0.820000 sr} bdef
/c7 { 0.000000 0.820000 0.820000 sr} bdef
c0
1 j
1 sg
   0    0 13836 6160 rf
6 w
0 5020 10722 0 0 -5020 1808 5482 4 MP
PP
-10722 0 0 5020 10722 0 0 -5020 1808 5482 5 MP stroke
4 w
DO
0 sg
1808 5482 mt 1808  462 L
1808  462 mt 1808  462 L
2999 5482 mt 2999  462 L
2999  462 mt 2999  462 L
4190 5482 mt 4190  462 L
4190  462 mt 4190  462 L
5382 5482 mt 5382  462 L
5382  462 mt 5382  462 L
6573 5482 mt 6573  462 L
6573  462 mt 6573  462 L
7764 5482 mt 7764  462 L
7764  462 mt 7764  462 L
8956 5482 mt 8956  462 L
8956  462 mt 8956  462 L
10147 5482 mt 10147  462 L
10147  462 mt 10147  462 L
11338 5482 mt 11338  462 L
11338  462 mt 11338  462 L
12530 5482 mt 12530  462 L
12530  462 mt 12530  462 L
1808 5482 mt 12530 5482 L
12530 5482 mt 12530 5482 L
1808 4980 mt 12530 4980 L
12530 4980 mt 12530 4980 L
1808 4478 mt 12530 4478 L
12530 4478 mt 12530 4478 L
1808 3976 mt 12530 3976 L
12530 3976 mt 12530 3976 L
1808 3474 mt 12530 3474 L
12530 3474 mt 12530 3474 L
1808 2972 mt 12530 2972 L
12530 2972 mt 12530 2972 L
1808 2470 mt 12530 2470 L
12530 2470 mt 12530 2470 L
1808 1968 mt 12530 1968 L
12530 1968 mt 12530 1968 L
1808 1466 mt 12530 1466 L
12530 1466 mt 12530 1466 L
1808  964 mt 12530  964 L
12530  964 mt 12530  964 L
1808  462 mt 12530  462 L
12530  462 mt 12530  462 L
SO
6 w
1808 5482 mt 12530 5482 L
1808 5482 mt 1808  462 L
1808 5482 mt 1808 5374 L
%%IncludeResource: font Helvetica-Bold
/Helvetica-Bold /WindowsLatin1Encoding 240 FMSR

1535 5746 mt 
(-17) s
2999 5482 mt 2999 5374 L
2626 5746 mt 
(-16.5) s
4190 5482 mt 4190 5374 L
3917 5746 mt 
(-16) s
5382 5482 mt 5382 5374 L
5009 5746 mt 
(-15.5) s
6573 5482 mt 6573 5374 L
6300 5746 mt 
(-15) s
7764 5482 mt 7764 5374 L
7391 5746 mt 
(-14.5) s
8956 5482 mt 8956 5374 L
8683 5746 mt 
(-14) s
10147 5482 mt 10147 5374 L
9774 5746 mt 
(-13.5) s
11338 5482 mt 11338 5374 L
11065 5746 mt 
(-13) s
12530 5482 mt 12530 5374 L
12157 5746 mt 
(-12.5) s
1808 5482 mt 1915 5482 L
1366 5574 mt 
(-26) s
1808 5231 mt 1861 5231 L
1808 4980 mt 1861 4980 L
1808 4980 mt 1861 4980 L
1808 4980 mt 1861 4980 L
1808 4980 mt 1861 4980 L
1808 4980 mt 1861 4980 L
1808 4980 mt 1861 4980 L
1808 4980 mt 1861 4980 L
1808 4980 mt 1861 4980 L
1808 4980 mt 1915 4980 L
1366 5072 mt 
(-24) s
1808 4729 mt 1861 4729 L
1808 4478 mt 1861 4478 L
1808 4478 mt 1861 4478 L
1808 4478 mt 1861 4478 L
1808 4478 mt 1861 4478 L
1808 4478 mt 1861 4478 L
1808 4478 mt 1861 4478 L
1808 4478 mt 1861 4478 L
1808 4478 mt 1861 4478 L
1808 4478 mt 1915 4478 L
1366 4570 mt 
(-22) s
1808 4227 mt 1861 4227 L
1808 3976 mt 1861 3976 L
1808 3976 mt 1861 3976 L
1808 3976 mt 1861 3976 L
1808 3976 mt 1861 3976 L
1808 3976 mt 1861 3976 L
1808 3976 mt 1861 3976 L
1808 3976 mt 1861 3976 L
1808 3976 mt 1861 3976 L
1808 3976 mt 1915 3976 L
1366 4068 mt 
(-20) s
1808 3725 mt 1861 3725 L
1808 3474 mt 1861 3474 L
1808 3474 mt 1861 3474 L
1808 3474 mt 1861 3474 L
1808 3474 mt 1861 3474 L
1808 3474 mt 1861 3474 L
1808 3474 mt 1861 3474 L
1808 3474 mt 1861 3474 L
1808 3474 mt 1861 3474 L
1808 3474 mt 1915 3474 L
1366 3566 mt 
(-18) s
1808 3223 mt 1861 3223 L
1808 2972 mt 1861 2972 L
1808 2972 mt 1861 2972 L
1808 2972 mt 1861 2972 L
1808 2972 mt 1861 2972 L
1808 2972 mt 1861 2972 L
1808 2972 mt 1861 2972 L
1808 2972 mt 1861 2972 L
1808 2972 mt 1861 2972 L
1808 2972 mt 1915 2972 L
1366 3064 mt 
(-16) s
1808 2721 mt 1861 2721 L
1808 2470 mt 1861 2470 L
1808 2470 mt 1861 2470 L
1808 2470 mt 1861 2470 L
1808 2470 mt 1861 2470 L
1808 2470 mt 1861 2470 L
1808 2470 mt 1861 2470 L
1808 2470 mt 1861 2470 L
1808 2470 mt 1861 2470 L
1808 2470 mt 1915 2470 L
1366 2562 mt 
(-14) s
1808 2219 mt 1861 2219 L
1808 1968 mt 1861 1968 L
1808 1968 mt 1861 1968 L
1808 1968 mt 1861 1968 L
1808 1968 mt 1861 1968 L
1808 1968 mt 1861 1968 L
1808 1968 mt 1861 1968 L
1808 1968 mt 1861 1968 L
1808 1968 mt 1861 1968 L
1808 1968 mt 1915 1968 L
1366 2060 mt 
(-12) s
1808 1717 mt 1861 1717 L
1808 1466 mt 1861 1466 L
1808 1466 mt 1861 1466 L
1808 1466 mt 1861 1466 L
1808 1466 mt 1861 1466 L
1808 1466 mt 1861 1466 L
1808 1466 mt 1861 1466 L
1808 1466 mt 1861 1466 L
1808 1466 mt 1861 1466 L
1808 1466 mt 1915 1466 L
1366 1558 mt 
(-10) s
1808 1215 mt 1861 1215 L
1808  964 mt 1861  964 L
1808  964 mt 1861  964 L
1808  964 mt 1861  964 L
1808  964 mt 1861  964 L
1808  964 mt 1861  964 L
1808  964 mt 1861  964 L
1808  964 mt 1861  964 L
1808  964 mt 1861  964 L
1808  964 mt 1915  964 L
1500 1056 mt 
(-8) s
1808  713 mt 1861  713 L
1808  462 mt 1861  462 L
1808  462 mt 1861  462 L
1808  462 mt 1861  462 L
1808  462 mt 1861  462 L
1808  462 mt 1861  462 L
1808  462 mt 1861  462 L
1808  462 mt 1861  462 L
1808  462 mt 1861  462 L
1808  462 mt 1915  462 L
1500  554 mt 
(-6) s
gs 1808 462 10723 5021 rc
48 w
gr

48 w
gs 1734 783 9917 4605 rc
/c8 { 0.000000 0.000000 1.000000 sr} bdef
c8
  12   12 1808  857 FO
  12   12 3499 1267 FO
  12   12 4428 1607 FO
  12   12 4905 1793 FO
  12   12 5286 1894 FO
  12   12 5858 2082 FO
  12   12 6811 2495 FO
  12   12 7526 2773 FO
  12   12 8050 3101 FO
  12   12 8693 3421 FO
  12   12 9551 3903 FO
  12   12 10623 4574 FO
  12   12 11576 5313 FO
gr

c8
gs 1808 462 10723 5021 rc
24 w
/c9 { 1.000000 0.000000 0.000000 sr} bdef
c9
9 8 10 7 10 8 10 8 9 7 10 8 10 7 10 8 
9 7 10 8 10 7 10 8 10 7 9 8 10 7 10 8 
10 7 9 8 10 7 10 8 10 7 9 8 10 7 10 7 
10 8 10 7 9 8 10 7 10 7 10 8 9 7 10 7 
10 8 10 7 9 7 10 8 10 7 10 7 10 8 9 7 
10 7 10 7 10 8 9 7 10 7 10 7 10 7 9 8 
10 7 10 7 10 7 10 7 9 7 10 8 10 7 10 7 
9 7 10 7 10 7 10 7 9 7 10 7 10 8 10 7 
10 7 9 7 10 7 10 7 10 7 9 7 10 7 10 7 
10 7 9 7 10 7 10 7 10 7 10 7 9 7 10 6 
10 7 10 7 9 7 10 7 10 7 10 7 9 7 10 7 
10 6 10 7 10 7 9 7 10 7 10 7 10 6 9 7 
10 7 6 4 4 3 10 7 9 6 10 7 10 7 10 7 
10 6 9 7 10 7 10 6 10 7 9 7 10 6 10 7 
10 7 9 6 10 7 10 7 10 6 10 7 9 7 10 6 
10 7 10 6 9 7 10 7 10 6 10 7 9 6 10 7 
10 6 10 7 10 6 9 7 10 6 10 7 10 6 9 7 
10 6 10 7 10 6 9 7 10 6 10 7 10 6 10 7 
9 6 10 6 10 7 10 6 9 7 10 6 10 6 10 7 
9 6 10 6 10 7 10 6 10 6 9 7 10 6 10 6 
10 7 9 6 10 6 10 6 10 7 9 6 10 6 10 6 
10 7 10 6 9 6 10 6 10 6 10 7 9 6 10 6 
10 6 10 6 9 7 10 6 10 6 10 6 10 6 9 6 
10 6 10 6 10 7 9 6 10 6 10 6 10 6 9 6 
10 6 10 6 10 6 10 6 9 6 10 6 10 6 10 6 
9 6 10 6 10 6 10 6 9 6 10 6 10 6 10 6 
3 2 7 4 9 6 10 6 10 6 10 6 9 5 10 6 
10 6 10 6 9 6 10 6 10 6 10 6 10 5 9 6 
10 6 10 6 10 6 9 6 10 5 10 6 10 6 9 6 
10 6 10 5 10 6 9 6 10 6 10 5 10 6 10 6 
9 6 10 5 10 6 10 6 9 5 10 6 10 6 10 5 
9 6 10 6 10 5 10 6 10 6 9 5 10 6 10 6 
10 5 9 6 10 5 10 6 10 6 9 5 10 6 10 5 
10 6 10 5 9 6 10 5 10 6 10 6 9 5 10 6 
10 5 10 6 9 5 10 6 10 5 10 6 10 5 9 5 
10 6 10 5 10 6 9 5 10 6 10 5 10 6 9 5 
10 5 10 6 10 5 10 5 9 6 10 5 10 6 10 5 
9 5 2 1 8 5 8685 3404 300 MP stroke
10 5 10 5 9 6 10 5 10 5 10 6 10 5 9 5 
10 5 10 6 10 5 9 5 10 6 10 5 10 5 9 5 
10 6 10 5 10 5 10 5 9 5 10 6 10 5 10 5 
9 5 10 5 10 6 10 5 9 5 10 5 10 5 10 5 
10 5 9 6 10 5 10 5 10 5 9 5 10 5 10 5 
10 5 9 5 10 6 10 5 10 5 10 5 9 5 10 5 
10 5 10 5 9 5 10 5 10 5 10 5 9 5 10 5 
10 5 10 5 10 5 9 5 10 5 10 5 10 5 9 5 
10 5 10 5 10 5 9 4 10 5 10 5 10 5 10 5 
9 5 10 5 10 5 10 5 9 5 10 4 10 5 10 5 
9 5 10 5 10 5 10 4 10 5 9 5 10 5 10 5 
10 5 9 4 10 5 10 5 10 5 9 4 10 5 10 5 
10 5 10 5 9 4 10 5 10 5 10 4 9 5 10 5 
10 5 10 4 9 5 10 5 10 4 10 5 10 5 9 4 
10 5 10 5 10 4 9 5 10 5 10 4 6 3 4 2 
9 5 10 4 10 5 10 4 10 5 9 5 10 4 10 5 
10 4 9 5 10 5 10 4 10 5 9 4 10 5 10 4 
10 5 10 4 9 5 10 4 10 5 10 5 9 4 10 5 
10 4 10 5 9 4 10 4 10 5 10 4 10 5 9 4 
10 5 10 4 10 5 9 4 10 5 10 4 10 4 9 5 
10 4 10 5 10 4 10 4 9 5 10 4 10 5 10 4 
9 4 10 5 10 4 10 4 9 5 10 4 10 4 10 5 
10 4 9 4 10 5 10 4 10 4 9 5 10 4 10 4 
10 5 9 4 10 4 10 4 10 5 9 4 10 4 10 4 
8 4 2 1 10 4 9 4 10 4 10 5 10 4 9 4 
10 4 10 4 10 5 9 4 10 4 10 4 10 4 10 4 
9 5 10 4 10 4 10 4 9 4 10 4 10 5 10 4 
9 4 10 4 10 4 10 4 10 4 9 4 10 4 10 5 
10 4 9 4 10 4 10 4 10 4 9 4 10 4 10 4 
10 4 10 4 9 4 10 4 10 4 10 4 9 4 10 4 
10 4 10 4 9 4 10 4 10 4 10 4 10 4 9 4 
10 4 10 4 10 4 9 4 10 4 10 4 10 4 9 4 
10 4 10 4 10 4 10 4 9 4 10 4 10 3 10 4 
9 4 10 4 10 4 10 4 9 4 10 4 10 4 10 3 
10 4 9 4 10 4 10 4 10 4 9 4 10 3 10 4 
10 4 9 4 10 4 10 3 10 4 10 4 9 4 10 4 
10 3 10 4 9 4 4 1 6 3 10 4 10 3 9 4 
10 4 10 4 10 3 5793 2074 300 MP stroke
10 4 9 4 10 4 10 3 10 4 9 4 10 3 10 4 
10 4 9 4 10 3 10 4 10 4 10 3 9 4 10 4 
10 3 10 4 9 4 10 3 10 4 10 4 9 3 10 4 
10 4 10 3 10 4 9 3 10 4 10 4 10 3 9 4 
10 3 10 4 10 4 9 3 10 4 10 3 10 4 10 4 
9 3 10 4 10 3 10 4 9 3 10 4 10 3 10 4 
9 3 10 4 10 4 9 3 1 0 10 4 9 3 10 4 
10 3 10 4 9 3 10 4 10 3 10 4 9 3 10 3 
10 4 10 3 10 4 9 3 10 4 10 3 10 4 9 3 
10 4 10 3 10 3 9 4 10 3 10 4 10 3 10 3 
9 4 10 3 10 4 10 3 9 3 10 4 10 3 10 4 
9 3 10 3 10 4 9 3 1 0 10 3 9 4 10 3 
10 3 10 4 9 3 10 3 10 4 10 3 9 3 10 4 
10 3 10 3 10 4 9 3 10 3 10 4 10 3 9 3 
10 3 10 4 10 3 9 3 10 3 10 4 10 3 10 3 
9 3 10 4 10 3 10 3 9 3 10 4 10 3 10 3 
9 3 10 4 10 3 10 3 10 3 9 3 10 4 10 3 
10 3 9 3 10 3 10 3 10 4 7 2 2 1 10 3 
10 3 10 3 10 3 9 4 10 3 10 3 10 3 9 3 
10 3 10 3 10 3 9 4 10 3 10 3 10 3 9 3 
10 3 10 3 10 3 10 3 9 3 10 4 10 3 10 3 
9 3 10 3 10 3 10 3 9 3 10 3 10 3 10 3 
10 3 9 3 10 3 10 3 10 3 9 3 10 3 10 3 
10 3 9 3 10 3 10 3 10 3 10 3 9 3 10 3 
10 3 10 3 9 3 10 3 10 3 10 3 9 3 10 3 
10 3 10 3 10 3 9 3 10 3 10 3 10 3 9 3 
10 3 10 2 10 3 9 3 10 3 10 3 10 3 10 3 
9 3 10 3 10 3 10 3 9 2 10 3 10 3 10 3 
9 3 10 3 10 3 10 2 10 3 9 3 10 3 10 3 
10 3 9 3 10 2 10 3 10 3 8 2 1 1 10 3 
10 3 10 2 10 3 9 3 10 3 10 3 10 2 9 3 
10 3 10 3 10 3 9 2 10 3 10 3 10 3 10 2 
9 3 10 3 10 3 10 2 9 3 10 3 10 3 10 2 
9 3 10 3 10 3 10 2 10 3 9 3 10 3 10 2 
10 3 9 3 10 2 10 3 10 3 9 2 10 3 10 3 
10 3 10 2 9 3 10 3 10 2 10 3 9 3 10 2 
10 3 10 3 9 2 10 3 10 3 10 2 10 3 9 2 
10 3 10 3 10 2 2911 1144 300 MP stroke
9 3 10 3 10 2 10 3 9 2 10 3 10 3 10 2 
10 3 9 2 10 3 10 3 10 2 9 3 10 2 10 3 
10 3 9 2 10 3 10 2 10 3 10 2 9 3 10 3 
10 2 10 3 9 2 10 3 10 2 10 3 9 2 10 3 
10 2 10 3 10 2 9 3 10 2 10 3 10 2 9 3 
10 2 10 3 10 2 9 3 10 2 10 3 10 2 10 3 
9 2 10 3 10 2 10 3 9 2 10 3 10 2 10 3 
9 2 10 3 10 2 10 2 10 3 9 2 10 3 10 2 
10 3 9 2 10 2 10 3 10 2 9 3 10 2 10 3 
10 2 10 2 9 3 10 2 10 3 10 2 9 2 10 3 
10 2 10 3 9 2 10 2 10 3 10 2 10 2 9 3 
10 2 10 2 10 3 9 2 10 3 10 2 10 2 9 3 
10 2 10 2 10 3 10 2 9 2 10 3 10 2 10 2 
9 3 10 2 10 2 10 2 9 3 10 2 10 2 10 3 
9 2 1808 866 114 MP stroke
gr

24 w
c9
0 sg
%%IncludeResource: font Symbol
/Symbol /WindowsLatin1Encoding 288 FMSR

5918 6013 mt 
(\254) s
%%IncludeResource: font Helvetica-Bold
/Helvetica-Bold /WindowsLatin1Encoding 288 FMSR

6202 6013 mt 
( Power \(dBm\) ) s
%%IncludeResource: font Symbol
/Symbol /WindowsLatin1Encoding 288 FMSR

8122 6013 mt 
(\256) s
1227 5539 mt  -90 rotate
(\254) s
90 rotate
%%IncludeResource: font Helvetica-Bold
/Helvetica-Bold /WindowsLatin1Encoding 288 FMSR

1227 5255 mt  -90 rotate
( Bit Error Ratio \(BER\) in log scale) s
90 rotate
%%IncludeResource: font Symbol
/Symbol /WindowsLatin1Encoding 288 FMSR

1227  684 mt  -90 rotate
(\256) s
90 rotate
%%IncludeResource: font Helvetica
/Helvetica /WindowsLatin1Encoding 120 FMSR

1791 5525 mt 
( ) s
12514  504 mt 
( ) s
gs 1808 462 10723 5021 rc
48 w
gr

48 w
gs 1734 2191 7058 3197 rc
c8
  12   12 1808 2265 FO
  12   12 2641 2597 FO
  12   12 3380 2863 FO
  12   12 3714 2985 FO
  12   12 4905 3414 FO
  12   12 5858 3821 FO
  12   12 6811 4289 FO
  12   12 7764 4791 FO
  12   12 8717 5313 FO
gr

c8
gs 1808 462 10723 5021 rc
24 w
c9
7 4 7 4 6 4 7 4 7 4 7 4 7 4 7 4 
7 4 7 4 7 4 7 4 7 4 7 4 6 4 7 4 
7 4 7 4 7 4 7 4 7 4 7 4 7 4 7 4 
7 4 6 4 7 4 7 4 7 4 7 4 7 4 7 4 
7 4 7 4 7 4 7 4 6 4 7 4 7 4 7 4 
7 4 7 4 7 4 7 4 7 4 7 4 7 4 6 4 
7 4 7 3 7 4 7 4 7 4 7 4 7 4 7 4 
7 4 7 4 6 4 7 4 7 4 7 3 7 4 7 4 
7 4 7 4 7 4 7 4 7 4 6 4 7 4 7 3 
7 4 7 4 7 4 7 4 7 4 7 4 7 3 7 4 
6 4 7 4 7 4 7 4 7 4 7 3 7 4 7 4 
7 4 7 4 7 4 6 3 7 4 7 4 7 4 7 4 
7 4 7 3 7 4 7 4 7 4 7 4 6 3 7 4 
7 4 7 4 7 4 7 3 7 4 7 4 7 4 7 4 
7 3 6 4 7 4 7 4 7 3 7 4 7 4 7 4 
7 3 7 4 7 4 7 4 6 4 7 3 7 4 7 4 
7 3 7 4 7 4 7 4 7 3 7 4 7 4 6 4 
7 3 7 4 7 4 7 3 7 4 7 4 7 4 7 3 
7 4 7 4 6 3 7 4 7 4 7 3 7 4 7 4 
7 4 7 3 7 4 7 4 7 3 7 4 6 4 7 3 
7 4 7 4 7 3 7 4 7 4 7 3 7 4 7 4 
7 3 6 4 7 3 7 4 7 4 7 3 7 4 7 4 
7 3 7 4 7 4 7 3 6 4 7 3 7 4 7 4 
7 3 7 4 7 3 7 4 7 4 7 3 7 4 6 3 
7 4 7 4 7 3 7 4 7 3 7 4 7 3 7 4 
7 4 7 3 6 4 7 3 7 4 7 3 7 4 7 4 
7 3 7 4 7 3 7 4 7 3 6 4 7 3 7 4 
7 4 7 3 7 4 7 3 7 4 7 3 7 4 7 3 
6 4 7 3 7 4 7 3 7 4 7 3 7 4 7 3 
7 4 7 3 7 4 6 3 7 4 7 3 7 4 7 3 
7 4 7 3 7 4 7 3 7 4 7 3 6 4 7 3 
7 3 7 4 7 3 7 4 7 3 7 4 7 3 7 4 
7 3 6 4 7 3 7 3 7 4 7 3 7 4 7 3 
7 4 7 3 7 3 7 4 6 3 7 4 7 3 7 4 
7 3 7 3 7 4 6 3 1 0 7 4 7 3 7 3 
6 4 7 3 7 4 7 3 7 3 7 4 7 3 7 4 
7 3 7 3 7 4 6 3 7 3 7 4 7 3 7 4 
7 3 7 3 7 4 6658 4214 300 MP stroke
7 3 7 3 7 4 7 3 6 3 7 4 7 3 7 3 
7 4 7 3 7 3 7 4 7 3 7 3 7 4 6 3 
7 3 7 4 7 3 7 3 7 4 7 3 7 3 7 4 
7 3 7 3 6 3 7 4 7 3 7 3 7 4 7 3 
7 3 7 4 7 3 7 3 7 3 6 4 7 3 7 3 
7 3 7 4 7 3 7 3 7 4 7 3 7 3 7 3 
6 4 7 3 7 3 7 3 7 4 7 3 7 3 7 3 
7 4 7 3 7 3 6 3 7 3 7 4 7 3 7 3 
7 3 7 4 7 3 7 3 7 3 7 3 6 4 7 3 
7 3 7 3 7 3 7 4 7 3 7 3 7 3 7 3 
7 4 6 3 7 3 7 3 7 3 7 4 7 3 7 3 
7 3 7 3 7 3 7 4 6 3 7 3 7 3 7 3 
7 3 7 4 7 3 7 3 7 3 7 3 7 3 6 3 
7 4 7 3 7 3 7 3 7 3 7 3 7 3 7 3 
7 4 7 3 6 3 6 2 1 1 7 3 7 3 7 3 
7 3 7 4 7 3 7 3 7 3 7 3 6 3 7 3 
7 3 7 3 7 3 7 3 7 4 7 3 7 3 7 3 
7 3 7 3 6 3 7 3 7 3 7 3 7 3 7 3 
7 3 7 4 7 3 7 3 7 3 6 3 7 3 7 3 
7 3 7 3 7 3 7 3 7 3 7 3 7 3 7 3 
6 3 7 3 7 3 7 3 7 3 7 3 7 3 7 3 
7 3 7 3 7 3 6 3 7 3 7 3 7 3 7 3 
7 3 7 3 7 3 7 3 7 3 7 3 6 3 7 3 
7 3 7 3 7 3 7 3 7 3 7 3 7 3 7 3 
7 3 6 3 7 3 7 3 7 3 7 3 7 3 7 3 
7 3 7 3 7 3 7 3 6 3 7 3 7 3 7 3 
7 3 7 2 7 3 7 3 7 3 7 3 7 3 6 3 
7 3 7 3 7 3 7 3 7 3 7 3 7 2 7 3 
7 3 7 3 6 3 7 3 7 3 7 3 7 3 7 3 
7 3 7 2 7 3 7 3 7 3 6 3 7 3 7 3 
7 3 7 3 7 2 7 3 7 3 7 3 7 3 7 3 
6 3 7 2 7 3 7 3 7 3 7 3 5 2 2 1 
7 3 7 2 7 3 7 3 6 3 7 3 7 3 7 3 
7 2 7 3 7 3 7 3 7 3 7 3 7 2 6 3 
7 3 7 3 7 3 7 2 7 3 7 3 7 3 7 3 
7 3 7 2 7 3 6 3 7 3 7 3 7 2 7 3 
7 3 7 3 7 3 7 2 7 3 7 3 6 3 7 3 
7 2 7 3 7 3 4606 3306 300 MP stroke
7 3 7 2 7 3 7 3 7 3 7 2 6 3 7 3 
7 3 7 3 7 2 7 3 7 3 7 3 7 2 7 3 
7 3 6 3 7 2 7 3 7 3 7 3 7 2 7 3 
7 3 7 2 7 3 7 3 6 3 7 2 7 3 7 3 
7 3 7 2 7 3 7 3 7 2 7 3 7 3 6 3 
7 2 7 3 7 3 7 2 7 3 7 3 7 2 7 3 
7 3 7 3 6 2 7 3 7 3 7 2 7 3 7 3 
7 2 7 3 7 3 7 2 7 3 6 3 7 2 7 3 
7 3 7 2 7 3 7 3 7 2 7 3 7 3 7 2 
6 3 7 3 7 2 7 3 7 3 7 2 7 3 7 2 
7 3 7 3 7 2 6 3 7 3 7 2 7 3 7 3 
7 2 7 3 7 2 7 3 7 3 7 2 6 3 7 2 
7 3 7 3 7 2 7 3 7 3 7 2 7 3 7 2 
7 3 6 3 7 2 7 3 7 2 7 3 7 2 7 3 
7 3 7 2 7 3 7 2 6 3 7 3 7 2 7 3 
7 2 7 3 7 2 7 3 7 3 7 2 7 3 7 2 
6 3 1 0 6 2 7 3 7 2 7 3 7 3 7 2 
7 3 7 2 7 3 7 2 6 3 7 2 7 3 7 2 
7 3 7 2 7 3 7 3 7 2 7 3 7 2 6 3 
7 2 7 3 7 2 7 3 7 2 7 3 7 2 7 3 
7 2 7 3 6 2 7 3 7 2 7 3 7 2 7 3 
7 2 7 3 7 2 7 3 7 2 6 3 7 2 7 3 
7 2 7 3 3 1 4 1 7 3 7 2 7 3 7 2 
7 3 6 2 7 2 7 3 7 2 7 3 7 2 7 3 
7 2 7 3 7 2 7 3 6 2 7 3 7 2 7 2 
7 3 7 2 7 3 7 2 7 3 7 2 7 3 6 2 
7 2 7 3 7 2 7 3 7 2 7 3 7 2 7 2 
7 3 7 2 6 3 7 2 7 2 7 3 7 2 7 3 
7 2 7 3 7 2 7 2 7 3 6 2 7 3 7 2 
7 2 7 3 7 2 7 3 7 2 7 2 7 3 7 2 
6 2 7 3 7 2 7 3 7 2 7 2 7 3 7 2 
7 3 7 2 7 2 6 3 7 2 7 2 7 3 7 2 
7 2 7 3 7 2 7 3 7 2 7 2 6 3 7 2 
7 2 7 3 7 2 7 2 7 3 7 2 7 2 7 3 
7 2 7 2 6 3 7 2 7 2 7 3 7 2 7 2 
7 3 7 2 7 2 7 3 7 2 6 2 3 1 4 2 
7 2 7 2 7 3 7 2 7 2 7 2 7 3 7 2 
7 2 6 3 7 2 2561 2557 300 MP stroke
7 2 7 3 7 2 7 2 7 2 7 3 7 2 7 2 
7 3 6 2 7 2 7 2 7 3 7 2 7 2 7 3 
7 2 7 2 7 2 7 3 6 2 7 2 7 2 7 3 
7 2 7 2 7 2 7 3 7 2 7 2 7 3 6 2 
7 2 7 2 7 3 7 2 7 2 7 2 7 3 7 2 
7 2 7 2 6 2 7 3 7 2 7 2 7 2 7 3 
7 2 7 2 7 2 7 3 7 2 6 2 7 2 7 2 
7 3 7 2 7 2 7 2 7 2 7 3 7 2 7 2 
6 2 7 3 7 2 7 2 7 2 7 2 7 3 7 2 
7 2 7 2 7 2 6 3 7 2 7 2 7 2 7 2 
7 2 7 3 7 2 7 2 7 2 7 2 6 3 7 2 
7 2 7 2 7 2 7 2 7 3 7 2 7 2 7 2 
7 2 6 2 7 3 7 2 7 2 7 2 7 2 7 2 
7 2 7 3 7 2 7 2 6 2 1808 2315 110 MP stroke
6 w
gr

6 w
c9
1 sg
0 626 2173 0 0 -626 10297 1148 4 MP
PP
-2173 0 0 626 2173 0 0 -626 10297 1148 5 MP stroke
4 w
DO
SO
6 w
0 sg
10297  522 mt 12470  522 L
10297 1148 mt 12470 1148 L
12470 1148 mt 12470  522 L
10297 1148 mt 10297  522 L
10297 1148 mt 12470 1148 L
10297 1148 mt 10297  522 L
10297  522 mt 12470  522 L
10297 1148 mt 12470 1148 L
12470 1148 mt 12470  522 L
10297 1148 mt 10297  522 L
%%IncludeResource: font Helvetica-Bold
/Helvetica-Bold /WindowsLatin1Encoding 240 FMSR

10764  777 mt 
(Data Readings) s
gs 10297 522 2174 627 rc
48 w
gs 10474 614 149 149 rc
c8
  12   12 10548  688 FO
gr

c8
gr

48 w
c8
0 sg
10764 1070 mt 
(Fitted Curve) s
gs 10297 522 2174 627 rc
24 w
c9
360 0 10368 981 2 MP stroke
6 w
gr

6 w
c9
/c10 { 0.078431 0.168627 0.549020 sr} bdef
c10
%%IncludeResource: font Helvetica-Bold
/Helvetica-Bold /WindowsLatin1Encoding 168 FMSR

6564 2200 mt 
(WIDE-BUS SCHEME ) s
6736 2399 mt 
(\( WITHOUT FEC \)) s
4578 3933 mt 
(GBT SCHEME ) s
4174 4132 mt 
(\( REED-SOLOMON FEC\)) s

end %%Color Dict

eplot
%%EndObject

epage
end

showpage

%%Trailer
%%EOF
