%!PS-Adobe-3.0 EPSF-3.0
%%Creator: MATLAB, The MathWorks, Inc. Version 8.0.0.783 (R2012b). Operating System: Microsoft Windows 7.
%%Title: C:\MyWorkplace\researchWork\GBT\GBT_BER_WORK\RESULTS\GBT_BER.eps
%%CreationDate: 05/15/2017  21:37:33
%%DocumentNeededFonts: Helvetica
%%+ Helvetica-Bold
%%DocumentProcessColors: Cyan Magenta Yellow Black
%%LanguageLevel: 2
%%Pages: 1
%%BoundingBox:  -278   155   874   685
%%EndComments

%%BeginProlog
% MathWorks dictionary
/MathWorks 160 dict begin
% definition operators
/bdef {bind def} bind def
/ldef {load def} bind def
/xdef {exch def} bdef
/xstore {exch store} bdef
% operator abbreviations
/c  /clip ldef
/cc /concat ldef
/cp /closepath ldef
/gr /grestore ldef
/gs /gsave ldef
/mt /moveto ldef
/np /newpath ldef
/cm /currentmatrix ldef
/sm /setmatrix ldef
/rm /rmoveto ldef
/rl /rlineto ldef
/s {show newpath} bdef
/sc {setcmykcolor} bdef
/sr /setrgbcolor ldef
/sg /setgray ldef
/w /setlinewidth ldef
/j /setlinejoin ldef
/cap /setlinecap ldef
/rc {rectclip} bdef
/rf {rectfill} bdef
% page state control
/pgsv () def
/bpage {/pgsv save def} bdef
/epage {pgsv restore} bdef
/bplot /gsave ldef
/eplot {stroke grestore} bdef
% orientation switch
/portraitMode 0 def /landscapeMode 1 def /rotateMode 2 def
% coordinate system mappings
/dpi2point 0 def
% font control
/FontSize 0 def
/FMS {/FontSize xstore findfont [FontSize 0 0 FontSize neg 0 0]
  makefont setfont} bdef
/ISOLatin1Encoding where {pop /WindowsLatin1Encoding 256 array bdef
ISOLatin1Encoding WindowsLatin1Encoding copy pop
/.notdef/.notdef/quotesinglbase/florin/quotedblbase/ellipsis/dagger
/daggerdbl/circumflex/perthousand/Scaron/guilsinglleft/OE/.notdef/.notdef
/.notdef/.notdef/quoteleft/quoteright/quotedblleft/quotedblright/bullet
/endash/emdash/tilde/trademark/scaron/guilsinglright/oe/.notdef/.notdef
/Ydieresis WindowsLatin1Encoding 128 32 getinterval astore pop}
{/WindowsLatin1Encoding StandardEncoding bdef} ifelse
/reencode {exch dup where {pop load} {pop StandardEncoding} ifelse
  exch dup 3 1 roll findfont dup length dict begin
  { 1 index /FID ne {def}{pop pop} ifelse } forall
  /Encoding exch def currentdict end definefont pop} bdef
/isroman {findfont /CharStrings get /Agrave known} bdef
/FMSR {3 1 roll 1 index dup isroman {reencode} {pop pop} ifelse
  exch FMS} bdef
/csm {1 dpi2point div -1 dpi2point div scale neg translate
 dup landscapeMode eq {pop -90 rotate}
  {rotateMode eq {90 rotate} if} ifelse} bdef
% line types: solid, dotted, dashed, dotdash
/SO { [] 0 setdash } bdef
/DO { [.5 dpi2point mul 4 dpi2point mul] 0 setdash } bdef
/DA { [6 dpi2point mul] 0 setdash } bdef
/DD { [.5 dpi2point mul 4 dpi2point mul 6 dpi2point mul 4
  dpi2point mul] 0 setdash } bdef
% macros for lines and objects
/L {lineto stroke} bdef
/MP {3 1 roll moveto 1 sub {rlineto} repeat} bdef
/AP {{rlineto} repeat} bdef
/PDlw -1 def
/W {/PDlw currentlinewidth def setlinewidth} def
/PP {closepath eofill} bdef
/DP {closepath stroke} bdef
/MR {4 -2 roll moveto dup  0 exch rlineto exch 0 rlineto
  neg 0 exch rlineto closepath} bdef
/FR {MR stroke} bdef
/PR {MR fill} bdef
/L1i {{currentfile picstr readhexstring pop} image} bdef
/tMatrix matrix def
/MakeOval {newpath tMatrix currentmatrix pop translate scale
0 0 1 0 360 arc tMatrix setmatrix} bdef
/FO {MakeOval stroke} bdef
/PO {MakeOval fill} bdef
/PD {currentlinewidth 2 div 0 360 arc fill
   PDlw -1 eq not {PDlw w /PDlw -1 def} if} def
/FA {newpath tMatrix currentmatrix pop translate scale
  0 0 1 5 -2 roll arc tMatrix setmatrix stroke} bdef
/PA {newpath tMatrix currentmatrix pop	translate 0 0 moveto scale
  0 0 1 5 -2 roll arc closepath tMatrix setmatrix fill} bdef
/FAn {newpath tMatrix currentmatrix pop translate scale
  0 0 1 5 -2 roll arcn tMatrix setmatrix stroke} bdef
/PAn {newpath tMatrix currentmatrix pop translate 0 0 moveto scale
  0 0 1 5 -2 roll arcn closepath tMatrix setmatrix fill} bdef
/vradius 0 def /hradius 0 def /lry 0 def
/lrx 0 def /uly 0 def /ulx 0 def /rad 0 def
/MRR {/vradius xdef /hradius xdef /lry xdef /lrx xdef /uly xdef
  /ulx xdef newpath tMatrix currentmatrix pop ulx hradius add uly
  vradius add translate hradius vradius scale 0 0 1 180 270 arc 
  tMatrix setmatrix lrx hradius sub uly vradius add translate
  hradius vradius scale 0 0 1 270 360 arc tMatrix setmatrix
  lrx hradius sub lry vradius sub translate hradius vradius scale
  0 0 1 0 90 arc tMatrix setmatrix ulx hradius add lry vradius sub
  translate hradius vradius scale 0 0 1 90 180 arc tMatrix setmatrix
  closepath} bdef
/FRR {MRR stroke } bdef
/PRR {MRR fill } bdef
/MlrRR {/lry xdef /lrx xdef /uly xdef /ulx xdef /rad lry uly sub 2 div def
  newpath tMatrix currentmatrix pop ulx rad add uly rad add translate
  rad rad scale 0 0 1 90 270 arc tMatrix setmatrix lrx rad sub lry rad
  sub translate rad rad scale 0 0 1 270 90 arc tMatrix setmatrix
  closepath} bdef
/FlrRR {MlrRR stroke } bdef
/PlrRR {MlrRR fill } bdef
/MtbRR {/lry xdef /lrx xdef /uly xdef /ulx xdef /rad lrx ulx sub 2 div def
  newpath tMatrix currentmatrix pop ulx rad add uly rad add translate
  rad rad scale 0 0 1 180 360 arc tMatrix setmatrix lrx rad sub lry rad
  sub translate rad rad scale 0 0 1 0 180 arc tMatrix setmatrix
  closepath} bdef
/FtbRR {MtbRR stroke } bdef
/PtbRR {MtbRR fill } bdef
/stri 6 array def /dtri 6 array def
/smat 6 array def /dmat 6 array def
/tmat1 6 array def /tmat2 6 array def /dif 3 array def
/asub {/ind2 exch def /ind1 exch def dup dup
  ind1 get exch ind2 get sub exch } bdef
/tri_to_matrix {
  2 0 asub 3 1 asub 4 0 asub 5 1 asub
  dup 0 get exch 1 get 7 -1 roll astore } bdef
/compute_transform {
  dmat dtri tri_to_matrix tmat1 invertmatrix 
  smat stri tri_to_matrix tmat2 concatmatrix } bdef
/ds {stri astore pop} bdef
/dt {dtri astore pop} bdef
/db {2 copy /cols xdef /rows xdef mul dup 3 mul string
  currentfile 
  3 index 0 eq {/ASCIIHexDecode filter}
  {/ASCII85Decode filter 3 index 2 eq {/RunLengthDecode filter} if }
  ifelse exch readstring pop
  dup 0 3 index getinterval /rbmap xdef
  dup 2 index dup getinterval /gbmap xdef
  1 index dup 2 mul exch getinterval /bbmap xdef pop pop}bdef
/it {gs np dtri aload pop moveto lineto lineto cp c
  cols rows 8 compute_transform 
  rbmap gbmap bbmap true 3 colorimage gr}bdef
/il {newpath moveto lineto stroke}bdef
currentdict end def
%%EndProlog

%%BeginSetup
MathWorks begin

0 cap

end
%%EndSetup

%%Page: 1 1
%%BeginPageSetup
%%PageBoundingBox:  -278   155   874   685
MathWorks begin
bpage
%%EndPageSetup

%%BeginObject: obj1
bplot

/dpi2point 12 def
portraitMode -3336 8220 csm

    0     0 13835  6357 rc
86 dict begin %Colortable dictionary
/c0 { 0.000000 0.000000 0.000000 sr} bdef
/c1 { 1.000000 1.000000 1.000000 sr} bdef
/c2 { 0.900000 0.000000 0.000000 sr} bdef
/c3 { 0.000000 0.820000 0.000000 sr} bdef
/c4 { 0.000000 0.000000 0.800000 sr} bdef
/c5 { 0.910000 0.820000 0.320000 sr} bdef
/c6 { 1.000000 0.260000 0.820000 sr} bdef
/c7 { 0.000000 0.820000 0.820000 sr} bdef
c0
1 j
1 sg
   0    0 13836 6358 rf
6 w
0 5182 10722 0 0 -5182 1799 5658 4 MP
PP
-10722 0 0 5182 10722 0 0 -5182 1799 5658 5 MP stroke
4 w
DO
0 sg
1808 5658 mt 1808  477 L
1808  477 mt 1808  477 L
2999 5658 mt 2999  477 L
2999  477 mt 2999  477 L
4190 5658 mt 4190  477 L
4190  477 mt 4190  477 L
5382 5658 mt 5382  477 L
5382  477 mt 5382  477 L
6573 5658 mt 6573  477 L
6573  477 mt 6573  477 L
7764 5658 mt 7764  477 L
7764  477 mt 7764  477 L
8956 5658 mt 8956  477 L
8956  477 mt 8956  477 L
10147 5658 mt 10147  477 L
10147  477 mt 10147  477 L
11338 5658 mt 11338  477 L
11338  477 mt 11338  477 L
1799 5649 mt 12521 5649 L
12521 5649 mt 12521 5649 L
1799 5073 mt 12521 5073 L
12521 5073 mt 12521 5073 L
1799 4498 mt 12521 4498 L
12521 4498 mt 12521 4498 L
1799 3922 mt 12521 3922 L
12521 3922 mt 12521 3922 L
1799 3346 mt 12521 3346 L
12521 3346 mt 12521 3346 L
1799 2771 mt 12521 2771 L
12521 2771 mt 12521 2771 L
1799 2195 mt 12521 2195 L
12521 2195 mt 12521 2195 L
1799 1619 mt 12521 1619 L
12521 1619 mt 12521 1619 L
1799 1044 mt 12521 1044 L
12521 1044 mt 12521 1044 L
SO
6 w
1799  476 mt 12521  476 L
1799 5658 mt 12521 5658 L
12521 5658 mt 12521  476 L
1799 5658 mt 1799  476 L
1799 5658 mt 12521 5658 L
1799 5658 mt 1799  476 L
1808 5658 mt 1808 5550 L
1808  477 mt 1808  584 L
%%IncludeResource: font Helvetica-Bold
/Helvetica-Bold /WindowsLatin1Encoding 240 FMSR

1535 5922 mt 
(-17) s
2999 5658 mt 2999 5550 L
2999  477 mt 2999  584 L
2626 5922 mt 
(-16.5) s
4190 5658 mt 4190 5550 L
4190  477 mt 4190  584 L
3917 5922 mt 
(-16) s
5382 5658 mt 5382 5550 L
5382  477 mt 5382  584 L
5009 5922 mt 
(-15.5) s
6573 5658 mt 6573 5550 L
6573  477 mt 6573  584 L
6300 5922 mt 
(-15) s
7764 5658 mt 7764 5550 L
7764  477 mt 7764  584 L
7391 5922 mt 
(-14.5) s
8956 5658 mt 8956 5550 L
8956  477 mt 8956  584 L
8683 5922 mt 
(-14) s
10147 5658 mt 10147 5550 L
10147  477 mt 10147  584 L
9774 5922 mt 
(-13.5) s
11338 5658 mt 11338 5550 L
11338  477 mt 11338  584 L
11065 5922 mt 
(-13) s
1799 5649 mt 1906 5649 L
12521 5649 mt 12413 5649 L
1357 5741 mt 
(-12) s
1799 5361 mt 1852 5361 L
12521 5361 mt 12467 5361 L
1799 5073 mt 1852 5073 L
12521 5073 mt 12467 5073 L
1799 5073 mt 1852 5073 L
12521 5073 mt 12467 5073 L
1799 5073 mt 1852 5073 L
12521 5073 mt 12467 5073 L
1799 5073 mt 1852 5073 L
12521 5073 mt 12467 5073 L
1799 5073 mt 1852 5073 L
12521 5073 mt 12467 5073 L
1799 5073 mt 1852 5073 L
12521 5073 mt 12467 5073 L
1799 5073 mt 1852 5073 L
12521 5073 mt 12467 5073 L
1799 5073 mt 1852 5073 L
12521 5073 mt 12467 5073 L
1799 5073 mt 1906 5073 L
12521 5073 mt 12413 5073 L
1357 5165 mt 
(-11) s
1799 4786 mt 1852 4786 L
12521 4786 mt 12467 4786 L
1799 4498 mt 1852 4498 L
12521 4498 mt 12467 4498 L
1799 4498 mt 1852 4498 L
12521 4498 mt 12467 4498 L
1799 4498 mt 1852 4498 L
12521 4498 mt 12467 4498 L
1799 4498 mt 1852 4498 L
12521 4498 mt 12467 4498 L
1799 4498 mt 1852 4498 L
12521 4498 mt 12467 4498 L
1799 4498 mt 1852 4498 L
12521 4498 mt 12467 4498 L
1799 4498 mt 1852 4498 L
12521 4498 mt 12467 4498 L
1799 4498 mt 1852 4498 L
12521 4498 mt 12467 4498 L
1799 4498 mt 1906 4498 L
12521 4498 mt 12413 4498 L
1357 4590 mt 
(-10) s
1799 4210 mt 1852 4210 L
12521 4210 mt 12467 4210 L
1799 3922 mt 1852 3922 L
12521 3922 mt 12467 3922 L
1799 3922 mt 1852 3922 L
12521 3922 mt 12467 3922 L
1799 3922 mt 1852 3922 L
12521 3922 mt 12467 3922 L
1799 3922 mt 1852 3922 L
12521 3922 mt 12467 3922 L
1799 3922 mt 1852 3922 L
12521 3922 mt 12467 3922 L
1799 3922 mt 1852 3922 L
12521 3922 mt 12467 3922 L
1799 3922 mt 1852 3922 L
12521 3922 mt 12467 3922 L
1799 3922 mt 1852 3922 L
12521 3922 mt 12467 3922 L
1799 3922 mt 1906 3922 L
12521 3922 mt 12413 3922 L
1491 4014 mt 
(-9) s
1799 3634 mt 1852 3634 L
12521 3634 mt 12467 3634 L
1799 3346 mt 1852 3346 L
12521 3346 mt 12467 3346 L
1799 3346 mt 1852 3346 L
12521 3346 mt 12467 3346 L
1799 3346 mt 1852 3346 L
12521 3346 mt 12467 3346 L
1799 3346 mt 1852 3346 L
12521 3346 mt 12467 3346 L
1799 3346 mt 1852 3346 L
12521 3346 mt 12467 3346 L
1799 3346 mt 1852 3346 L
12521 3346 mt 12467 3346 L
1799 3346 mt 1852 3346 L
12521 3346 mt 12467 3346 L
1799 3346 mt 1852 3346 L
12521 3346 mt 12467 3346 L
1799 3346 mt 1906 3346 L
12521 3346 mt 12413 3346 L
1491 3438 mt 
(-8) s
1799 3059 mt 1852 3059 L
12521 3059 mt 12467 3059 L
1799 2771 mt 1852 2771 L
12521 2771 mt 12467 2771 L
1799 2771 mt 1852 2771 L
12521 2771 mt 12467 2771 L
1799 2771 mt 1852 2771 L
12521 2771 mt 12467 2771 L
1799 2771 mt 1852 2771 L
12521 2771 mt 12467 2771 L
1799 2771 mt 1852 2771 L
12521 2771 mt 12467 2771 L
1799 2771 mt 1852 2771 L
12521 2771 mt 12467 2771 L
1799 2771 mt 1852 2771 L
12521 2771 mt 12467 2771 L
1799 2771 mt 1852 2771 L
12521 2771 mt 12467 2771 L
1799 2771 mt 1906 2771 L
12521 2771 mt 12413 2771 L
1491 2863 mt 
(-7) s
1799 2483 mt 1852 2483 L
12521 2483 mt 12467 2483 L
1799 2195 mt 1852 2195 L
12521 2195 mt 12467 2195 L
1799 2195 mt 1852 2195 L
12521 2195 mt 12467 2195 L
1799 2195 mt 1852 2195 L
12521 2195 mt 12467 2195 L
1799 2195 mt 1852 2195 L
12521 2195 mt 12467 2195 L
1799 2195 mt 1852 2195 L
12521 2195 mt 12467 2195 L
1799 2195 mt 1852 2195 L
12521 2195 mt 12467 2195 L
1799 2195 mt 1852 2195 L
12521 2195 mt 12467 2195 L
1799 2195 mt 1852 2195 L
12521 2195 mt 12467 2195 L
1799 2195 mt 1906 2195 L
12521 2195 mt 12413 2195 L
1491 2287 mt 
(-6) s
1799 1907 mt 1852 1907 L
12521 1907 mt 12467 1907 L
1799 1619 mt 1852 1619 L
12521 1619 mt 12467 1619 L
1799 1619 mt 1852 1619 L
12521 1619 mt 12467 1619 L
1799 1619 mt 1852 1619 L
12521 1619 mt 12467 1619 L
1799 1619 mt 1852 1619 L
12521 1619 mt 12467 1619 L
1799 1619 mt 1852 1619 L
12521 1619 mt 12467 1619 L
1799 1619 mt 1852 1619 L
12521 1619 mt 12467 1619 L
1799 1619 mt 1852 1619 L
12521 1619 mt 12467 1619 L
1799 1619 mt 1852 1619 L
12521 1619 mt 12467 1619 L
1799 1619 mt 1906 1619 L
12521 1619 mt 12413 1619 L
1491 1711 mt 
(-5) s
1799 1332 mt 1852 1332 L
12521 1332 mt 12467 1332 L
1799 1044 mt 1852 1044 L
12521 1044 mt 12467 1044 L
1799 1044 mt 1852 1044 L
12521 1044 mt 12467 1044 L
1799 1044 mt 1852 1044 L
12521 1044 mt 12467 1044 L
1799 1044 mt 1852 1044 L
12521 1044 mt 12467 1044 L
1799 1044 mt 1852 1044 L
12521 1044 mt 12467 1044 L
1799 1044 mt 1852 1044 L
12521 1044 mt 12467 1044 L
1799 1044 mt 1852 1044 L
12521 1044 mt 12467 1044 L
1799 1044 mt 1852 1044 L
12521 1044 mt 12467 1044 L
1799 1044 mt 1906 1044 L
12521 1044 mt 12413 1044 L
1491 1136 mt 
(-4) s
1799  756 mt 1852  756 L
12521  756 mt 12467  756 L
1799  476 mt 12521  476 L
1799 5658 mt 12521 5658 L
12521 5658 mt 12521  476 L
1799 5658 mt 1799  476 L
gs 1799 477 10723 5182 rc
48 w
gr

48 w
gs 1662 1065 10061 4731 rc
/c8 { 0.000000 0.000000 1.000000 sr} bdef
c8
1760 1211 mt 1856 1211 L
1808 1163 mt 1808 1259 L
3451 1619 mt 3547 1619 L
3499 1571 mt 3499 1667 L
4380 1958 mt 4476 1958 L
4428 1910 mt 4428 2006 L
4857 2143 mt 4953 2143 L
4905 2095 mt 4905 2191 L
5238 2243 mt 5334 2243 L
5286 2195 mt 5286 2291 L
5810 2431 mt 5906 2431 L
5858 2383 mt 5858 2479 L
6763 2842 mt 6859 2842 L
6811 2794 mt 6811 2890 L
7478 3119 mt 7574 3119 L
7526 3071 mt 7526 3167 L
8002 3446 mt 8098 3446 L
8050 3398 mt 8050 3494 L
8645 3765 mt 8741 3765 L
8693 3717 mt 8693 3813 L
9503 4245 mt 9599 4245 L
9551 4197 mt 9551 4293 L
10575 4913 mt 10671 4913 L
10623 4865 mt 10623 4961 L
11528 5649 mt 11624 5649 L
11576 5601 mt 11576 5697 L
1775 1178 mt 1841 1244 L
1841 1178 mt 1775 1244 L
3466 1586 mt 3532 1652 L
3532 1586 mt 3466 1652 L
4395 1925 mt 4461 1991 L
4461 1925 mt 4395 1991 L
4872 2110 mt 4938 2176 L
4938 2110 mt 4872 2176 L
5253 2210 mt 5319 2276 L
5319 2210 mt 5253 2276 L
5825 2398 mt 5891 2464 L
5891 2398 mt 5825 2464 L
6778 2809 mt 6844 2875 L
6844 2809 mt 6778 2875 L
7493 3086 mt 7559 3152 L
7559 3086 mt 7493 3152 L
8017 3413 mt 8083 3479 L
8083 3413 mt 8017 3479 L
8660 3732 mt 8726 3798 L
8726 3732 mt 8660 3798 L
9518 4212 mt 9584 4278 L
9584 4212 mt 9518 4278 L
10590 4880 mt 10656 4946 L
10656 4880 mt 10590 4946 L
11543 5616 mt 11609 5682 L
11609 5616 mt 11543 5682 L
gr

c8
gs 1799 477 10723 5182 rc
24 w
/c9 { 1.000000 0.000000 0.000000 sr} bdef
c9
9 7 10 7 10 7 10 7 9 7 10 7 10 7 10 7 
9 7 10 7 10 7 10 7 10 7 9 7 10 6 10 7 
10 7 9 7 10 7 10 7 10 7 9 7 10 7 10 7 
10 6 10 7 9 7 10 7 10 7 10 7 9 6 10 7 
10 7 10 7 9 7 10 6 10 7 10 7 10 7 9 6 
10 7 10 7 10 7 9 6 10 7 10 7 10 6 9 7 
10 7 10 7 10 6 10 7 9 7 10 6 10 7 10 7 
9 6 10 7 10 6 10 7 9 7 10 6 10 7 10 6 
10 7 9 7 10 6 10 7 10 6 9 7 10 6 10 7 
10 6 9 7 10 6 10 7 10 6 10 7 9 6 10 7 
10 6 10 7 9 6 10 7 10 6 10 7 9 6 10 7 
10 6 10 6 10 7 9 6 10 7 10 6 10 6 9 7 
10 6 6 4 4 2 10 7 9 6 10 6 10 7 10 6 
10 6 9 7 10 6 10 6 10 7 9 6 10 6 10 7 
10 6 9 6 10 6 10 7 10 6 10 6 9 6 10 7 
10 6 10 6 9 6 10 6 10 7 10 6 9 6 10 6 
10 6 10 6 10 7 9 6 10 6 10 6 10 6 9 6 
10 6 10 6 10 7 9 6 10 6 10 6 10 6 10 6 
9 6 10 6 10 6 10 6 9 6 10 6 10 6 10 6 
9 6 10 6 10 6 10 6 10 6 9 6 10 6 10 6 
10 6 9 6 10 6 10 6 10 6 9 6 10 6 10 6 
10 6 10 6 9 6 10 6 10 5 10 6 9 6 10 6 
10 6 10 6 9 6 10 5 10 6 10 6 10 6 9 6 
10 6 10 5 10 6 9 6 10 6 10 6 10 5 9 6 
10 6 10 6 10 6 10 5 9 6 10 6 10 6 10 5 
9 6 10 6 10 5 10 6 9 6 10 6 10 5 10 6 
3 2 6 4 10 5 10 6 10 6 10 5 9 6 10 6 
10 5 10 6 9 5 10 6 10 6 10 5 9 6 10 5 
10 6 10 6 10 5 9 6 10 5 10 6 10 5 9 6 
10 6 10 5 10 6 9 5 10 6 10 5 10 6 10 5 
9 6 10 5 10 6 10 5 9 6 10 5 10 6 10 5 
9 6 10 5 10 5 10 6 10 5 9 6 10 5 10 6 
10 5 9 5 10 6 10 5 10 6 9 5 10 5 10 6 
10 5 10 5 9 6 10 5 10 5 10 6 9 5 10 5 
10 6 10 5 9 5 10 6 10 5 10 5 10 6 9 5 
10 5 10 5 10 6 9 5 10 5 10 5 10 6 9 5 
10 5 10 5 10 6 10 5 9 5 10 5 10 5 10 6 
9 5 2 0 8 5 8685 3760 300 MP stroke
10 5 10 5 9 6 10 5 10 5 10 5 10 5 9 5 
10 5 10 6 10 5 9 5 10 5 10 5 10 5 9 5 
10 5 10 5 10 5 10 6 9 5 10 5 10 5 10 5 
9 5 10 5 10 5 10 5 9 5 10 5 10 5 10 5 
10 5 9 5 10 5 10 5 10 5 9 5 10 5 10 5 
10 5 9 5 10 5 10 5 10 5 10 5 9 5 10 5 
10 5 10 5 9 4 10 5 10 5 10 5 9 5 10 5 
10 5 10 5 10 5 9 4 10 5 10 5 10 5 9 5 
10 5 10 5 10 4 9 5 10 5 10 5 10 5 10 5 
9 4 10 5 10 5 10 5 9 5 10 4 10 5 10 5 
9 5 10 4 10 5 10 5 10 5 9 4 10 5 10 5 
10 5 9 4 10 5 10 5 10 5 9 4 10 5 10 5 
10 4 10 5 9 5 10 4 10 5 10 5 9 4 10 5 
10 5 10 4 9 5 10 5 10 4 10 5 10 4 9 5 
10 5 10 4 10 5 9 5 10 4 10 5 6 3 4 1 
9 5 10 4 10 5 10 5 10 4 9 5 10 4 10 5 
10 4 9 5 10 4 10 5 10 4 9 5 10 5 10 4 
10 5 10 4 9 5 10 4 10 5 10 4 9 4 10 5 
10 4 10 5 9 4 10 5 10 4 10 5 10 4 9 5 
10 4 10 4 10 5 9 4 10 5 10 4 10 4 9 5 
10 4 10 5 10 4 10 4 9 5 10 4 10 5 10 4 
9 4 10 5 10 4 10 4 9 5 10 4 10 4 10 5 
9 4 10 4 10 5 10 4 10 4 9 5 10 4 10 4 
10 4 9 5 10 4 10 4 10 5 9 4 10 4 10 4 
8 4 2 1 10 4 9 4 10 4 10 5 10 4 9 4 
10 4 10 4 10 5 9 4 10 4 10 4 10 4 10 5 
9 4 10 4 10 4 10 4 9 5 10 4 10 4 10 4 
9 4 10 4 10 4 10 5 10 4 9 4 10 4 10 4 
10 4 9 4 10 4 10 5 10 4 9 4 10 4 10 4 
10 4 10 4 9 4 10 4 10 4 10 4 9 4 10 5 
10 4 10 4 9 4 10 4 10 4 10 4 10 4 9 4 
10 4 10 4 10 4 9 4 10 4 10 4 10 4 9 4 
10 4 10 4 10 4 10 4 9 4 10 4 10 4 10 4 
9 4 10 4 10 3 10 4 9 4 10 4 10 4 10 4 
10 4 9 4 10 4 10 4 10 4 9 4 10 3 10 4 
10 4 9 4 10 4 10 4 10 4 10 4 9 3 10 4 
10 4 10 4 9 4 4 1 6 3 10 4 10 3 9 4 
10 4 10 4 10 4 5793 2438 300 MP stroke
10 4 9 3 10 4 10 4 10 4 9 4 10 3 10 4 
10 4 9 4 10 3 10 4 10 4 10 4 9 4 10 3 
10 4 10 4 9 4 10 3 10 4 10 4 9 3 10 4 
10 4 10 4 10 3 9 4 10 4 10 3 10 4 9 4 
10 4 10 3 10 4 9 4 10 3 10 4 10 4 10 3 
9 4 10 4 10 3 10 4 9 4 10 3 10 4 10 3 
9 4 10 4 10 3 9 4 1 0 10 4 9 3 10 4 
10 3 10 4 9 4 10 3 10 4 10 3 9 4 10 4 
10 3 10 4 10 3 9 4 10 3 10 4 10 4 9 3 
10 4 10 3 10 4 9 3 10 4 10 3 10 4 10 3 
9 4 10 3 10 4 10 3 9 4 10 3 10 4 10 3 
9 4 10 3 10 4 9 3 1 0 10 4 9 3 10 4 
10 3 10 4 9 3 10 4 10 3 10 3 9 4 10 3 
10 4 10 3 10 4 9 3 10 3 10 4 10 3 9 4 
10 3 10 3 10 4 9 3 10 4 10 3 10 3 10 4 
9 3 10 4 10 3 10 3 9 4 10 3 10 3 10 4 
9 3 10 3 10 4 10 3 9 3 10 4 10 3 10 3 
10 4 9 3 10 3 10 4 10 3 7 2 2 1 10 4 
10 3 10 3 9 4 10 3 10 3 10 3 10 4 9 3 
10 3 10 3 10 4 9 3 10 3 10 4 10 3 9 3 
10 3 10 4 10 3 10 3 9 3 10 3 10 4 10 3 
9 3 10 3 10 4 10 3 9 3 10 3 10 3 10 4 
10 3 9 3 10 3 10 3 10 3 9 4 10 3 10 3 
10 3 9 3 10 3 10 4 10 3 10 3 9 3 10 3 
10 3 10 3 9 4 10 3 10 3 10 3 9 3 10 3 
10 3 10 3 10 4 9 3 10 3 10 3 10 3 9 3 
10 3 10 3 10 3 9 3 10 3 10 4 10 3 10 3 
9 3 10 3 10 3 10 3 9 3 10 3 10 3 10 3 
9 3 10 3 10 3 10 3 10 3 9 3 10 3 10 3 
10 3 9 3 10 3 10 3 10 3 8 3 1 0 10 3 
10 3 10 3 10 3 9 3 10 3 10 3 10 3 9 3 
10 3 10 3 10 3 9 3 10 3 10 3 10 3 10 3 
9 3 10 3 10 3 10 3 9 2 10 3 10 3 10 3 
9 3 10 3 10 3 10 3 10 3 9 3 10 3 10 2 
10 3 9 3 10 3 10 3 10 3 9 3 10 3 10 3 
10 2 10 3 9 3 10 3 10 3 10 3 9 3 10 2 
10 3 10 3 9 3 10 3 10 3 10 2 10 3 9 3 
10 3 10 3 10 3 2911 1467 300 MP stroke
9 2 10 3 10 3 10 3 9 3 10 2 10 3 10 3 
10 3 9 3 10 2 10 3 10 3 9 3 10 2 10 3 
10 3 9 3 10 3 10 2 10 3 10 3 9 3 10 2 
10 3 10 3 9 3 10 2 10 3 10 3 9 2 10 3 
10 3 10 3 10 2 9 3 10 3 10 2 10 3 9 3 
10 3 10 2 10 3 9 3 10 2 10 3 10 3 10 2 
9 3 10 3 10 2 10 3 9 3 10 2 10 3 10 3 
9 2 10 3 10 3 10 2 10 3 9 3 10 2 10 3 
10 3 9 2 10 3 10 2 10 3 9 3 10 2 10 3 
10 3 10 2 9 3 10 2 10 3 10 3 9 2 10 3 
10 2 10 3 9 2 10 3 10 3 10 2 10 3 9 2 
10 3 10 3 10 2 9 3 10 2 10 3 10 2 9 3 
10 2 10 3 10 2 9 3 10 3 10 2 10 3 10 2 
9 3 10 2 10 3 10 2 9 3 10 2 10 3 10 2 
9 3 1808 1167 114 MP stroke
gr

24 w
c9
0 sg
%%IncludeResource: font Symbol
/Symbol /WindowsLatin1Encoding 288 FMSR

5909 6189 mt 
(\254) s
%%IncludeResource: font Helvetica-Bold
/Helvetica-Bold /WindowsLatin1Encoding 288 FMSR

6193 6189 mt 
( Power \(dBm\) ) s
%%IncludeResource: font Symbol
/Symbol /WindowsLatin1Encoding 288 FMSR

8113 6189 mt 
(\256) s
1218 5634 mt  -90 rotate
(\254) s
90 rotate
%%IncludeResource: font Helvetica-Bold
/Helvetica-Bold /WindowsLatin1Encoding 288 FMSR

1218 5350 mt  -90 rotate
( Bit Error Ratio \(BER\) in log scale) s
90 rotate
%%IncludeResource: font Symbol
/Symbol /WindowsLatin1Encoding 288 FMSR

1218  779 mt  -90 rotate
(\256) s
90 rotate
%%IncludeResource: font Helvetica
/Helvetica /WindowsLatin1Encoding 120 FMSR

1782 5701 mt 
( ) s
12505  519 mt 
( ) s
gs 1799 477 10723 5182 rc
48 w
gr

48 w
gs 1662 2442 5058 3354 rc
c8
1760 2588 mt 1856 2588 L
1808 2540 mt 1808 2636 L
2593 2944 mt 2689 2944 L
2641 2896 mt 2641 2992 L
3141 3208 mt 3237 3208 L
3189 3160 mt 3189 3256 L
3618 3463 mt 3714 3463 L
3666 3415 mt 3666 3511 L
4142 3851 mt 4238 3851 L
4190 3803 mt 4190 3899 L
4643 4163 mt 4739 4163 L
4691 4115 mt 4691 4211 L
5238 4630 mt 5334 4630 L
5286 4582 mt 5286 4678 L
5810 5129 mt 5906 5129 L
5858 5081 mt 5858 5177 L
6525 5649 mt 6621 5649 L
6573 5601 mt 6573 5697 L
1775 2555 mt 1841 2621 L
1841 2555 mt 1775 2621 L
2608 2911 mt 2674 2977 L
2674 2911 mt 2608 2977 L
3156 3175 mt 3222 3241 L
3222 3175 mt 3156 3241 L
3633 3430 mt 3699 3496 L
3699 3430 mt 3633 3496 L
4157 3818 mt 4223 3884 L
4223 3818 mt 4157 3884 L
4658 4130 mt 4724 4196 L
4724 4130 mt 4658 4196 L
5253 4597 mt 5319 4663 L
5319 4597 mt 5253 4663 L
5825 5096 mt 5891 5162 L
5891 5096 mt 5825 5162 L
6540 5616 mt 6606 5682 L
6606 5616 mt 6540 5682 L
gr

c8
gs 1799 477 10723 5182 rc
24 w
c9
1 1 4 4 5 5 5 4 5 4 5 4 4 4 5 5 
5 4 5 4 4 4 5 4 5 5 5 4 4 4 5 4 
5 4 5 4 4 5 5 4 5 4 5 4 5 4 4 4 
5 4 5 5 5 4 4 4 5 4 5 4 5 4 4 4 
5 5 5 4 5 4 4 4 5 4 5 4 5 4 5 4 
4 4 5 5 5 4 5 4 4 4 5 4 5 4 5 4 
4 4 5 4 5 4 5 4 4 4 5 5 5 4 5 4 
5 4 4 4 5 4 5 4 5 4 4 4 5 4 5 4 
5 4 4 4 5 4 5 4 5 4 4 4 5 4 5 4 
5 4 5 5 4 4 5 4 5 4 5 4 4 4 5 4 
5 4 5 4 4 4 5 4 5 4 5 4 5 4 4 4 
5 4 5 4 5 4 4 4 5 3 5 4 5 4 4 4 
5 4 5 4 5 4 4 4 5 4 5 4 5 4 5 4 
4 4 5 4 5 4 5 4 4 4 5 4 5 4 5 4 
4 4 5 3 5 4 5 4 4 4 5 4 5 4 5 4 
5 4 4 4 5 4 5 4 5 3 4 4 5 4 5 4 
5 4 4 4 5 4 5 4 5 4 4 3 5 4 5 4 
5 4 5 4 4 4 5 4 5 4 5 3 4 4 5 4 
5 4 5 4 4 4 5 4 5 3 5 4 4 4 5 4 
5 4 5 4 5 3 4 4 5 4 5 4 5 4 4 4 
5 3 5 4 5 4 4 4 5 4 5 3 5 4 5 4 
4 4 5 4 5 3 5 4 4 4 5 4 5 4 5 3 
4 4 5 4 5 4 5 3 4 4 5 4 5 4 5 3 
5 4 4 4 5 4 5 4 5 3 4 4 5 4 5 4 
5 3 4 4 5 4 5 3 5 4 4 4 5 4 5 3 
5 4 5 4 4 4 5 3 5 4 5 4 4 3 5 4 
5 4 5 4 4 3 5 4 5 4 5 3 4 4 5 4 
5 3 5 4 5 4 4 3 5 4 5 4 5 3 4 4 
5 4 5 3 5 4 4 4 5 3 5 4 5 4 4 3 
5 4 5 4 5 3 5 4 4 4 5 3 5 4 5 4 
4 3 5 4 5 4 5 3 4 4 5 3 5 4 5 4 
4 3 5 4 5 3 5 4 5 4 4 3 5 4 5 4 
5 3 4 4 5 3 5 4 5 3 4 4 5 4 5 3 
5 4 5 3 4 4 5 4 5 3 5 4 4 3 5 4 
5 3 5 4 4 4 5 3 5 4 5 3 4 4 5 3 
5 4 5 3 5 4 4 3 5 4 5 4 5 3 4 4 
5 3 5 4 5 3 4 4 5 3 5 4 5 3 4 4 
5 3 5 4 5 3 5143 4512 300 MP stroke
5 4 4 3 5 4 5 3 5 4 4 3 5 4 5 3 
5 4 4 3 5 4 5 3 5 4 4 3 5 4 5 3 
5 4 5 3 4 4 5 3 5 4 5 3 4 3 5 4 
5 3 5 4 4 3 5 4 5 3 5 4 4 3 5 4 
5 3 5 3 5 4 4 3 5 4 5 3 5 4 4 3 
5 3 5 4 5 3 4 4 5 3 5 3 5 4 4 3 
5 4 5 3 5 4 5 3 4 3 5 4 5 3 5 3 
4 4 5 3 5 4 5 3 4 3 5 4 5 3 5 4 
5 3 4 3 5 4 5 3 5 3 4 4 5 3 5 3 
5 4 4 3 5 4 5 3 5 3 4 4 5 3 5 3 
5 4 5 3 4 3 5 4 5 3 5 3 4 4 5 3 
5 3 5 4 4 3 5 3 5 4 5 3 4 3 5 3 
5 4 5 3 5 3 4 4 5 3 5 3 5 4 4 3 
5 3 5 3 5 4 4 3 5 3 5 4 5 3 4 3 
5 3 5 4 5 3 5 3 4 4 5 3 5 3 5 3 
4 4 5 3 5 3 5 3 4 4 5 3 5 3 5 3 
4 4 5 3 5 3 5 3 5 4 4 3 5 3 5 3 
5 3 4 4 5 3 5 3 5 3 4 4 5 3 5 3 
5 3 4 3 5 4 5 3 5 3 5 3 4 3 5 4 
5 3 5 3 4 3 5 3 5 4 5 3 4 3 5 3 
5 3 5 4 5 3 4 3 5 3 5 3 5 3 4 4 
5 3 5 3 5 3 4 3 5 3 5 4 5 3 4 3 
5 3 5 3 5 3 5 3 4 4 5 3 5 3 5 3 
4 3 5 3 5 3 5 4 4 3 5 3 5 3 5 3 
4 3 5 3 5 3 5 4 5 3 4 3 5 3 5 3 
5 3 4 3 5 3 5 3 5 3 4 4 5 3 5 3 
5 3 4 3 5 3 5 3 5 3 5 3 4 3 5 3 
5 4 5 3 4 3 5 3 5 3 5 3 4 3 5 3 
5 3 5 3 4 3 5 3 5 3 5 3 5 3 4 3 
5 3 5 4 5 3 4 3 5 3 5 3 5 3 4 3 
5 3 5 3 5 3 5 3 4 3 5 3 5 3 5 3 
4 3 5 3 5 3 5 3 4 3 5 3 5 3 5 3 
4 3 5 3 5 3 5 3 5 3 4 3 5 3 5 3 
5 3 4 3 5 3 5 3 5 3 4 3 5 3 5 3 
5 3 4 3 5 3 5 3 5 3 5 3 4 3 5 3 
5 2 5 3 4 3 5 3 5 3 5 3 4 3 5 3 
5 3 5 3 4 3 5 3 5 3 5 3 5 3 4 3 
5 3 5 3 5 2 3718 3553 300 MP stroke
4 3 5 3 5 3 5 3 4 3 5 3 5 3 5 3 
4 3 5 3 5 2 5 3 5 3 4 3 5 3 5 3 
5 3 4 3 5 3 5 3 5 2 4 3 5 3 5 3 
5 3 4 3 5 3 5 3 5 3 5 2 4 3 5 3 
5 3 5 3 4 3 5 3 5 2 5 3 4 3 5 3 
5 3 5 3 5 3 4 2 5 3 5 3 5 3 4 3 
5 3 5 2 5 3 4 3 5 3 5 3 5 3 4 2 
5 3 5 3 5 3 5 3 4 3 5 2 5 3 5 3 
4 3 5 3 5 2 5 3 4 3 5 3 5 3 5 2 
4 3 5 3 5 3 5 3 5 2 4 3 5 3 5 3 
5 3 4 2 5 3 5 3 5 3 4 3 5 2 5 3 
5 3 4 3 5 2 5 3 5 3 5 3 4 2 5 3 
5 3 5 3 4 2 5 3 5 3 5 3 4 2 5 3 
5 3 5 3 4 2 5 3 5 3 5 3 5 2 4 3 
5 3 5 3 5 2 4 3 5 3 5 2 5 3 4 3 
5 3 5 2 5 3 4 3 5 3 5 2 5 3 5 3 
4 2 5 3 5 3 5 2 4 3 5 3 5 3 5 2 
4 3 5 3 5 2 5 3 5 3 4 2 5 3 5 3 
5 2 4 3 5 3 5 2 5 3 4 3 5 2 5 3 
5 3 4 2 5 3 5 3 5 2 5 3 4 3 5 2 
5 3 5 3 4 2 5 3 5 3 5 2 4 3 5 3 
5 2 5 3 4 2 5 3 5 3 5 2 5 3 4 3 
5 2 5 3 5 3 4 2 5 3 5 2 5 3 4 3 
5 2 5 3 5 2 4 3 5 3 5 2 5 3 5 2 
4 3 5 3 5 2 5 3 4 2 5 3 5 3 5 2 
4 3 5 2 5 3 5 3 4 2 5 3 5 2 5 3 
5 3 4 2 5 3 5 2 5 3 4 2 5 3 5 3 
5 2 4 3 5 2 5 3 5 2 4 3 5 2 5 3 
5 3 5 2 4 3 5 2 5 3 5 2 4 3 5 2 
5 3 5 2 4 3 5 2 5 3 5 3 5 2 4 3 
5 2 5 3 5 2 4 3 5 2 5 3 5 2 4 3 
5 2 5 3 5 2 4 3 5 2 5 3 5 2 5 3 
4 2 5 3 5 2 5 3 4 2 5 3 5 2 5 3 
4 2 5 3 5 2 5 3 4 2 5 3 5 2 5 3 
5 2 4 3 5 2 5 3 5 2 4 3 5 2 5 3 
5 2 4 2 5 3 5 2 5 3 4 2 5 3 5 2 
5 3 5 2 4 3 5 2 5 2 5 3 4 2 5 3 
5 2 5 3 4 2 2294 2753 300 MP stroke
5 3 5 2 5 2 4 3 5 2 5 3 5 2 5 3 
4 2 5 2 5 3 5 2 4 3 5 2 5 3 5 2 
4 2 5 3 5 2 5 3 5 2 4 2 5 3 5 2 
5 3 4 2 5 2 5 3 5 2 4 3 5 2 5 2 
5 3 4 2 5 3 5 2 5 2 5 3 4 2 5 2 
5 3 5 2 4 3 5 2 5 2 5 3 4 2 5 2 
5 3 5 2 4 3 5 2 5 2 5 3 5 2 4 2 
5 3 5 2 5 2 4 3 5 2 5 3 5 2 4 2 
5 3 5 2 5 2 4 3 5 2 5 2 5 3 5 2 
4 2 5 3 5 2 5 2 4 3 5 2 5 2 5 3 
4 2 5 2 5 3 5 2 4 2 5 2 5 3 5 2 
5 2 4 3 5 2 5 2 5 3 4 2 5 2 5 3 
5 2 4 2 5 2 5 3 5 2 4 2 1808 2512 103 MP stroke
6 w
gr

6 w
c9
1 sg
0 626 2173 0 0 -626 10289 1163 4 MP
PP
-2173 0 0 626 2173 0 0 -626 10289 1163 5 MP stroke
4 w
DO
SO
6 w
0 sg
10289  537 mt 12462  537 L
10289 1163 mt 12462 1163 L
12462 1163 mt 12462  537 L
10289 1163 mt 10289  537 L
10289 1163 mt 12462 1163 L
10289 1163 mt 10289  537 L
10289  537 mt 12462  537 L
10289 1163 mt 12462 1163 L
12462 1163 mt 12462  537 L
10289 1163 mt 10289  537 L
%%IncludeResource: font Helvetica-Bold
/Helvetica-Bold /WindowsLatin1Encoding 240 FMSR

10756  792 mt 
(Data Readings) s
gs 10289 537 2174 627 rc
48 w
gs 10394 557 293 293 rc
c8
10492  703 mt 10588  703 L
10540  655 mt 10540  751 L
10507  670 mt 10573  736 L
10573  670 mt 10507  736 L
gr

c8
gr

48 w
c8
0 sg
10756 1085 mt 
(Fitted Curve) s
gs 10289 537 2174 627 rc
24 w
c9
360 0 10360 996 2 MP stroke
6 w
gr

6 w
c9
/c10 { 0.039216 0.141176 0.415686 sr} bdef
c10
%%IncludeResource: font Helvetica-Bold
/Helvetica-Bold /WindowsLatin1Encoding 168 FMSR

6395 4693 mt 
(GBT SCHEME) s
5732 4892 mt 
(\(REED SOLOMON ENCODING\)) s
7772 3013 mt 
(WIDE-BUS SCHEME) s
7942 3212 mt 
(\(NO ENCODING\)) s

end %%Color Dict

eplot
%%EndObject

epage
end

showpage

%%Trailer
%%EOF
