%!PS-Adobe-3.0 EPSF-3.0
%%Creator: MATLAB, The MathWorks, Inc. Version 8.0.0.783 (R2012b). Operating System: Microsoft Windows 7.
%%Title: C:\MyWorkplace\researchWork\GBT\GBT_BER_WORK\RESULTS\pre_emphasis_1st_pre_tap.eps
%%CreationDate: 05/02/2017  19:02:13
%%DocumentNeededFonts: Helvetica
%%+ Helvetica-Bold
%%DocumentProcessColors: Cyan Magenta Yellow Black
%%LanguageLevel: 2
%%Pages: 1
%%BoundingBox:  -278   155   874   685
%%EndComments

%%BeginProlog
% MathWorks dictionary
/MathWorks 160 dict begin
% definition operators
/bdef {bind def} bind def
/ldef {load def} bind def
/xdef {exch def} bdef
/xstore {exch store} bdef
% operator abbreviations
/c  /clip ldef
/cc /concat ldef
/cp /closepath ldef
/gr /grestore ldef
/gs /gsave ldef
/mt /moveto ldef
/np /newpath ldef
/cm /currentmatrix ldef
/sm /setmatrix ldef
/rm /rmoveto ldef
/rl /rlineto ldef
/s {show newpath} bdef
/sc {setcmykcolor} bdef
/sr /setrgbcolor ldef
/sg /setgray ldef
/w /setlinewidth ldef
/j /setlinejoin ldef
/cap /setlinecap ldef
/rc {rectclip} bdef
/rf {rectfill} bdef
% page state control
/pgsv () def
/bpage {/pgsv save def} bdef
/epage {pgsv restore} bdef
/bplot /gsave ldef
/eplot {stroke grestore} bdef
% orientation switch
/portraitMode 0 def /landscapeMode 1 def /rotateMode 2 def
% coordinate system mappings
/dpi2point 0 def
% font control
/FontSize 0 def
/FMS {/FontSize xstore findfont [FontSize 0 0 FontSize neg 0 0]
  makefont setfont} bdef
/ISOLatin1Encoding where {pop /WindowsLatin1Encoding 256 array bdef
ISOLatin1Encoding WindowsLatin1Encoding copy pop
/.notdef/.notdef/quotesinglbase/florin/quotedblbase/ellipsis/dagger
/daggerdbl/circumflex/perthousand/Scaron/guilsinglleft/OE/.notdef/.notdef
/.notdef/.notdef/quoteleft/quoteright/quotedblleft/quotedblright/bullet
/endash/emdash/tilde/trademark/scaron/guilsinglright/oe/.notdef/.notdef
/Ydieresis WindowsLatin1Encoding 128 32 getinterval astore pop}
{/WindowsLatin1Encoding StandardEncoding bdef} ifelse
/reencode {exch dup where {pop load} {pop StandardEncoding} ifelse
  exch dup 3 1 roll findfont dup length dict begin
  { 1 index /FID ne {def}{pop pop} ifelse } forall
  /Encoding exch def currentdict end definefont pop} bdef
/isroman {findfont /CharStrings get /Agrave known} bdef
/FMSR {3 1 roll 1 index dup isroman {reencode} {pop pop} ifelse
  exch FMS} bdef
/csm {1 dpi2point div -1 dpi2point div scale neg translate
 dup landscapeMode eq {pop -90 rotate}
  {rotateMode eq {90 rotate} if} ifelse} bdef
% line types: solid, dotted, dashed, dotdash
/SO { [] 0 setdash } bdef
/DO { [.5 dpi2point mul 4 dpi2point mul] 0 setdash } bdef
/DA { [6 dpi2point mul] 0 setdash } bdef
/DD { [.5 dpi2point mul 4 dpi2point mul 6 dpi2point mul 4
  dpi2point mul] 0 setdash } bdef
% macros for lines and objects
/L {lineto stroke} bdef
/MP {3 1 roll moveto 1 sub {rlineto} repeat} bdef
/AP {{rlineto} repeat} bdef
/PDlw -1 def
/W {/PDlw currentlinewidth def setlinewidth} def
/PP {closepath eofill} bdef
/DP {closepath stroke} bdef
/MR {4 -2 roll moveto dup  0 exch rlineto exch 0 rlineto
  neg 0 exch rlineto closepath} bdef
/FR {MR stroke} bdef
/PR {MR fill} bdef
/L1i {{currentfile picstr readhexstring pop} image} bdef
/tMatrix matrix def
/MakeOval {newpath tMatrix currentmatrix pop translate scale
0 0 1 0 360 arc tMatrix setmatrix} bdef
/FO {MakeOval stroke} bdef
/PO {MakeOval fill} bdef
/PD {currentlinewidth 2 div 0 360 arc fill
   PDlw -1 eq not {PDlw w /PDlw -1 def} if} def
/FA {newpath tMatrix currentmatrix pop translate scale
  0 0 1 5 -2 roll arc tMatrix setmatrix stroke} bdef
/PA {newpath tMatrix currentmatrix pop	translate 0 0 moveto scale
  0 0 1 5 -2 roll arc closepath tMatrix setmatrix fill} bdef
/FAn {newpath tMatrix currentmatrix pop translate scale
  0 0 1 5 -2 roll arcn tMatrix setmatrix stroke} bdef
/PAn {newpath tMatrix currentmatrix pop translate 0 0 moveto scale
  0 0 1 5 -2 roll arcn closepath tMatrix setmatrix fill} bdef
/vradius 0 def /hradius 0 def /lry 0 def
/lrx 0 def /uly 0 def /ulx 0 def /rad 0 def
/MRR {/vradius xdef /hradius xdef /lry xdef /lrx xdef /uly xdef
  /ulx xdef newpath tMatrix currentmatrix pop ulx hradius add uly
  vradius add translate hradius vradius scale 0 0 1 180 270 arc 
  tMatrix setmatrix lrx hradius sub uly vradius add translate
  hradius vradius scale 0 0 1 270 360 arc tMatrix setmatrix
  lrx hradius sub lry vradius sub translate hradius vradius scale
  0 0 1 0 90 arc tMatrix setmatrix ulx hradius add lry vradius sub
  translate hradius vradius scale 0 0 1 90 180 arc tMatrix setmatrix
  closepath} bdef
/FRR {MRR stroke } bdef
/PRR {MRR fill } bdef
/MlrRR {/lry xdef /lrx xdef /uly xdef /ulx xdef /rad lry uly sub 2 div def
  newpath tMatrix currentmatrix pop ulx rad add uly rad add translate
  rad rad scale 0 0 1 90 270 arc tMatrix setmatrix lrx rad sub lry rad
  sub translate rad rad scale 0 0 1 270 90 arc tMatrix setmatrix
  closepath} bdef
/FlrRR {MlrRR stroke } bdef
/PlrRR {MlrRR fill } bdef
/MtbRR {/lry xdef /lrx xdef /uly xdef /ulx xdef /rad lrx ulx sub 2 div def
  newpath tMatrix currentmatrix pop ulx rad add uly rad add translate
  rad rad scale 0 0 1 180 360 arc tMatrix setmatrix lrx rad sub lry rad
  sub translate rad rad scale 0 0 1 0 180 arc tMatrix setmatrix
  closepath} bdef
/FtbRR {MtbRR stroke } bdef
/PtbRR {MtbRR fill } bdef
/stri 6 array def /dtri 6 array def
/smat 6 array def /dmat 6 array def
/tmat1 6 array def /tmat2 6 array def /dif 3 array def
/asub {/ind2 exch def /ind1 exch def dup dup
  ind1 get exch ind2 get sub exch } bdef
/tri_to_matrix {
  2 0 asub 3 1 asub 4 0 asub 5 1 asub
  dup 0 get exch 1 get 7 -1 roll astore } bdef
/compute_transform {
  dmat dtri tri_to_matrix tmat1 invertmatrix 
  smat stri tri_to_matrix tmat2 concatmatrix } bdef
/ds {stri astore pop} bdef
/dt {dtri astore pop} bdef
/db {2 copy /cols xdef /rows xdef mul dup 3 mul string
  currentfile 
  3 index 0 eq {/ASCIIHexDecode filter}
  {/ASCII85Decode filter 3 index 2 eq {/RunLengthDecode filter} if }
  ifelse exch readstring pop
  dup 0 3 index getinterval /rbmap xdef
  dup 2 index dup getinterval /gbmap xdef
  1 index dup 2 mul exch getinterval /bbmap xdef pop pop}bdef
/it {gs np dtri aload pop moveto lineto lineto cp c
  cols rows 8 compute_transform 
  rbmap gbmap bbmap true 3 colorimage gr}bdef
/il {newpath moveto lineto stroke}bdef
currentdict end def
%%EndProlog

%%BeginSetup
MathWorks begin

0 cap

end
%%EndSetup

%%Page: 1 1
%%BeginPageSetup
%%PageBoundingBox:  -278   155   874   685
MathWorks begin
bpage
%%EndPageSetup

%%BeginObject: obj1
bplot

/dpi2point 12 def
portraitMode -3336 8220 csm

    0     0 13835  6357 rc
116 dict begin %Colortable dictionary
/c0 { 0.000000 0.000000 0.000000 sr} bdef
/c1 { 1.000000 1.000000 1.000000 sr} bdef
/c2 { 0.900000 0.000000 0.000000 sr} bdef
/c3 { 0.000000 0.820000 0.000000 sr} bdef
/c4 { 0.000000 0.000000 0.800000 sr} bdef
/c5 { 0.910000 0.820000 0.320000 sr} bdef
/c6 { 1.000000 0.260000 0.820000 sr} bdef
/c7 { 0.000000 0.820000 0.820000 sr} bdef
c0
1 j
1 sg
   0    0 13836 6358 rf
6 w
0 sg
%%IncludeResource: font Helvetica-Bold
/Helvetica-Bold /WindowsLatin1Encoding 216 FMSR

2112  452 mt 
(TRANCEIVER PARAMETER TUNING PLOT WITH PRE-EMPHASIS 1st PRE-\
TAP VARIATION) s
gs 5502 477 3316 5182 rc
2072 0 6745 3067 2 MP stroke
-1036 -1795 6745 3067 2 MP stroke
-1036 1795 6745 3067 2 MP stroke
0 -104 7263 3119 2 MP stroke
0 -104 7781 3119 2 MP stroke
0 -104 8299 3119 2 MP stroke
0 -104 8817 3119 2 MP stroke
gr

%%IncludeResource: font Helvetica-Bold
/Helvetica-Bold /WindowsLatin1Encoding 120 FMSR

7263 3318 mt 
(-14) s
7781 3318 mt 
(-4) s
8299 3318 mt 
(6) s
8817 3318 mt 
(16) s
%%IncludeResource: font Helvetica-Bold
/Helvetica-Bold /WindowsLatin1Encoding 168 FMSR

9025 3029 mt 
(Pre-emphasis 1st Pre-Tap) s
9025 3228 mt 
(                        ) s
gs 5502 477 3316 5182 rc
-90 52 6531 2592 2 MP stroke
-90 52 6272 2144 2 MP stroke
-90 52 6013 1695 2 MP stroke
-90 52 5754 1246 2 MP stroke
gr

%%IncludeResource: font Helvetica-Bold
/Helvetica-Bold /WindowsLatin1Encoding 120 FMSR

6531 2680 mt 
(14.75) s
6406 2110 mt 
(29.5) s
6161 1607 mt 
(44.25) s
5888 1213 mt 
(59) s
%%IncludeResource: font Helvetica-Bold
/Helvetica-Bold /WindowsLatin1Encoding 168 FMSR

4846 1067 mt 
(Eye Width) s
5222 1266 mt 
(         ) s
gs 5502 477 3316 5182 rc
90 52 6441 3490 2 MP stroke
90 52 6182 3938 2 MP stroke
90 52 5923 4387 2 MP stroke
90 52 5664 4836 2 MP stroke
gr

%%IncludeResource: font Helvetica-Bold
/Helvetica-Bold /WindowsLatin1Encoding 120 FMSR

6268 3454 mt 
(2.5) s
6095 3903 mt 
(5) s
5775 4342 mt 
(7.5) s
5500 4782 mt 
(10) s
%%IncludeResource: font Helvetica-Bold
/Helvetica-Bold /WindowsLatin1Encoding 168 FMSR

4864 5043 mt 
(Eye Height) s
5263 5242 mt 
(          ) s
gs 5502 477 3316 5182 rc
18 w
1451 -1795 -123 3377 -1328 -1582 7160 3067 4 MP stroke
/c8 { 0.000000 0.000000 0.187500 sr} bdef
c8
1502 -1795 -105 3407 -1397 -1612 7211 3067 4 MP stroke
/c9 { 0.000000 0.000000 0.375000 sr} bdef
c9
1554 -1795 -88 3438 -1466 -1643 7263 3067 4 MP stroke
/c10 { 0.000000 0.000000 0.562500 sr} bdef
c10
1606 -1795 -70 3468 -1536 -1673 7315 3067 4 MP stroke
/c11 { 0.000000 0.000000 0.750000 sr} bdef
c11
1658 -1795 -35 3529 -1623 -1734 7367 3067 4 MP stroke
/c12 { 0.000000 0.000000 0.937500 sr} bdef
c12
1710 -1795 -53 3498 -1657 -1703 7419 3067 4 MP stroke
/c13 { 0.000000 0.125000 1.000000 sr} bdef
c13
1761 -1795 -35 3529 -1726 -1734 7470 3067 4 MP stroke
/c14 { 0.000000 0.312500 1.000000 sr} bdef
c14
1813 -1795 -35 3529 -1778 -1734 7522 3067 4 MP stroke
/c15 { 0.000000 0.500000 1.000000 sr} bdef
c15
1865 -1795 -35 3529 -1830 -1734 7574 3067 4 MP stroke
/c16 { 0.000000 0.687500 1.000000 sr} bdef
c16
1917 -1795 -35 3529 -1882 -1734 7626 3067 4 MP stroke
/c17 { 0.000000 0.875000 1.000000 sr} bdef
c17
1969 -1795 -35 3529 -1934 -1734 7678 3067 4 MP stroke
/c18 { 0.000000 1.000000 0.937500 sr} bdef
c18
2020 -1795 -35 3529 -1985 -1734 7729 3067 4 MP stroke
/c19 { 0.000000 1.000000 0.750000 sr} bdef
c19
2072 -1795 -17 3559 -2055 -1764 7781 3067 4 MP stroke
/c20 { 0.000000 1.000000 0.562500 sr} bdef
c20
2124 -1795 0 3590 -2124 -1795 7833 3067 4 MP stroke
/c21 { 0.000000 1.000000 0.375000 sr} bdef
c21
2176 -1795 0 3590 -2176 -1795 7885 3067 4 MP stroke
/c22 { 0.000000 1.000000 0.187500 sr} bdef
c22
2228 -1795 -17 3559 -2211 -1764 7937 3067 4 MP stroke
/c23 { 0.000000 1.000000 0.000000 sr} bdef
c23
2279 -1795 -17 3559 -2262 -1764 7988 3067 4 MP stroke
/c24 { 0.187500 1.000000 0.000000 sr} bdef
c24
2331 -1795 0 3590 -2331 -1795 8040 3067 4 MP stroke
/c25 { 0.375000 1.000000 0.000000 sr} bdef
c25
2383 -1795 -17 3559 -2366 -1764 8092 3067 4 MP stroke
/c26 { 0.562500 1.000000 0.000000 sr} bdef
c26
2435 -1795 -17 3559 -2418 -1764 8144 3067 4 MP stroke
/c27 { 0.750000 1.000000 0.000000 sr} bdef
c27
2487 -1795 -53 3498 -2434 -1703 8196 3067 4 MP stroke
/c28 { 0.937500 1.000000 0.000000 sr} bdef
c28
2539 -1795 -53 3498 -2486 -1703 8248 3067 4 MP stroke
/c29 { 1.000000 0.875000 0.125000 sr} bdef
c29
2590 -1795 -53 3498 -2537 -1703 8299 3067 4 MP stroke
/c30 { 1.000000 0.687500 0.312500 sr} bdef
c30
2642 -1795 -70 3468 -2572 -1673 8351 3067 4 MP stroke
/c31 { 1.000000 0.500000 0.500000 sr} bdef
c31
2694 -1795 -70 3468 -2624 -1673 8403 3067 4 MP stroke
/c32 { 1.000000 0.312500 0.687500 sr} bdef
c32
2746 -1795 -105 3407 -2641 -1612 8455 3067 4 MP stroke
/c33 { 1.000000 0.125000 0.875000 sr} bdef
c33
2798 -1795 -70 3468 -2728 -1673 8507 3067 4 MP stroke
/c34 { 1.000000 0.000000 0.937500 sr} bdef
c34
2849 -1795 -70 3468 -2779 -1673 8558 3067 4 MP stroke
/c35 { 1.000000 0.000000 0.750000 sr} bdef
c35
2901 -1795 -123 3377 -2778 -1582 8610 3067 4 MP stroke
/c36 { 1.000000 0.000000 0.562500 sr} bdef
c36
2953 -1795 -123 3377 -2830 -1582 8662 3067 4 MP stroke
/c37 { 1.000000 0.000000 0.375000 sr} bdef
c37
3005 -1795 -105 3407 -2900 -1612 8714 3067 4 MP stroke
/c38 { 1.000000 0.000000 0.187500 sr} bdef
c38
3057 -1795 -123 3377 -2934 -1582 8766 3067 4 MP stroke
/c39 { 1.000000 0.000000 0.000000 sr} bdef
c39
3108 -1795 -175 3286 -2933 -1491 8817 3067 4 MP stroke
gr

18 w
c39
0 sg
%%IncludeResource: font Helvetica
/Helvetica /WindowsLatin1Encoding 120 FMSR

5473 5716 mt 
( ) s
8789  534 mt 
( ) s
6 w
1 sg
0 5586 2545 0 0 -5586 2029 6137 4 MP
PP
-2545 0 0 5586 2545 0 0 -5586 2029 6137 5 MP stroke
4 w
DO
SO
6 w
0 sg
2029  551 mt 4574  551 L
2029 6137 mt 4574 6137 L
4574 6137 mt 4574  551 L
2029 6137 mt 2029  551 L
2029 6137 mt 4574 6137 L
2029 6137 mt 2029  551 L
2029  551 mt 4574  551 L
2029 6137 mt 4574 6137 L
4574 6137 mt 4574  551 L
2029 6137 mt 2029  551 L
2514  698 mt 
(PRE-EMPHASIS 1st PRE-TAP = -16) s
gs 2029 551 2546 5587 rc
18 w
373 0 2103 656 2 MP stroke
gr

18 w
2514  866 mt 
(PRE-EMPHASIS 1st PRE-TAP = -15) s
gs 2029 551 2546 5587 rc
c8
373 0 2103 824 2 MP stroke
gr

c8
0 sg
2514 1034 mt 
(PRE-EMPHASIS 1st PRE-TAP = -14) s
gs 2029 551 2546 5587 rc
c9
373 0 2103 992 2 MP stroke
gr

c9
0 sg
2514 1202 mt 
(PRE-EMPHASIS 1st PRE-TAP = -13) s
gs 2029 551 2546 5587 rc
c10
373 0 2103 1160 2 MP stroke
gr

c10
0 sg
2514 1370 mt 
(PRE-EMPHASIS 1st PRE-TAP = -12) s
gs 2029 551 2546 5587 rc
c11
373 0 2103 1328 2 MP stroke
gr

c11
0 sg
2514 1538 mt 
(PRE-EMPHASIS 1st PRE-TAP = -11) s
gs 2029 551 2546 5587 rc
c12
373 0 2103 1496 2 MP stroke
gr

c12
0 sg
2514 1706 mt 
(PRE-EMPHASIS 1st PRE-TAP = -10) s
gs 2029 551 2546 5587 rc
c13
373 0 2103 1664 2 MP stroke
gr

c13
0 sg
2514 1874 mt 
(PRE-EMPHASIS 1st PRE-TAP = -9) s
gs 2029 551 2546 5587 rc
c14
373 0 2103 1832 2 MP stroke
gr

c14
0 sg
2514 2042 mt 
(PRE-EMPHASIS 1st PRE-TAP = -8) s
gs 2029 551 2546 5587 rc
c15
373 0 2103 2000 2 MP stroke
gr

c15
0 sg
2514 2210 mt 
(PRE-EMPHASIS 1st PRE-TAP = -7) s
gs 2029 551 2546 5587 rc
c16
373 0 2103 2168 2 MP stroke
gr

c16
0 sg
2514 2378 mt 
(PRE-EMPHASIS 1st PRE-TAP = -6) s
gs 2029 551 2546 5587 rc
c17
373 0 2103 2336 2 MP stroke
gr

c17
0 sg
2514 2546 mt 
(PRE-EMPHASIS 1st PRE-TAP = -5) s
gs 2029 551 2546 5587 rc
c18
373 0 2103 2504 2 MP stroke
gr

c18
0 sg
2514 2714 mt 
(PRE-EMPHASIS 1st PRE-TAP = -4) s
gs 2029 551 2546 5587 rc
c19
373 0 2103 2672 2 MP stroke
gr

c19
0 sg
2514 2882 mt 
(PRE-EMPHASIS 1st PRE-TAP = -3) s
gs 2029 551 2546 5587 rc
c20
373 0 2103 2840 2 MP stroke
gr

c20
0 sg
2514 3050 mt 
(PRE-EMPHASIS 1st PRE-TAP = -2) s
gs 2029 551 2546 5587 rc
c21
373 0 2103 3008 2 MP stroke
gr

c21
0 sg
2514 3218 mt 
(PRE-EMPHASIS 1st PRE-TAP = -1) s
gs 2029 551 2546 5587 rc
c22
373 0 2103 3176 2 MP stroke
gr

c22
0 sg
2514 3387 mt 
(PRE-EMPHASIS 1st PRE-TAP = 0) s
gs 2029 551 2546 5587 rc
c23
373 0 2103 3344 2 MP stroke
gr

c23
0 sg
2514 3555 mt 
(PRE-EMPHASIS 1st PRE-TAP = 1) s
gs 2029 551 2546 5587 rc
c24
373 0 2103 3512 2 MP stroke
gr

c24
0 sg
2514 3723 mt 
(PRE-EMPHASIS 1st PRE-TAP = 2) s
gs 2029 551 2546 5587 rc
c25
373 0 2103 3680 2 MP stroke
gr

c25
0 sg
2514 3891 mt 
(PRE-EMPHASIS 1st PRE-TAP = 3) s
gs 2029 551 2546 5587 rc
c26
373 0 2103 3848 2 MP stroke
gr

c26
0 sg
2514 4059 mt 
(PRE-EMPHASIS 1st PRE-TAP = 4) s
gs 2029 551 2546 5587 rc
c27
373 0 2103 4016 2 MP stroke
gr

c27
0 sg
2514 4227 mt 
(PRE-EMPHASIS 1st PRE-TAP = 5) s
gs 2029 551 2546 5587 rc
c28
373 0 2103 4184 2 MP stroke
gr

c28
0 sg
2514 4395 mt 
(PRE-EMPHASIS 1st PRE-TAP = 6) s
gs 2029 551 2546 5587 rc
c29
373 0 2103 4352 2 MP stroke
gr

c29
0 sg
2514 4563 mt 
(PRE-EMPHASIS 1st PRE-TAP = 7) s
gs 2029 551 2546 5587 rc
c30
373 0 2103 4520 2 MP stroke
gr

c30
0 sg
2514 4731 mt 
(PRE-EMPHASIS 1st PRE-TAP = 8) s
gs 2029 551 2546 5587 rc
c31
373 0 2103 4688 2 MP stroke
gr

c31
0 sg
2514 4899 mt 
(PRE-EMPHASIS 1st PRE-TAP = 9) s
gs 2029 551 2546 5587 rc
c32
373 0 2103 4856 2 MP stroke
gr

c32
0 sg
2514 5067 mt 
(PRE-EMPHASIS 1st PRE-TAP = 10) s
gs 2029 551 2546 5587 rc
c33
373 0 2103 5024 2 MP stroke
gr

c33
0 sg
2514 5235 mt 
(PRE-EMPHASIS 1st PRE-TAP = 11) s
gs 2029 551 2546 5587 rc
c34
373 0 2103 5192 2 MP stroke
gr

c34
0 sg
2514 5403 mt 
(PRE-EMPHASIS 1st PRE-TAP = 12) s
gs 2029 551 2546 5587 rc
c35
373 0 2103 5360 2 MP stroke
gr

c35
0 sg
2514 5571 mt 
(PRE-EMPHASIS 1st PRE-TAP = 13) s
gs 2029 551 2546 5587 rc
c36
373 0 2103 5528 2 MP stroke
gr

c36
0 sg
2514 5739 mt 
(PRE-EMPHASIS 1st PRE-TAP = 14) s
gs 2029 551 2546 5587 rc
c37
373 0 2103 5696 2 MP stroke
gr

c37
0 sg
2514 5907 mt 
(PRE-EMPHASIS 1st PRE-TAP = 15) s
gs 2029 551 2546 5587 rc
c38
373 0 2103 5864 2 MP stroke
gr

c38
0 sg
2514 6075 mt 
(PRE-EMPHASIS 1st PRE-TAP = 16) s
gs 2029 551 2546 5587 rc
c39
373 0 2103 6032 2 MP stroke
6 w
gr

6 w
c39

end %%Color Dict

eplot
%%EndObject

epage
end

showpage

%%Trailer
%%EOF
