%!PS-Adobe-3.0 EPSF-3.0
%%Creator: MATLAB, The MathWorks, Inc. Version 8.0.0.783 (R2012b). Operating System: Microsoft Windows 7.
%%Title: C:\MyWorkplace\researchWork\GBT\GBT_BER_WORK\RESULTS\pre_emphasis_1st_post_tap.eps
%%CreationDate: 05/02/2017  22:08:20
%%DocumentNeededFonts: Helvetica
%%+ Helvetica-Bold
%%DocumentProcessColors: Cyan Magenta Yellow Black
%%LanguageLevel: 2
%%Pages: 1
%%BoundingBox:  -264   145   861   696
%%EndComments

%%BeginProlog
% MathWorks dictionary
/MathWorks 160 dict begin
% definition operators
/bdef {bind def} bind def
/ldef {load def} bind def
/xdef {exch def} bdef
/xstore {exch store} bdef
% operator abbreviations
/c  /clip ldef
/cc /concat ldef
/cp /closepath ldef
/gr /grestore ldef
/gs /gsave ldef
/mt /moveto ldef
/np /newpath ldef
/cm /currentmatrix ldef
/sm /setmatrix ldef
/rm /rmoveto ldef
/rl /rlineto ldef
/s {show newpath} bdef
/sc {setcmykcolor} bdef
/sr /setrgbcolor ldef
/sg /setgray ldef
/w /setlinewidth ldef
/j /setlinejoin ldef
/cap /setlinecap ldef
/rc {rectclip} bdef
/rf {rectfill} bdef
% page state control
/pgsv () def
/bpage {/pgsv save def} bdef
/epage {pgsv restore} bdef
/bplot /gsave ldef
/eplot {stroke grestore} bdef
% orientation switch
/portraitMode 0 def /landscapeMode 1 def /rotateMode 2 def
% coordinate system mappings
/dpi2point 0 def
% font control
/FontSize 0 def
/FMS {/FontSize xstore findfont [FontSize 0 0 FontSize neg 0 0]
  makefont setfont} bdef
/ISOLatin1Encoding where {pop /WindowsLatin1Encoding 256 array bdef
ISOLatin1Encoding WindowsLatin1Encoding copy pop
/.notdef/.notdef/quotesinglbase/florin/quotedblbase/ellipsis/dagger
/daggerdbl/circumflex/perthousand/Scaron/guilsinglleft/OE/.notdef/.notdef
/.notdef/.notdef/quoteleft/quoteright/quotedblleft/quotedblright/bullet
/endash/emdash/tilde/trademark/scaron/guilsinglright/oe/.notdef/.notdef
/Ydieresis WindowsLatin1Encoding 128 32 getinterval astore pop}
{/WindowsLatin1Encoding StandardEncoding bdef} ifelse
/reencode {exch dup where {pop load} {pop StandardEncoding} ifelse
  exch dup 3 1 roll findfont dup length dict begin
  { 1 index /FID ne {def}{pop pop} ifelse } forall
  /Encoding exch def currentdict end definefont pop} bdef
/isroman {findfont /CharStrings get /Agrave known} bdef
/FMSR {3 1 roll 1 index dup isroman {reencode} {pop pop} ifelse
  exch FMS} bdef
/csm {1 dpi2point div -1 dpi2point div scale neg translate
 dup landscapeMode eq {pop -90 rotate}
  {rotateMode eq {90 rotate} if} ifelse} bdef
% line types: solid, dotted, dashed, dotdash
/SO { [] 0 setdash } bdef
/DO { [.5 dpi2point mul 4 dpi2point mul] 0 setdash } bdef
/DA { [6 dpi2point mul] 0 setdash } bdef
/DD { [.5 dpi2point mul 4 dpi2point mul 6 dpi2point mul 4
  dpi2point mul] 0 setdash } bdef
% macros for lines and objects
/L {lineto stroke} bdef
/MP {3 1 roll moveto 1 sub {rlineto} repeat} bdef
/AP {{rlineto} repeat} bdef
/PDlw -1 def
/W {/PDlw currentlinewidth def setlinewidth} def
/PP {closepath eofill} bdef
/DP {closepath stroke} bdef
/MR {4 -2 roll moveto dup  0 exch rlineto exch 0 rlineto
  neg 0 exch rlineto closepath} bdef
/FR {MR stroke} bdef
/PR {MR fill} bdef
/L1i {{currentfile picstr readhexstring pop} image} bdef
/tMatrix matrix def
/MakeOval {newpath tMatrix currentmatrix pop translate scale
0 0 1 0 360 arc tMatrix setmatrix} bdef
/FO {MakeOval stroke} bdef
/PO {MakeOval fill} bdef
/PD {currentlinewidth 2 div 0 360 arc fill
   PDlw -1 eq not {PDlw w /PDlw -1 def} if} def
/FA {newpath tMatrix currentmatrix pop translate scale
  0 0 1 5 -2 roll arc tMatrix setmatrix stroke} bdef
/PA {newpath tMatrix currentmatrix pop	translate 0 0 moveto scale
  0 0 1 5 -2 roll arc closepath tMatrix setmatrix fill} bdef
/FAn {newpath tMatrix currentmatrix pop translate scale
  0 0 1 5 -2 roll arcn tMatrix setmatrix stroke} bdef
/PAn {newpath tMatrix currentmatrix pop translate 0 0 moveto scale
  0 0 1 5 -2 roll arcn closepath tMatrix setmatrix fill} bdef
/vradius 0 def /hradius 0 def /lry 0 def
/lrx 0 def /uly 0 def /ulx 0 def /rad 0 def
/MRR {/vradius xdef /hradius xdef /lry xdef /lrx xdef /uly xdef
  /ulx xdef newpath tMatrix currentmatrix pop ulx hradius add uly
  vradius add translate hradius vradius scale 0 0 1 180 270 arc 
  tMatrix setmatrix lrx hradius sub uly vradius add translate
  hradius vradius scale 0 0 1 270 360 arc tMatrix setmatrix
  lrx hradius sub lry vradius sub translate hradius vradius scale
  0 0 1 0 90 arc tMatrix setmatrix ulx hradius add lry vradius sub
  translate hradius vradius scale 0 0 1 90 180 arc tMatrix setmatrix
  closepath} bdef
/FRR {MRR stroke } bdef
/PRR {MRR fill } bdef
/MlrRR {/lry xdef /lrx xdef /uly xdef /ulx xdef /rad lry uly sub 2 div def
  newpath tMatrix currentmatrix pop ulx rad add uly rad add translate
  rad rad scale 0 0 1 90 270 arc tMatrix setmatrix lrx rad sub lry rad
  sub translate rad rad scale 0 0 1 270 90 arc tMatrix setmatrix
  closepath} bdef
/FlrRR {MlrRR stroke } bdef
/PlrRR {MlrRR fill } bdef
/MtbRR {/lry xdef /lrx xdef /uly xdef /ulx xdef /rad lrx ulx sub 2 div def
  newpath tMatrix currentmatrix pop ulx rad add uly rad add translate
  rad rad scale 0 0 1 180 360 arc tMatrix setmatrix lrx rad sub lry rad
  sub translate rad rad scale 0 0 1 0 180 arc tMatrix setmatrix
  closepath} bdef
/FtbRR {MtbRR stroke } bdef
/PtbRR {MtbRR fill } bdef
/stri 6 array def /dtri 6 array def
/smat 6 array def /dmat 6 array def
/tmat1 6 array def /tmat2 6 array def /dif 3 array def
/asub {/ind2 exch def /ind1 exch def dup dup
  ind1 get exch ind2 get sub exch } bdef
/tri_to_matrix {
  2 0 asub 3 1 asub 4 0 asub 5 1 asub
  dup 0 get exch 1 get 7 -1 roll astore } bdef
/compute_transform {
  dmat dtri tri_to_matrix tmat1 invertmatrix 
  smat stri tri_to_matrix tmat2 concatmatrix } bdef
/ds {stri astore pop} bdef
/dt {dtri astore pop} bdef
/db {2 copy /cols xdef /rows xdef mul dup 3 mul string
  currentfile 
  3 index 0 eq {/ASCIIHexDecode filter}
  {/ASCII85Decode filter 3 index 2 eq {/RunLengthDecode filter} if }
  ifelse exch readstring pop
  dup 0 3 index getinterval /rbmap xdef
  dup 2 index dup getinterval /gbmap xdef
  1 index dup 2 mul exch getinterval /bbmap xdef pop pop}bdef
/it {gs np dtri aload pop moveto lineto lineto cp c
  cols rows 8 compute_transform 
  rbmap gbmap bbmap true 3 colorimage gr}bdef
/il {newpath moveto lineto stroke}bdef
currentdict end def
%%EndProlog

%%BeginSetup
MathWorks begin

0 cap

end
%%EndSetup

%%Page: 1 1
%%BeginPageSetup
%%PageBoundingBox:  -264   145   861   696
MathWorks begin
bpage
%%EndPageSetup

%%BeginObject: obj1
bplot

/dpi2point 12 def
portraitMode -3168 8352 csm

    0     0 13502  6609 rc
123 dict begin %Colortable dictionary
/c0 { 0.000000 0.000000 0.000000 sr} bdef
/c1 { 1.000000 1.000000 1.000000 sr} bdef
/c2 { 0.900000 0.000000 0.000000 sr} bdef
/c3 { 0.000000 0.820000 0.000000 sr} bdef
/c4 { 0.000000 0.000000 0.800000 sr} bdef
/c5 { 0.910000 0.820000 0.320000 sr} bdef
/c6 { 1.000000 0.260000 0.820000 sr} bdef
/c7 { 0.000000 0.820000 0.820000 sr} bdef
c0
1 j
1 sg
   0    0 13503 6610 rf
6 w
gs 5263 496 3448 5387 rc
0 sg
2154 0 6556 3189 2 MP stroke
-1078 -1866 6556 3189 2 MP stroke
-1078 1865 6556 3189 2 MP stroke
0 -107 7094 3242 2 MP stroke
0 -107 7633 3242 2 MP stroke
0 -107 8171 3242 2 MP stroke
0 -107 8710 3242 2 MP stroke
gr

0 sg
%%IncludeResource: font Helvetica-Bold
/Helvetica-Bold /WindowsLatin1Encoding 120 FMSR

7094 3448 mt 
(-16.56) s
7633 3448 mt 
(-4.38) s
8171 3448 mt 
(7.81) s
8710 3448 mt 
(20) s
%%IncludeResource: font Helvetica-Bold
/Helvetica-Bold /WindowsLatin1Encoding 168 FMSR

8925 3151 mt 
(Pre-emphasis 1st Post-Tap) s
8925 3350 mt 
(                         ) s
gs 5263 496 3448 5387 rc
-93 54 6333 2695 2 MP stroke
-94 54 6064 2229 2 MP stroke
-93 54 5794 1762 2 MP stroke
-93 54 5525 1296 2 MP stroke
gr

%%IncludeResource: font Helvetica-Bold
/Helvetica-Bold /WindowsLatin1Encoding 120 FMSR

6473 2658 mt 
(15.75) s
6204 2192 mt 
(31.5) s
5934 1725 mt 
(47.25) s
5665 1259 mt 
(63) s
%%IncludeResource: font Helvetica-Bold
/Helvetica-Bold /WindowsLatin1Encoding 168 FMSR

4575 1098 mt 
(Eye Width) s
4951 1297 mt 
(         ) s
gs 5263 496 3448 5387 rc
93 54 6240 3628 2 MP stroke
94 54 5970 4094 2 MP stroke
93 54 5701 4561 2 MP stroke
93 54 5432 5027 2 MP stroke
gr

%%IncludeResource: font Helvetica-Bold
/Helvetica-Bold /WindowsLatin1Encoding 120 FMSR

5867 3591 mt 
(2.75) s
5664 4058 mt 
(5.5) s
5328 4524 mt 
(8.25) s
5159 4991 mt 
(11) s
%%IncludeResource: font Helvetica-Bold
/Helvetica-Bold /WindowsLatin1Encoding 168 FMSR

4567 5263 mt 
(Eye Height) s
4966 5462 mt 
(          ) s
gs 5263 496 3448 5387 rc
18 w
1509 -1865 -52 3642 -1457 -1777 6987 3189 4 MP stroke
/c8 { 0.000000 0.000000 0.153846 sr} bdef
c8
1455 -1696 63 3503 -1518 -1807 7031 3189 4 MP stroke
/c9 { 0.000000 0.000000 0.307692 sr} bdef
c9
1499 -1696 63 3503 -1562 -1807 7075 3189 4 MP stroke
/c10 { 0.000000 0.000000 0.461538 sr} bdef
c10
1641 -1865 -35 3672 -1606 -1807 7119 3189 4 MP stroke
/c11 { 0.000000 0.000000 0.615385 sr} bdef
c11
1587 -1696 80 3533 -1667 -1837 7163 3189 4 MP stroke
/c12 { 0.000000 0.000000 0.769231 sr} bdef
c12
1631 -1696 80 3533 -1711 -1837 7207 3189 4 MP stroke
/c13 { 0.000000 0.000000 0.923077 sr} bdef
c13
1676 -1696 98 3562 -1774 -1866 7252 3189 4 MP stroke
/c14 { 0.000000 0.076923 1.000000 sr} bdef
c14
1720 -1696 98 3562 -1818 -1866 7296 3189 4 MP stroke
/c15 { 0.000000 0.230769 1.000000 sr} bdef
c15
1764 -1696 80 3533 -1844 -1837 7340 3189 4 MP stroke
/c16 { 0.000000 0.384615 1.000000 sr} bdef
c16
1808 -1696 80 3533 -1888 -1837 7384 3189 4 MP stroke
/c17 { 0.000000 0.538462 1.000000 sr} bdef
c17
1852 -1696 80 3533 -1932 -1837 7428 3189 4 MP stroke
/c18 { 0.000000 0.692308 1.000000 sr} bdef
c18
1897 -1696 80 3533 -1977 -1837 7473 3189 4 MP stroke
/c19 { 0.000000 0.846154 1.000000 sr} bdef
c19
1941 -1696 80 3533 -2021 -1837 7517 3189 4 MP stroke
/c20 { 0.000000 1.000000 1.000000 sr} bdef
c20
1985 -1696 80 3533 -2065 -1837 7561 3189 4 MP stroke
/c21 { 0.000000 1.000000 0.846154 sr} bdef
c21
2029 -1696 63 3503 -2092 -1807 7605 3189 4 MP stroke
/c22 { 0.000000 1.000000 0.692308 sr} bdef
c22
2073 -1696 46 3473 -2119 -1777 7649 3189 4 MP stroke
/c23 { 0.000000 1.000000 0.538462 sr} bdef
c23
2118 -1696 46 3473 -2164 -1777 7694 3189 4 MP stroke
/c24 { 0.000000 1.000000 0.384615 sr} bdef
c24
2162 -1696 46 3473 -2208 -1777 7738 3189 4 MP stroke
/c25 { 0.000000 1.000000 0.230769 sr} bdef
c25
2206 -1696 29 3444 -2235 -1748 7782 3189 4 MP stroke
/c26 { 0.000000 1.000000 0.076923 sr} bdef
c26
2250 -1696 12 3414 -2262 -1718 7826 3189 4 MP stroke
/c27 { 0.076923 1.000000 0.000000 sr} bdef
c27
2294 -1696 -5 3385 -2289 -1689 7870 3189 4 MP stroke
/c28 { 0.230769 1.000000 0.000000 sr} bdef
c28
2339 -1696 -5 3385 -2334 -1689 7915 3189 4 MP stroke
/c29 { 0.384615 1.000000 0.000000 sr} bdef
c29
2383 -1696 -5 3385 -2378 -1689 7959 3189 4 MP stroke
/c30 { 0.538462 1.000000 0.000000 sr} bdef
c30
2427 -1696 -56 3296 -2371 -1600 8003 3189 4 MP stroke
/c31 { 0.692308 1.000000 0.000000 sr} bdef
c31
2471 -1696 -39 3325 -2432 -1629 8047 3189 4 MP stroke
/c32 { 0.846154 1.000000 0.000000 sr} bdef
c32
2515 -1696 -91 3236 -2424 -1540 8091 3189 4 MP stroke
/c33 { 1.000000 1.000000 0.000000 sr} bdef
c33
2560 -1696 -159 3118 -2401 -1422 8136 3189 4 MP stroke
/c34 { 1.000000 0.846154 0.153846 sr} bdef
c34
2604 -1696 -193 3059 -2411 -1363 8180 3189 4 MP stroke
/c35 { 1.000000 0.692308 0.307692 sr} bdef
c35
2648 -1696 -296 2881 -2352 -1185 8224 3189 4 MP stroke
/c36 { 1.000000 0.538462 0.461538 sr} bdef
c36
2692 -1696 -364 2763 -2328 -1067 8268 3189 4 MP stroke
/c37 { 1.000000 0.384615 0.615385 sr} bdef
c37
2736 -1696 -484 2555 -2252 -859 8312 3189 4 MP stroke
/c38 { 1.000000 0.230769 0.769231 sr} bdef
c38
2780 -1696 -535 2466 -2245 -770 8356 3189 4 MP stroke
/c39 { 1.000000 0.076923 0.923077 sr} bdef
c39
2825 -1696 -655 2259 -2170 -563 8401 3189 4 MP stroke
/c40 { 1.000000 0.000000 0.923077 sr} bdef
c40
2673 -1356 -476 1890 -2197 -534 8445 3189 4 MP stroke
/c41 { 1.000000 0.000000 0.769231 sr} bdef
c41
2717 -1356 -544 1771 -2173 -415 8489 3189 4 MP stroke
/c42 { 1.000000 0.000000 0.615385 sr} bdef
c42
2663 -1187 -549 1424 -2114 -237 8533 3189 4 MP stroke
/c43 { 1.000000 0.000000 0.461538 sr} bdef
c43
2609 -1017 -485 1195 -2124 -178 8577 3189 4 MP stroke
/c44 { 1.000000 0.000000 0.307692 sr} bdef
c44
2556 -848 -404 997 -2152 -149 8622 3189 4 MP stroke
/c45 { 1.000000 0.000000 0.153846 sr} bdef
c45
2306 -339 -144 428 -2162 -89 8666 3189 4 MP stroke
/c46 { 1.000000 0.000000 0.000000 sr} bdef
c46
2252 -169 -63 229 -2189 -60 8710 3189 4 MP stroke
gr

18 w
c46
0 sg
%%IncludeResource: font Helvetica
/Helvetica /WindowsLatin1Encoding 120 FMSR

5227 5953 mt 
( ) s
8675  566 mt 
( ) s
6 w
1 sg
0 6762 2625 0 0 -6762 1791 6783 4 MP
PP
-2625 0 0 6762 2625 0 0 -6762 1791 6783 5 MP stroke
4 w
DO
SO
6 w
0 sg
1791   21 mt 4416   21 L
1791 6783 mt 4416 6783 L
4416 6783 mt 4416   21 L
1791 6783 mt 1791   21 L
1791 6783 mt 4416 6783 L
1791 6783 mt 1791   21 L
1791   21 mt 4416   21 L
1791 6783 mt 4416 6783 L
4416 6783 mt 4416   21 L
1791 6783 mt 1791   21 L
2277  168 mt 
(PRE-EMPHASIS 1st POST-TAP = -19) s
18 w
374 0 1865 126 2 MP stroke
2277  336 mt 
(PRE-EMPHASIS 1st POST-TAP = -18) s
c8
374 0 1865 293 2 MP stroke
0 sg
2277  504 mt 
(PRE-EMPHASIS 1st POST-TAP = -17) s
c9
374 0 1865 461 2 MP stroke
0 sg
2277  672 mt 
(PRE-EMPHASIS 1st POST-TAP = -16) s
c10
374 0 1865 629 2 MP stroke
0 sg
2277  840 mt 
(PRE-EMPHASIS 1st POST-TAP = -15) s
c11
374 0 1865 797 2 MP stroke
0 sg
2277 1008 mt 
(PRE-EMPHASIS 1st POST-TAP = -14) s
c12
374 0 1865 965 2 MP stroke
0 sg
2277 1176 mt 
(PRE-EMPHASIS 1st POST-TAP = -13) s
c13
374 0 1865 1133 2 MP stroke
0 sg
2277 1344 mt 
(PRE-EMPHASIS 1st POST-TAP = -12) s
c14
374 0 1865 1301 2 MP stroke
0 sg
2277 1512 mt 
(PRE-EMPHASIS 1st POST-TAP = -11) s
c15
374 0 1865 1469 2 MP stroke
0 sg
2277 1680 mt 
(PRE-EMPHASIS 1st POST-TAP = -10) s
c16
374 0 1865 1637 2 MP stroke
0 sg
2277 1848 mt 
(PRE-EMPHASIS 1st POST-TAP = -9) s
c17
374 0 1865 1805 2 MP stroke
0 sg
2277 2016 mt 
(PRE-EMPHASIS 1st POST-TAP = -8) s
c18
374 0 1865 1973 2 MP stroke
0 sg
2277 2184 mt 
(PRE-EMPHASIS 1st POST-TAP = -7) s
c19
374 0 1865 2141 2 MP stroke
0 sg
2277 2352 mt 
(PRE-EMPHASIS 1st POST-TAP = -6) s
c20
374 0 1865 2309 2 MP stroke
0 sg
2277 2520 mt 
(PRE-EMPHASIS 1st POST-TAP = -5) s
c21
374 0 1865 2477 2 MP stroke
0 sg
2277 2688 mt 
(PRE-EMPHASIS 1st POST-TAP = -4) s
c22
374 0 1865 2645 2 MP stroke
0 sg
2277 2856 mt 
(PRE-EMPHASIS 1st POST-TAP = -3) s
c23
374 0 1865 2813 2 MP stroke
0 sg
2277 3024 mt 
(PRE-EMPHASIS 1st POST-TAP = -2) s
c24
374 0 1865 2981 2 MP stroke
0 sg
2277 3192 mt 
(PRE-EMPHASIS 1st POST-TAP = -1) s
c25
374 0 1865 3149 2 MP stroke
0 sg
2277 3360 mt 
(PRE-EMPHASIS 1st POST-TAP = 0) s
c26
374 0 1865 3317 2 MP stroke
0 sg
2277 3529 mt 
(PRE-EMPHASIS 1st POST-TAP = 1) s
c27
374 0 1865 3485 2 MP stroke
0 sg
2277 3697 mt 
(PRE-EMPHASIS 1st POST-TAP = 2) s
c28
374 0 1865 3653 2 MP stroke
0 sg
2277 3865 mt 
(PRE-EMPHASIS 1st POST-TAP = 3) s
c29
374 0 1865 3821 2 MP stroke
0 sg
2277 4033 mt 
(PRE-EMPHASIS 1st POST-TAP = 4) s
c30
374 0 1865 3989 2 MP stroke
0 sg
2277 4201 mt 
(PRE-EMPHASIS 1st POST-TAP = 5) s
c31
374 0 1865 4157 2 MP stroke
0 sg
2277 4369 mt 
(PRE-EMPHASIS 1st POST-TAP = 6) s
c32
374 0 1865 4325 2 MP stroke
0 sg
2277 4537 mt 
(PRE-EMPHASIS 1st POST-TAP = 7) s
c33
374 0 1865 4493 2 MP stroke
0 sg
2277 4705 mt 
(PRE-EMPHASIS 1st POST-TAP = 8) s
c34
374 0 1865 4661 2 MP stroke
0 sg
2277 4873 mt 
(PRE-EMPHASIS 1st POST-TAP = 9) s
c35
374 0 1865 4829 2 MP stroke
0 sg
2277 5041 mt 
(PRE-EMPHASIS 1st POST-TAP = 10) s
c36
374 0 1865 4997 2 MP stroke
0 sg
2277 5209 mt 
(PRE-EMPHASIS 1st POST-TAP = 11) s
c37
374 0 1865 5165 2 MP stroke
0 sg
2277 5377 mt 
(PRE-EMPHASIS 1st POST-TAP = 12) s
c38
374 0 1865 5333 2 MP stroke
0 sg
2277 5545 mt 
(PRE-EMPHASIS 1st POST-TAP = 13) s
c39
374 0 1865 5501 2 MP stroke
0 sg
2277 5713 mt 
(PRE-EMPHASIS 1st POST-TAP = 14) s
c40
374 0 1865 5669 2 MP stroke
0 sg
2277 5881 mt 
(PRE-EMPHASIS 1st POST-TAP = 15) s
c41
374 0 1865 5837 2 MP stroke
0 sg
2277 6049 mt 
(PRE-EMPHASIS 1st POST-TAP = 16) s
c42
374 0 1865 6005 2 MP stroke
0 sg
2277 6217 mt 
(PRE-EMPHASIS 1st POST-TAP = 17) s
c43
374 0 1865 6173 2 MP stroke
0 sg
2277 6385 mt 
(PRE-EMPHASIS 1st POST-TAP = 18) s
c44
374 0 1865 6341 2 MP stroke
0 sg
2277 6553 mt 
(PRE-EMPHASIS 1st POST-TAP = 19) s
c45
374 0 1865 6509 2 MP stroke
0 sg
2277 6721 mt 
(PRE-EMPHASIS 1st POST-TAP = 20) s
c46
374 0 1865 6677 2 MP stroke
6 w

end %%Color Dict

eplot
%%EndObject

epage
end

showpage

%%Trailer
%%EOF
