%!PS-Adobe-3.0 EPSF-3.0
%%Creator: MATLAB, The MathWorks, Inc. Version 8.0.0.783 (R2012b). Operating System: Microsoft Windows 7.
%%Title: C:\MyWorkplace\researchWork\GBT\GBT_BER_WORK\RESULTS\pre_emphasis_2nd_pre_tap.eps
%%CreationDate: 05/02/2017  19:02:31
%%DocumentNeededFonts: Helvetica
%%+ Helvetica-Bold
%%DocumentProcessColors: Cyan Magenta Yellow Black
%%LanguageLevel: 2
%%Pages: 1
%%BoundingBox:  -255   131   851   710
%%EndComments

%%BeginProlog
% MathWorks dictionary
/MathWorks 160 dict begin
% definition operators
/bdef {bind def} bind def
/ldef {load def} bind def
/xdef {exch def} bdef
/xstore {exch store} bdef
% operator abbreviations
/c  /clip ldef
/cc /concat ldef
/cp /closepath ldef
/gr /grestore ldef
/gs /gsave ldef
/mt /moveto ldef
/np /newpath ldef
/cm /currentmatrix ldef
/sm /setmatrix ldef
/rm /rmoveto ldef
/rl /rlineto ldef
/s {show newpath} bdef
/sc {setcmykcolor} bdef
/sr /setrgbcolor ldef
/sg /setgray ldef
/w /setlinewidth ldef
/j /setlinejoin ldef
/cap /setlinecap ldef
/rc {rectclip} bdef
/rf {rectfill} bdef
% page state control
/pgsv () def
/bpage {/pgsv save def} bdef
/epage {pgsv restore} bdef
/bplot /gsave ldef
/eplot {stroke grestore} bdef
% orientation switch
/portraitMode 0 def /landscapeMode 1 def /rotateMode 2 def
% coordinate system mappings
/dpi2point 0 def
% font control
/FontSize 0 def
/FMS {/FontSize xstore findfont [FontSize 0 0 FontSize neg 0 0]
  makefont setfont} bdef
/ISOLatin1Encoding where {pop /WindowsLatin1Encoding 256 array bdef
ISOLatin1Encoding WindowsLatin1Encoding copy pop
/.notdef/.notdef/quotesinglbase/florin/quotedblbase/ellipsis/dagger
/daggerdbl/circumflex/perthousand/Scaron/guilsinglleft/OE/.notdef/.notdef
/.notdef/.notdef/quoteleft/quoteright/quotedblleft/quotedblright/bullet
/endash/emdash/tilde/trademark/scaron/guilsinglright/oe/.notdef/.notdef
/Ydieresis WindowsLatin1Encoding 128 32 getinterval astore pop}
{/WindowsLatin1Encoding StandardEncoding bdef} ifelse
/reencode {exch dup where {pop load} {pop StandardEncoding} ifelse
  exch dup 3 1 roll findfont dup length dict begin
  { 1 index /FID ne {def}{pop pop} ifelse } forall
  /Encoding exch def currentdict end definefont pop} bdef
/isroman {findfont /CharStrings get /Agrave known} bdef
/FMSR {3 1 roll 1 index dup isroman {reencode} {pop pop} ifelse
  exch FMS} bdef
/csm {1 dpi2point div -1 dpi2point div scale neg translate
 dup landscapeMode eq {pop -90 rotate}
  {rotateMode eq {90 rotate} if} ifelse} bdef
% line types: solid, dotted, dashed, dotdash
/SO { [] 0 setdash } bdef
/DO { [.5 dpi2point mul 4 dpi2point mul] 0 setdash } bdef
/DA { [6 dpi2point mul] 0 setdash } bdef
/DD { [.5 dpi2point mul 4 dpi2point mul 6 dpi2point mul 4
  dpi2point mul] 0 setdash } bdef
% macros for lines and objects
/L {lineto stroke} bdef
/MP {3 1 roll moveto 1 sub {rlineto} repeat} bdef
/AP {{rlineto} repeat} bdef
/PDlw -1 def
/W {/PDlw currentlinewidth def setlinewidth} def
/PP {closepath eofill} bdef
/DP {closepath stroke} bdef
/MR {4 -2 roll moveto dup  0 exch rlineto exch 0 rlineto
  neg 0 exch rlineto closepath} bdef
/FR {MR stroke} bdef
/PR {MR fill} bdef
/L1i {{currentfile picstr readhexstring pop} image} bdef
/tMatrix matrix def
/MakeOval {newpath tMatrix currentmatrix pop translate scale
0 0 1 0 360 arc tMatrix setmatrix} bdef
/FO {MakeOval stroke} bdef
/PO {MakeOval fill} bdef
/PD {currentlinewidth 2 div 0 360 arc fill
   PDlw -1 eq not {PDlw w /PDlw -1 def} if} def
/FA {newpath tMatrix currentmatrix pop translate scale
  0 0 1 5 -2 roll arc tMatrix setmatrix stroke} bdef
/PA {newpath tMatrix currentmatrix pop	translate 0 0 moveto scale
  0 0 1 5 -2 roll arc closepath tMatrix setmatrix fill} bdef
/FAn {newpath tMatrix currentmatrix pop translate scale
  0 0 1 5 -2 roll arcn tMatrix setmatrix stroke} bdef
/PAn {newpath tMatrix currentmatrix pop translate 0 0 moveto scale
  0 0 1 5 -2 roll arcn closepath tMatrix setmatrix fill} bdef
/vradius 0 def /hradius 0 def /lry 0 def
/lrx 0 def /uly 0 def /ulx 0 def /rad 0 def
/MRR {/vradius xdef /hradius xdef /lry xdef /lrx xdef /uly xdef
  /ulx xdef newpath tMatrix currentmatrix pop ulx hradius add uly
  vradius add translate hradius vradius scale 0 0 1 180 270 arc 
  tMatrix setmatrix lrx hradius sub uly vradius add translate
  hradius vradius scale 0 0 1 270 360 arc tMatrix setmatrix
  lrx hradius sub lry vradius sub translate hradius vradius scale
  0 0 1 0 90 arc tMatrix setmatrix ulx hradius add lry vradius sub
  translate hradius vradius scale 0 0 1 90 180 arc tMatrix setmatrix
  closepath} bdef
/FRR {MRR stroke } bdef
/PRR {MRR fill } bdef
/MlrRR {/lry xdef /lrx xdef /uly xdef /ulx xdef /rad lry uly sub 2 div def
  newpath tMatrix currentmatrix pop ulx rad add uly rad add translate
  rad rad scale 0 0 1 90 270 arc tMatrix setmatrix lrx rad sub lry rad
  sub translate rad rad scale 0 0 1 270 90 arc tMatrix setmatrix
  closepath} bdef
/FlrRR {MlrRR stroke } bdef
/PlrRR {MlrRR fill } bdef
/MtbRR {/lry xdef /lrx xdef /uly xdef /ulx xdef /rad lrx ulx sub 2 div def
  newpath tMatrix currentmatrix pop ulx rad add uly rad add translate
  rad rad scale 0 0 1 180 360 arc tMatrix setmatrix lrx rad sub lry rad
  sub translate rad rad scale 0 0 1 0 180 arc tMatrix setmatrix
  closepath} bdef
/FtbRR {MtbRR stroke } bdef
/PtbRR {MtbRR fill } bdef
/stri 6 array def /dtri 6 array def
/smat 6 array def /dmat 6 array def
/tmat1 6 array def /tmat2 6 array def /dif 3 array def
/asub {/ind2 exch def /ind1 exch def dup dup
  ind1 get exch ind2 get sub exch } bdef
/tri_to_matrix {
  2 0 asub 3 1 asub 4 0 asub 5 1 asub
  dup 0 get exch 1 get 7 -1 roll astore } bdef
/compute_transform {
  dmat dtri tri_to_matrix tmat1 invertmatrix 
  smat stri tri_to_matrix tmat2 concatmatrix } bdef
/ds {stri astore pop} bdef
/dt {dtri astore pop} bdef
/db {2 copy /cols xdef /rows xdef mul dup 3 mul string
  currentfile 
  3 index 0 eq {/ASCIIHexDecode filter}
  {/ASCII85Decode filter 3 index 2 eq {/RunLengthDecode filter} if }
  ifelse exch readstring pop
  dup 0 3 index getinterval /rbmap xdef
  dup 2 index dup getinterval /gbmap xdef
  1 index dup 2 mul exch getinterval /bbmap xdef pop pop}bdef
/it {gs np dtri aload pop moveto lineto lineto cp c
  cols rows 8 compute_transform 
  rbmap gbmap bbmap true 3 colorimage gr}bdef
/il {newpath moveto lineto stroke}bdef
currentdict end def
%%EndProlog

%%BeginSetup
MathWorks begin

0 cap

end
%%EndSetup

%%Page: 1 1
%%BeginPageSetup
%%PageBoundingBox:  -255   131   851   710
MathWorks begin
bpage
%%EndPageSetup

%%BeginObject: obj1
bplot

/dpi2point 12 def
portraitMode -3060 8520 csm

    0     0 13277  6942 rc
98 dict begin %Colortable dictionary
/c0 { 0.000000 0.000000 0.000000 sr} bdef
/c1 { 1.000000 1.000000 1.000000 sr} bdef
/c2 { 0.900000 0.000000 0.000000 sr} bdef
/c3 { 0.000000 0.820000 0.000000 sr} bdef
/c4 { 0.000000 0.000000 0.800000 sr} bdef
/c5 { 0.910000 0.820000 0.320000 sr} bdef
/c6 { 1.000000 0.260000 0.820000 sr} bdef
/c7 { 0.000000 0.820000 0.820000 sr} bdef
c0
1 j
1 sg
   0    0 13278 6943 rf
6 w
0 sg
%%IncludeResource: font Helvetica-Bold
/Helvetica-Bold /WindowsLatin1Encoding 216 FMSR

1749  486 mt 
(TRANCEIVER PARAMETER TUNING PLOT WITH PRE-EMPHASIS 2nd PRE-\
TAP VARIATION) s
gs 5060 521 3622 5658 rc
2263 0 6418 3349 2 MP stroke
-1131 -1960 6418 3349 2 MP stroke
-1131 1960 6418 3349 2 MP stroke
0 -114 6984 3406 2 MP stroke
0 -114 7549 3406 2 MP stroke
0 -114 8115 3406 2 MP stroke
0 -114 8681 3406 2 MP stroke
gr

%%IncludeResource: font Helvetica-Bold
/Helvetica-Bold /WindowsLatin1Encoding 120 FMSR

6984 3619 mt 
(-6.13) s
7549 3619 mt 
(-1.75) s
8115 3619 mt 
(2.63) s
8681 3619 mt 
(7) s
%%IncludeResource: font Helvetica-Bold
/Helvetica-Bold /WindowsLatin1Encoding 168 FMSR

8755 3382 mt 
(Pre-emphasis 2nd Pre-Tap) s
8755 3581 mt 
(                        ) s
gs 5060 521 3622 5658 rc
-98 56 6184 2831 2 MP stroke
-98 56 5901 2341 2 MP stroke
-98 57 5618 1851 2 MP stroke
-98 57 5336 1361 2 MP stroke
gr

%%IncludeResource: font Helvetica-Bold
/Helvetica-Bold /WindowsLatin1Encoding 120 FMSR

6331 2790 mt 
(14.75) s
6048 2300 mt 
(29.5) s
5765 1810 mt 
(44.25) s
5483 1320 mt 
(59) s
%%IncludeResource: font Helvetica-Bold
/Helvetica-Bold /WindowsLatin1Encoding 168 FMSR

4552 1237 mt 
(Eye Width) s
4928 1436 mt 
(         ) s
gs 5060 521 3622 5658 rc
98 56 6086 3811 2 MP stroke
98 56 5803 4301 2 MP stroke
98 57 5520 4790 2 MP stroke
98 57 5238 5280 2 MP stroke
gr

%%IncludeResource: font Helvetica-Bold
/Helvetica-Bold /WindowsLatin1Encoding 120 FMSR

5950 3772 mt 
(2.5) s
5723 4258 mt 
(5) s
5359 4743 mt 
(7.5) s
5065 5211 mt 
(10) s
%%IncludeResource: font Helvetica-Bold
/Helvetica-Bold /WindowsLatin1Encoding 168 FMSR

4456 5464 mt 
(Eye Height) s
4855 5663 mt 
(          ) s
gs 5060 521 3622 5658 rc
18 w
1584 -1960 -115 3720 -1469 -1760 6871 3349 4 MP stroke
/c8 { 0.000000 0.000000 0.428571 sr} bdef
c8
1713 -1960 -95 3754 -1618 -1794 7000 3349 4 MP stroke
/c9 { 0.000000 0.000000 0.857143 sr} bdef
c9
1842 -1960 -76 3787 -1766 -1827 7129 3349 4 MP stroke
/c10 { 0.000000 0.285714 1.000000 sr} bdef
c10
1971 -1960 -19 3886 -1952 -1926 7258 3349 4 MP stroke
/c11 { 0.000000 0.714286 1.000000 sr} bdef
c11
2101 -1960 -19 3886 -2082 -1926 7388 3349 4 MP stroke
/c12 { 0.000000 1.000000 0.857143 sr} bdef
c12
2230 -1960 -57 3820 -2173 -1860 7517 3349 4 MP stroke
/c13 { 0.000000 1.000000 0.428571 sr} bdef
c13
2359 -1960 0 3920 -2359 -1960 7646 3349 4 MP stroke
/c14 { 0.000000 1.000000 0.000000 sr} bdef
c14
2489 -1960 -19 3886 -2470 -1926 7776 3349 4 MP stroke
/c15 { 0.428571 1.000000 0.000000 sr} bdef
c15
2618 -1960 0 3920 -2618 -1960 7905 3349 4 MP stroke
/c16 { 0.857143 1.000000 0.000000 sr} bdef
c16
2747 -1960 0 3920 -2747 -1960 8034 3349 4 MP stroke
/c17 { 1.000000 0.714286 0.285714 sr} bdef
c17
2877 -1960 -19 3886 -2858 -1926 8164 3349 4 MP stroke
/c18 { 1.000000 0.285714 0.714286 sr} bdef
c18
3006 -1960 -57 3820 -2949 -1860 8293 3349 4 MP stroke
/c19 { 1.000000 0.000000 0.857143 sr} bdef
c19
3135 -1960 -57 3820 -3078 -1860 8422 3349 4 MP stroke
/c20 { 1.000000 0.000000 0.428571 sr} bdef
c20
3264 -1960 -95 3754 -3169 -1794 8551 3349 4 MP stroke
/c21 { 1.000000 0.000000 0.000000 sr} bdef
c21
3394 -1960 -153 3654 -3241 -1694 8681 3349 4 MP stroke
gr

18 w
c21
0 sg
%%IncludeResource: font Helvetica
/Helvetica /WindowsLatin1Encoding 120 FMSR

5030 6237 mt 
( ) s
8652  579 mt 
( ) s
6 w
1 sg
0 2562 2599 0 0 -2562 2225 4355 4 MP
PP
-2599 0 0 2562 2599 0 0 -2562 2225 4355 5 MP stroke
4 w
DO
SO
6 w
0 sg
2225 1793 mt 4824 1793 L
2225 4355 mt 4824 4355 L
4824 4355 mt 4824 1793 L
2225 4355 mt 2225 1793 L
2225 4355 mt 4824 4355 L
2225 4355 mt 2225 1793 L
2225 1793 mt 4824 1793 L
2225 4355 mt 4824 4355 L
4824 4355 mt 4824 1793 L
2225 4355 mt 2225 1793 L
2713 1940 mt 
(PRE-EMPHASIS 2nd POST-TAP = -7) s
gs 2225 1793 2600 2563 rc
18 w
375 0 2300 1898 2 MP stroke
gr

18 w
2713 2108 mt 
(PRE-EMPHASIS 2nd POST-TAP = -6) s
gs 2225 1793 2600 2563 rc
c8
375 0 2300 2065 2 MP stroke
gr

c8
0 sg
2713 2276 mt 
(PRE-EMPHASIS 2nd POST-TAP = -5) s
gs 2225 1793 2600 2563 rc
c9
375 0 2300 2233 2 MP stroke
gr

c9
0 sg
2713 2444 mt 
(PRE-EMPHASIS 2nd POST-TAP = -4) s
gs 2225 1793 2600 2563 rc
c10
375 0 2300 2401 2 MP stroke
gr

c10
0 sg
2713 2612 mt 
(PRE-EMPHASIS 2nd POST-TAP = -3) s
gs 2225 1793 2600 2563 rc
c11
375 0 2300 2569 2 MP stroke
gr

c11
0 sg
2713 2780 mt 
(PRE-EMPHASIS 2nd POST-TAP = -2) s
gs 2225 1793 2600 2563 rc
c12
375 0 2300 2737 2 MP stroke
gr

c12
0 sg
2713 2948 mt 
(PRE-EMPHASIS 2nd POST-TAP = -1) s
gs 2225 1793 2600 2563 rc
c13
375 0 2300 2905 2 MP stroke
gr

c13
0 sg
2713 3116 mt 
(PRE-EMPHASIS 2nd POST-TAP = 0) s
gs 2225 1793 2600 2563 rc
c14
375 0 2300 3073 2 MP stroke
gr

c14
0 sg
2713 3285 mt 
(PRE-EMPHASIS 2nd POST-TAP = 1) s
gs 2225 1793 2600 2563 rc
c15
375 0 2300 3241 2 MP stroke
gr

c15
0 sg
2713 3453 mt 
(PRE-EMPHASIS 2nd POST-TAP = 2) s
gs 2225 1793 2600 2563 rc
c16
375 0 2300 3409 2 MP stroke
gr

c16
0 sg
2713 3621 mt 
(PRE-EMPHASIS 2nd POST-TAP = 3) s
gs 2225 1793 2600 2563 rc
c17
375 0 2300 3577 2 MP stroke
gr

c17
0 sg
2713 3789 mt 
(PRE-EMPHASIS 2nd POST-TAP = 4) s
gs 2225 1793 2600 2563 rc
c18
375 0 2300 3745 2 MP stroke
gr

c18
0 sg
2713 3957 mt 
(PRE-EMPHASIS 2nd POST-TAP = 5) s
gs 2225 1793 2600 2563 rc
c19
375 0 2300 3913 2 MP stroke
gr

c19
0 sg
2713 4125 mt 
(PRE-EMPHASIS 2nd POST-TAP = 6) s
gs 2225 1793 2600 2563 rc
c20
375 0 2300 4081 2 MP stroke
gr

c20
0 sg
2713 4293 mt 
(PRE-EMPHASIS 2nd POST-TAP = 7) s
gs 2225 1793 2600 2563 rc
c21
375 0 2300 4249 2 MP stroke
6 w
gr

6 w
c21

end %%Color Dict

eplot
%%EndObject

epage
end

showpage

%%Trailer
%%EOF
