%!PS-Adobe-3.0 EPSF-3.0
%%Creator: MATLAB, The MathWorks, Inc. Version 8.0.0.783 (R2012b). Operating System: Microsoft Windows 7.
%%Title: C:\MyWorkplace\researchWork\GBT\GBT_BER_WORK\RESULTS\tuned_parameter.eps
%%CreationDate: 05/02/2017  19:02:55
%%DocumentNeededFonts: Helvetica
%%+ Helvetica-Bold
%%DocumentProcessColors: Cyan Magenta Yellow Black
%%LanguageLevel: 2
%%Pages: 1
%%BoundingBox:  -272   141   868   700
%%EndComments

%%BeginProlog
% MathWorks dictionary
/MathWorks 160 dict begin
% definition operators
/bdef {bind def} bind def
/ldef {load def} bind def
/xdef {exch def} bdef
/xstore {exch store} bdef
% operator abbreviations
/c  /clip ldef
/cc /concat ldef
/cp /closepath ldef
/gr /grestore ldef
/gs /gsave ldef
/mt /moveto ldef
/np /newpath ldef
/cm /currentmatrix ldef
/sm /setmatrix ldef
/rm /rmoveto ldef
/rl /rlineto ldef
/s {show newpath} bdef
/sc {setcmykcolor} bdef
/sr /setrgbcolor ldef
/sg /setgray ldef
/w /setlinewidth ldef
/j /setlinejoin ldef
/cap /setlinecap ldef
/rc {rectclip} bdef
/rf {rectfill} bdef
% page state control
/pgsv () def
/bpage {/pgsv save def} bdef
/epage {pgsv restore} bdef
/bplot /gsave ldef
/eplot {stroke grestore} bdef
% orientation switch
/portraitMode 0 def /landscapeMode 1 def /rotateMode 2 def
% coordinate system mappings
/dpi2point 0 def
% font control
/FontSize 0 def
/FMS {/FontSize xstore findfont [FontSize 0 0 FontSize neg 0 0]
  makefont setfont} bdef
/ISOLatin1Encoding where {pop /WindowsLatin1Encoding 256 array bdef
ISOLatin1Encoding WindowsLatin1Encoding copy pop
/.notdef/.notdef/quotesinglbase/florin/quotedblbase/ellipsis/dagger
/daggerdbl/circumflex/perthousand/Scaron/guilsinglleft/OE/.notdef/.notdef
/.notdef/.notdef/quoteleft/quoteright/quotedblleft/quotedblright/bullet
/endash/emdash/tilde/trademark/scaron/guilsinglright/oe/.notdef/.notdef
/Ydieresis WindowsLatin1Encoding 128 32 getinterval astore pop}
{/WindowsLatin1Encoding StandardEncoding bdef} ifelse
/reencode {exch dup where {pop load} {pop StandardEncoding} ifelse
  exch dup 3 1 roll findfont dup length dict begin
  { 1 index /FID ne {def}{pop pop} ifelse } forall
  /Encoding exch def currentdict end definefont pop} bdef
/isroman {findfont /CharStrings get /Agrave known} bdef
/FMSR {3 1 roll 1 index dup isroman {reencode} {pop pop} ifelse
  exch FMS} bdef
/csm {1 dpi2point div -1 dpi2point div scale neg translate
 dup landscapeMode eq {pop -90 rotate}
  {rotateMode eq {90 rotate} if} ifelse} bdef
% line types: solid, dotted, dashed, dotdash
/SO { [] 0 setdash } bdef
/DO { [.5 dpi2point mul 4 dpi2point mul] 0 setdash } bdef
/DA { [6 dpi2point mul] 0 setdash } bdef
/DD { [.5 dpi2point mul 4 dpi2point mul 6 dpi2point mul 4
  dpi2point mul] 0 setdash } bdef
% macros for lines and objects
/L {lineto stroke} bdef
/MP {3 1 roll moveto 1 sub {rlineto} repeat} bdef
/AP {{rlineto} repeat} bdef
/PDlw -1 def
/W {/PDlw currentlinewidth def setlinewidth} def
/PP {closepath eofill} bdef
/DP {closepath stroke} bdef
/MR {4 -2 roll moveto dup  0 exch rlineto exch 0 rlineto
  neg 0 exch rlineto closepath} bdef
/FR {MR stroke} bdef
/PR {MR fill} bdef
/L1i {{currentfile picstr readhexstring pop} image} bdef
/tMatrix matrix def
/MakeOval {newpath tMatrix currentmatrix pop translate scale
0 0 1 0 360 arc tMatrix setmatrix} bdef
/FO {MakeOval stroke} bdef
/PO {MakeOval fill} bdef
/PD {currentlinewidth 2 div 0 360 arc fill
   PDlw -1 eq not {PDlw w /PDlw -1 def} if} def
/FA {newpath tMatrix currentmatrix pop translate scale
  0 0 1 5 -2 roll arc tMatrix setmatrix stroke} bdef
/PA {newpath tMatrix currentmatrix pop	translate 0 0 moveto scale
  0 0 1 5 -2 roll arc closepath tMatrix setmatrix fill} bdef
/FAn {newpath tMatrix currentmatrix pop translate scale
  0 0 1 5 -2 roll arcn tMatrix setmatrix stroke} bdef
/PAn {newpath tMatrix currentmatrix pop translate 0 0 moveto scale
  0 0 1 5 -2 roll arcn closepath tMatrix setmatrix fill} bdef
/vradius 0 def /hradius 0 def /lry 0 def
/lrx 0 def /uly 0 def /ulx 0 def /rad 0 def
/MRR {/vradius xdef /hradius xdef /lry xdef /lrx xdef /uly xdef
  /ulx xdef newpath tMatrix currentmatrix pop ulx hradius add uly
  vradius add translate hradius vradius scale 0 0 1 180 270 arc 
  tMatrix setmatrix lrx hradius sub uly vradius add translate
  hradius vradius scale 0 0 1 270 360 arc tMatrix setmatrix
  lrx hradius sub lry vradius sub translate hradius vradius scale
  0 0 1 0 90 arc tMatrix setmatrix ulx hradius add lry vradius sub
  translate hradius vradius scale 0 0 1 90 180 arc tMatrix setmatrix
  closepath} bdef
/FRR {MRR stroke } bdef
/PRR {MRR fill } bdef
/MlrRR {/lry xdef /lrx xdef /uly xdef /ulx xdef /rad lry uly sub 2 div def
  newpath tMatrix currentmatrix pop ulx rad add uly rad add translate
  rad rad scale 0 0 1 90 270 arc tMatrix setmatrix lrx rad sub lry rad
  sub translate rad rad scale 0 0 1 270 90 arc tMatrix setmatrix
  closepath} bdef
/FlrRR {MlrRR stroke } bdef
/PlrRR {MlrRR fill } bdef
/MtbRR {/lry xdef /lrx xdef /uly xdef /ulx xdef /rad lrx ulx sub 2 div def
  newpath tMatrix currentmatrix pop ulx rad add uly rad add translate
  rad rad scale 0 0 1 180 360 arc tMatrix setmatrix lrx rad sub lry rad
  sub translate rad rad scale 0 0 1 0 180 arc tMatrix setmatrix
  closepath} bdef
/FtbRR {MtbRR stroke } bdef
/PtbRR {MtbRR fill } bdef
/stri 6 array def /dtri 6 array def
/smat 6 array def /dmat 6 array def
/tmat1 6 array def /tmat2 6 array def /dif 3 array def
/asub {/ind2 exch def /ind1 exch def dup dup
  ind1 get exch ind2 get sub exch } bdef
/tri_to_matrix {
  2 0 asub 3 1 asub 4 0 asub 5 1 asub
  dup 0 get exch 1 get 7 -1 roll astore } bdef
/compute_transform {
  dmat dtri tri_to_matrix tmat1 invertmatrix 
  smat stri tri_to_matrix tmat2 concatmatrix } bdef
/ds {stri astore pop} bdef
/dt {dtri astore pop} bdef
/db {2 copy /cols xdef /rows xdef mul dup 3 mul string
  currentfile 
  3 index 0 eq {/ASCIIHexDecode filter}
  {/ASCII85Decode filter 3 index 2 eq {/RunLengthDecode filter} if }
  ifelse exch readstring pop
  dup 0 3 index getinterval /rbmap xdef
  dup 2 index dup getinterval /gbmap xdef
  1 index dup 2 mul exch getinterval /bbmap xdef pop pop}bdef
/it {gs np dtri aload pop moveto lineto lineto cp c
  cols rows 8 compute_transform 
  rbmap gbmap bbmap true 3 colorimage gr}bdef
/il {newpath moveto lineto stroke}bdef
currentdict end def
%%EndProlog

%%BeginSetup
MathWorks begin

0 cap

end
%%EndSetup

%%Page: 1 1
%%BeginPageSetup
%%PageBoundingBox:  -272   141   868   700
MathWorks begin
bpage
%%EndPageSetup

%%BeginObject: obj1
bplot

/dpi2point 12 def
portraitMode -3264 8400 csm

    0     0 13691  6699 rc
85 dict begin %Colortable dictionary
/c0 { 0.000000 0.000000 0.000000 sr} bdef
/c1 { 1.000000 1.000000 1.000000 sr} bdef
/c2 { 0.900000 0.000000 0.000000 sr} bdef
/c3 { 0.000000 0.820000 0.000000 sr} bdef
/c4 { 0.000000 0.000000 0.800000 sr} bdef
/c5 { 0.910000 0.820000 0.320000 sr} bdef
/c6 { 1.000000 0.260000 0.820000 sr} bdef
/c7 { 0.000000 0.820000 0.820000 sr} bdef
c0
1 j
1 sg
   0    0 13692 6700 rf
6 w
0 sg
%%IncludeResource: font Helvetica-Bold
/Helvetica-Bold /WindowsLatin1Encoding 216 FMSR

3699  471 mt 
(TRANCEIVER PARAMETER TUNED PLOT WITH DEFAULT vs BEST) s
gs 4901 501 4369 5462 rc
2184 0 7085 3231 2 MP stroke
1766 -1283 7085 3231 2 MP stroke
674 -2077 7085 3231 2 MP stroke
-675 -2077 7085 3231 2 MP stroke
-1767 -1283 7085 3231 2 MP stroke
-2184 0 7085 3231 2 MP stroke
-1767 1284 7085 3231 2 MP stroke
-675 2078 7085 3231 2 MP stroke
674 2078 7085 3231 2 MP stroke
1766 1284 7085 3231 2 MP stroke
0 -109 7631 3286 2 MP stroke
0 -109 8177 3286 2 MP stroke
0 -109 8723 3286 2 MP stroke
0 -109 9269 3286 2 MP stroke
gr

%%IncludeResource: font Helvetica-Bold
/Helvetica-Bold /WindowsLatin1Encoding 120 FMSR

7631 3494 mt 
(7.75) s
8177 3494 mt 
(15.5) s
8723 3494 mt 
(23.25) s
9269 3494 mt 
(31) s
%%IncludeResource: font Helvetica-Bold
/Helvetica-Bold /WindowsLatin1Encoding 168 FMSR

9487 3193 mt 
(VOD Control) s
9487 3392 mt 
(           ) s
gs 4901 501 4369 5462 rc
-64 -89 7558 2955 2 MP stroke
-64 -89 8000 2634 2 MP stroke
-64 -88 8442 2313 2 MP stroke
-64 -88 8883 1992 2 MP stroke
gr

%%IncludeResource: font Helvetica-Bold
/Helvetica-Bold /WindowsLatin1Encoding 120 FMSR

7655 3131 mt 
(-12.19) s
8096 2810 mt 
(-8.13) s
8538 2489 mt 
(-4.06) s
8980 2168 mt 
(0) s
%%IncludeResource: font Helvetica-Bold
/Helvetica-Bold /WindowsLatin1Encoding 168 FMSR

9028 1781 mt 
(Pre-emphasis 1st Post-Tap) s
9028 1980 mt 
(                         ) s
gs 4901 501 4369 5462 rc
-104 -34 7305 2729 2 MP stroke
-104 -34 7474 2210 2 MP stroke
-104 -34 7643 1691 2 MP stroke
-104 -33 7811 1171 2 MP stroke
gr

%%IncludeResource: font Helvetica-Bold
/Helvetica-Bold /WindowsLatin1Encoding 120 FMSR

7461 2824 mt 
(-2.81) s
7630 2304 mt 
(-1.88) s
7798 1785 mt 
(-0.94) s
7967 1266 mt 
(0) s
%%IncludeResource: font Helvetica-Bold
/Helvetica-Bold /WindowsLatin1Encoding 168 FMSR

7827  909 mt 
(Pre-emphasis Pre-Tap) s
7827 1108 mt 
(                    ) s
gs 4901 501 4369 5462 rc
-104 34 6968 2695 2 MP stroke
-104 34 6799 2176 2 MP stroke
-104 34 6630 1657 2 MP stroke
-104 33 6462 1138 2 MP stroke
gr

%%IncludeResource: font Helvetica-Bold
/Helvetica-Bold /WindowsLatin1Encoding 120 FMSR

7123 2689 mt 
(-3.75) s
6955 2169 mt 
(-2.5) s
6786 1650 mt 
(-1.25) s
6617 1131 mt 
(0) s
%%IncludeResource: font Helvetica-Bold
/Helvetica-Bold /WindowsLatin1Encoding 168 FMSR

4066  909 mt 
(Pre-emphasis 2nd Post-Tap) s
5175 1108 mt 
(                         ) s
gs 4901 501 4369 5462 rc
-64 89 6675 2866 2 MP stroke
-64 89 6233 2545 2 MP stroke
-64 88 5791 2225 2 MP stroke
-64 88 5350 1904 2 MP stroke
gr

%%IncludeResource: font Helvetica-Bold
/Helvetica-Bold /WindowsLatin1Encoding 120 FMSR

6771 2778 mt 
(0.25) s
6329 2457 mt 
(0.5) s
5888 2136 mt 
(0.75) s
5446 1815 mt 
(1) s
%%IncludeResource: font Helvetica-Bold
/Helvetica-Bold /WindowsLatin1Encoding 168 FMSR

2951 1781 mt 
(Pre-emphasis 2nd Pre-Tap) s
4021 1980 mt 
(                        ) s
gs 4901 501 4369 5462 rc
0 109 6539 3177 2 MP stroke
0 109 5993 3177 2 MP stroke
0 109 5447 3177 2 MP stroke
0 109 4901 3177 2 MP stroke
gr

%%IncludeResource: font Helvetica-Bold
/Helvetica-Bold /WindowsLatin1Encoding 120 FMSR

6373 3057 mt 
(0.5) s
5927 3057 mt 
(1) s
5281 3057 mt 
(1.5) s
4835 3057 mt 
(2) s
%%IncludeResource: font Helvetica-Bold
/Helvetica-Bold /WindowsLatin1Encoding 168 FMSR

4020 3193 mt 
(DC Gain) s
4356 3392 mt 
(       ) s
gs 4901 501 4369 5462 rc
64 89 6611 3508 2 MP stroke
64 89 6169 3829 2 MP stroke
64 88 5727 4150 2 MP stroke
64 88 5286 4471 2 MP stroke
gr

%%IncludeResource: font Helvetica-Bold
/Helvetica-Bold /WindowsLatin1Encoding 120 FMSR

6281 3420 mt 
(0.75) s
5907 3741 mt 
(1.5) s
5398 4062 mt 
(2.25) s
5123 4383 mt 
(3) s
%%IncludeResource: font Helvetica-Bold
/Helvetica-Bold /WindowsLatin1Encoding 168 FMSR

3511 4606 mt 
(Equalization Control) s
4207 4805 mt 
(                    ) s
gs 4901 501 4369 5462 rc
104 34 6864 3734 2 MP stroke
104 34 6695 4253 2 MP stroke
104 34 6526 4772 2 MP stroke
104 33 6358 5292 2 MP stroke
gr

%%IncludeResource: font Helvetica-Bold
/Helvetica-Bold /WindowsLatin1Encoding 120 FMSR

6475 3727 mt 
(1.25) s
6373 4247 mt 
(2.5) s
6138 4766 mt 
(3.75) s
6136 5285 mt 
(5) s
%%IncludeResource: font Helvetica-Bold
/Helvetica-Bold /WindowsLatin1Encoding 168 FMSR

5987 5478 mt 
(VGA) s
6202 5677 mt 
(   ) s
gs 4901 501 4369 5462 rc
104 -34 7201 3768 2 MP stroke
104 -34 7370 4287 2 MP stroke
104 -34 7539 4806 2 MP stroke
104 -33 7707 5325 2 MP stroke
gr

%%IncludeResource: font Helvetica-Bold
/Helvetica-Bold /WindowsLatin1Encoding 120 FMSR

6746 3862 mt 
(15.25) s
6981 4382 mt 
(30.5) s
7083 4901 mt 
(45.75) s
7419 5420 mt 
(61) s
%%IncludeResource: font Helvetica-Bold
/Helvetica-Bold /WindowsLatin1Encoding 168 FMSR

7827 5478 mt 
(Eye Height) s
7827 5677 mt 
(          ) s
gs 4901 501 4369 5462 rc
64 -89 7494 3597 2 MP stroke
64 -89 7936 3918 2 MP stroke
64 -88 8378 4238 2 MP stroke
64 -88 8819 4559 2 MP stroke
gr

%%IncludeResource: font Helvetica-Bold
/Helvetica-Bold /WindowsLatin1Encoding 120 FMSR

7098 3773 mt 
(15.75) s
7607 4094 mt 
(31.5) s
7981 4415 mt 
(47.25) s
8590 4736 mt 
(63) s
%%IncludeResource: font Helvetica-Bold
/Helvetica-Bold /WindowsLatin1Encoding 168 FMSR

9028 4606 mt 
(Eye Width) s
9028 4805 mt 
(         ) s
gs 4901 501 4369 5462 rc
18 w
/c8 { 1.000000 0.000000 0.000000 sr} bdef
c8
206 -1283 1092 -794 1349 0 -675 2078 2184 0 -417 1283 -1632 -868 -269 0 
-219 -159 -1619 -256 9057 3231 11 MP stroke
/c9 { 0.000000 0.000000 1.000000 sr} bdef
c9
1371 -590 161 -1419 922 1179 1497 -453 417 1284 -2184 0 675 2077 -1349 0 
-1092 -794 -418 -1283 9269 3231 11 MP stroke
gr

18 w
c9
0 sg
%%IncludeResource: font Helvetica
/Helvetica /WindowsLatin1Encoding 120 FMSR

4868 6021 mt 
( ) s
9237  559 mt 
( ) s
6 w
1 sg
0 378 1449 0 0 -378 3411 2662 4 MP
PP
-1449 0 0 378 1449 0 0 -378 3411 2662 5 MP stroke
4 w
DO
SO
6 w
0 sg
3411 2284 mt 4860 2284 L
3411 2662 mt 4860 2662 L
4860 2662 mt 4860 2284 L
3411 2662 mt 3411 2284 L
3411 2662 mt 4860 2662 L
3411 2662 mt 3411 2284 L
3411 2284 mt 4860 2284 L
3411 2662 mt 4860 2662 L
4860 2662 mt 4860 2284 L
3411 2662 mt 3411 2284 L
3879 2431 mt 
(Optimized Values) s
gs 3411 2284 1450 379 rc
18 w
c8
360 0 3483 2389 2 MP stroke
gr

18 w
c8
0 sg
3879 2600 mt 
(Default Values) s
gs 3411 2284 1450 379 rc
c9
360 0 3483 2557 2 MP stroke
6 w
gr

6 w
c9

end %%Color Dict

eplot
%%EndObject

epage
end

showpage

%%Trailer
%%EOF
