%!PS-Adobe-3.0 EPSF-3.0
%%Creator: MATLAB, The MathWorks, Inc. Version 8.0.0.783 (R2012b). Operating System: Microsoft Windows 7.
%%Title: C:\MyWorkplace\researchWork\GBT\GBT_BER_WORK\RESULTS\vga.eps
%%CreationDate: 05/02/2017  19:03:04
%%DocumentNeededFonts: Helvetica
%%+ Helvetica-Bold
%%DocumentProcessColors: Cyan Magenta Yellow Black
%%LanguageLevel: 2
%%Pages: 1
%%BoundingBox:  -255   131   851   710
%%EndComments

%%BeginProlog
% MathWorks dictionary
/MathWorks 160 dict begin
% definition operators
/bdef {bind def} bind def
/ldef {load def} bind def
/xdef {exch def} bdef
/xstore {exch store} bdef
% operator abbreviations
/c  /clip ldef
/cc /concat ldef
/cp /closepath ldef
/gr /grestore ldef
/gs /gsave ldef
/mt /moveto ldef
/np /newpath ldef
/cm /currentmatrix ldef
/sm /setmatrix ldef
/rm /rmoveto ldef
/rl /rlineto ldef
/s {show newpath} bdef
/sc {setcmykcolor} bdef
/sr /setrgbcolor ldef
/sg /setgray ldef
/w /setlinewidth ldef
/j /setlinejoin ldef
/cap /setlinecap ldef
/rc {rectclip} bdef
/rf {rectfill} bdef
% page state control
/pgsv () def
/bpage {/pgsv save def} bdef
/epage {pgsv restore} bdef
/bplot /gsave ldef
/eplot {stroke grestore} bdef
% orientation switch
/portraitMode 0 def /landscapeMode 1 def /rotateMode 2 def
% coordinate system mappings
/dpi2point 0 def
% font control
/FontSize 0 def
/FMS {/FontSize xstore findfont [FontSize 0 0 FontSize neg 0 0]
  makefont setfont} bdef
/ISOLatin1Encoding where {pop /WindowsLatin1Encoding 256 array bdef
ISOLatin1Encoding WindowsLatin1Encoding copy pop
/.notdef/.notdef/quotesinglbase/florin/quotedblbase/ellipsis/dagger
/daggerdbl/circumflex/perthousand/Scaron/guilsinglleft/OE/.notdef/.notdef
/.notdef/.notdef/quoteleft/quoteright/quotedblleft/quotedblright/bullet
/endash/emdash/tilde/trademark/scaron/guilsinglright/oe/.notdef/.notdef
/Ydieresis WindowsLatin1Encoding 128 32 getinterval astore pop}
{/WindowsLatin1Encoding StandardEncoding bdef} ifelse
/reencode {exch dup where {pop load} {pop StandardEncoding} ifelse
  exch dup 3 1 roll findfont dup length dict begin
  { 1 index /FID ne {def}{pop pop} ifelse } forall
  /Encoding exch def currentdict end definefont pop} bdef
/isroman {findfont /CharStrings get /Agrave known} bdef
/FMSR {3 1 roll 1 index dup isroman {reencode} {pop pop} ifelse
  exch FMS} bdef
/csm {1 dpi2point div -1 dpi2point div scale neg translate
 dup landscapeMode eq {pop -90 rotate}
  {rotateMode eq {90 rotate} if} ifelse} bdef
% line types: solid, dotted, dashed, dotdash
/SO { [] 0 setdash } bdef
/DO { [.5 dpi2point mul 4 dpi2point mul] 0 setdash } bdef
/DA { [6 dpi2point mul] 0 setdash } bdef
/DD { [.5 dpi2point mul 4 dpi2point mul 6 dpi2point mul 4
  dpi2point mul] 0 setdash } bdef
% macros for lines and objects
/L {lineto stroke} bdef
/MP {3 1 roll moveto 1 sub {rlineto} repeat} bdef
/AP {{rlineto} repeat} bdef
/PDlw -1 def
/W {/PDlw currentlinewidth def setlinewidth} def
/PP {closepath eofill} bdef
/DP {closepath stroke} bdef
/MR {4 -2 roll moveto dup  0 exch rlineto exch 0 rlineto
  neg 0 exch rlineto closepath} bdef
/FR {MR stroke} bdef
/PR {MR fill} bdef
/L1i {{currentfile picstr readhexstring pop} image} bdef
/tMatrix matrix def
/MakeOval {newpath tMatrix currentmatrix pop translate scale
0 0 1 0 360 arc tMatrix setmatrix} bdef
/FO {MakeOval stroke} bdef
/PO {MakeOval fill} bdef
/PD {currentlinewidth 2 div 0 360 arc fill
   PDlw -1 eq not {PDlw w /PDlw -1 def} if} def
/FA {newpath tMatrix currentmatrix pop translate scale
  0 0 1 5 -2 roll arc tMatrix setmatrix stroke} bdef
/PA {newpath tMatrix currentmatrix pop	translate 0 0 moveto scale
  0 0 1 5 -2 roll arc closepath tMatrix setmatrix fill} bdef
/FAn {newpath tMatrix currentmatrix pop translate scale
  0 0 1 5 -2 roll arcn tMatrix setmatrix stroke} bdef
/PAn {newpath tMatrix currentmatrix pop translate 0 0 moveto scale
  0 0 1 5 -2 roll arcn closepath tMatrix setmatrix fill} bdef
/vradius 0 def /hradius 0 def /lry 0 def
/lrx 0 def /uly 0 def /ulx 0 def /rad 0 def
/MRR {/vradius xdef /hradius xdef /lry xdef /lrx xdef /uly xdef
  /ulx xdef newpath tMatrix currentmatrix pop ulx hradius add uly
  vradius add translate hradius vradius scale 0 0 1 180 270 arc 
  tMatrix setmatrix lrx hradius sub uly vradius add translate
  hradius vradius scale 0 0 1 270 360 arc tMatrix setmatrix
  lrx hradius sub lry vradius sub translate hradius vradius scale
  0 0 1 0 90 arc tMatrix setmatrix ulx hradius add lry vradius sub
  translate hradius vradius scale 0 0 1 90 180 arc tMatrix setmatrix
  closepath} bdef
/FRR {MRR stroke } bdef
/PRR {MRR fill } bdef
/MlrRR {/lry xdef /lrx xdef /uly xdef /ulx xdef /rad lry uly sub 2 div def
  newpath tMatrix currentmatrix pop ulx rad add uly rad add translate
  rad rad scale 0 0 1 90 270 arc tMatrix setmatrix lrx rad sub lry rad
  sub translate rad rad scale 0 0 1 270 90 arc tMatrix setmatrix
  closepath} bdef
/FlrRR {MlrRR stroke } bdef
/PlrRR {MlrRR fill } bdef
/MtbRR {/lry xdef /lrx xdef /uly xdef /ulx xdef /rad lrx ulx sub 2 div def
  newpath tMatrix currentmatrix pop ulx rad add uly rad add translate
  rad rad scale 0 0 1 180 360 arc tMatrix setmatrix lrx rad sub lry rad
  sub translate rad rad scale 0 0 1 0 180 arc tMatrix setmatrix
  closepath} bdef
/FtbRR {MtbRR stroke } bdef
/PtbRR {MtbRR fill } bdef
/stri 6 array def /dtri 6 array def
/smat 6 array def /dmat 6 array def
/tmat1 6 array def /tmat2 6 array def /dif 3 array def
/asub {/ind2 exch def /ind1 exch def dup dup
  ind1 get exch ind2 get sub exch } bdef
/tri_to_matrix {
  2 0 asub 3 1 asub 4 0 asub 5 1 asub
  dup 0 get exch 1 get 7 -1 roll astore } bdef
/compute_transform {
  dmat dtri tri_to_matrix tmat1 invertmatrix 
  smat stri tri_to_matrix tmat2 concatmatrix } bdef
/ds {stri astore pop} bdef
/dt {dtri astore pop} bdef
/db {2 copy /cols xdef /rows xdef mul dup 3 mul string
  currentfile 
  3 index 0 eq {/ASCIIHexDecode filter}
  {/ASCII85Decode filter 3 index 2 eq {/RunLengthDecode filter} if }
  ifelse exch readstring pop
  dup 0 3 index getinterval /rbmap xdef
  dup 2 index dup getinterval /gbmap xdef
  1 index dup 2 mul exch getinterval /bbmap xdef pop pop}bdef
/it {gs np dtri aload pop moveto lineto lineto cp c
  cols rows 8 compute_transform 
  rbmap gbmap bbmap true 3 colorimage gr}bdef
/il {newpath moveto lineto stroke}bdef
currentdict end def
%%EndProlog

%%BeginSetup
MathWorks begin

0 cap

end
%%EndSetup

%%Page: 1 1
%%BeginPageSetup
%%PageBoundingBox:  -255   131   851   710
MathWorks begin
bpage
%%EndPageSetup

%%BeginObject: obj1
bplot

/dpi2point 12 def
portraitMode -3060 8520 csm

    0     0 13277  6942 rc
91 dict begin %Colortable dictionary
/c0 { 0.000000 0.000000 0.000000 sr} bdef
/c1 { 1.000000 1.000000 1.000000 sr} bdef
/c2 { 0.900000 0.000000 0.000000 sr} bdef
/c3 { 0.000000 0.820000 0.000000 sr} bdef
/c4 { 0.000000 0.000000 0.800000 sr} bdef
/c5 { 0.910000 0.820000 0.320000 sr} bdef
/c6 { 1.000000 0.260000 0.820000 sr} bdef
/c7 { 0.000000 0.820000 0.820000 sr} bdef
c0
1 j
1 sg
   0    0 13278 6943 rf
6 w
0 sg
%%IncludeResource: font Helvetica-Bold
/Helvetica-Bold /WindowsLatin1Encoding 216 FMSR

3122  486 mt 
(TRANCEIVER PARAMETER TUNING PLOT WITH VGA VARIATION) s
gs 5060 521 3622 5658 rc
2263 0 6418 3349 2 MP stroke
-1131 -1960 6418 3349 2 MP stroke
-1131 1960 6418 3349 2 MP stroke
0 -114 6984 3406 2 MP stroke
0 -114 7549 3406 2 MP stroke
0 -114 8115 3406 2 MP stroke
0 -114 8681 3406 2 MP stroke
gr

%%IncludeResource: font Helvetica-Bold
/Helvetica-Bold /WindowsLatin1Encoding 120 FMSR

6984 3619 mt 
(1.75) s
7549 3619 mt 
(3.5) s
8115 3619 mt 
(5.25) s
8681 3619 mt 
(7) s
%%IncludeResource: font Helvetica-Bold
/Helvetica-Bold /WindowsLatin1Encoding 168 FMSR

8808 3390 mt 
(VGA) s
8808 3589 mt 
(   ) s
gs 5060 521 3622 5658 rc
-98 56 6184 2831 2 MP stroke
-98 56 5901 2341 2 MP stroke
-98 57 5618 1851 2 MP stroke
-98 57 5336 1361 2 MP stroke
gr

%%IncludeResource: font Helvetica-Bold
/Helvetica-Bold /WindowsLatin1Encoding 120 FMSR

6187 2846 mt 
(14.75) s
5939 2387 mt 
(29.5) s
5878 1751 mt 
(44.25) s
5483 1320 mt 
(59) s
%%IncludeResource: font Helvetica-Bold
/Helvetica-Bold /WindowsLatin1Encoding 168 FMSR

4473 1255 mt 
(Eye Height) s
4872 1454 mt 
(          ) s
gs 5060 521 3622 5658 rc
98 56 6086 3811 2 MP stroke
98 56 5803 4301 2 MP stroke
98 57 5520 4790 2 MP stroke
98 57 5238 5280 2 MP stroke
gr

%%IncludeResource: font Helvetica-Bold
/Helvetica-Bold /WindowsLatin1Encoding 120 FMSR

5931 3693 mt 
(15.75) s
5556 4311 mt 
(31.5) s
5304 4770 mt 
(47.25) s
4958 5240 mt 
(63) s
%%IncludeResource: font Helvetica-Bold
/Helvetica-Bold /WindowsLatin1Encoding 168 FMSR

4464 5482 mt 
(Eye Width) s
4840 5681 mt 
(         ) s
gs 5060 521 3622 5658 rc
18 w
180 -311 932 2237 -1112 -1926 6418 3349 4 MP stroke
/c8 { 0.000000 0.000000 0.857143 sr} bdef
c8
718 -684 736 2644 -1454 -1960 6741 3349 4 MP stroke
/c9 { 0.000000 0.714286 1.000000 sr} bdef
c9
1167 -902 610 2862 -1777 -1960 7064 3349 4 MP stroke
/c10 { 0.000000 1.000000 0.428571 sr} bdef
c10
1670 -1213 431 3173 -2101 -1960 7388 3349 4 MP stroke
/c11 { 0.428571 1.000000 0.000000 sr} bdef
c11
2173 -1524 232 3450 -2405 -1926 7711 3349 4 MP stroke
/c12 { 1.000000 0.714286 0.285714 sr} bdef
c12
2747 -1960 -19 3886 -2728 -1926 8034 3349 4 MP stroke
/c13 { 1.000000 0.000000 0.857143 sr} bdef
c13
3070 -1960 -38 3853 -3032 -1893 8357 3349 4 MP stroke
/c14 { 1.000000 0.000000 0.000000 sr} bdef
c14
3394 -1960 -19 3886 -3375 -1926 8681 3349 4 MP stroke
gr

18 w
c14
0 sg
%%IncludeResource: font Helvetica
/Helvetica /WindowsLatin1Encoding 120 FMSR

5030 6237 mt 
( ) s
8652  579 mt 
( ) s
6 w
1 sg
0 1386 981 0 0 -1386 3870 3898 4 MP
PP
-981 0 0 1386 981 0 0 -1386 3870 3898 5 MP stroke
4 w
DO
SO
6 w
0 sg
3870 2512 mt 4851 2512 L
3870 3898 mt 4851 3898 L
4851 3898 mt 4851 2512 L
3870 3898 mt 3870 2512 L
3870 3898 mt 4851 3898 L
3870 3898 mt 3870 2512 L
3870 2512 mt 4851 2512 L
3870 3898 mt 4851 3898 L
4851 3898 mt 4851 2512 L
3870 3898 mt 3870 2512 L
4338 2659 mt 
(VGA = 0) s
gs 3870 2512 982 1387 rc
18 w
360 0 3942 2617 2 MP stroke
gr

18 w
4338 2827 mt 
(VGA = 1) s
gs 3870 2512 982 1387 rc
c8
360 0 3942 2785 2 MP stroke
gr

c8
0 sg
4338 2995 mt 
(VGA = 2) s
gs 3870 2512 982 1387 rc
c9
360 0 3942 2953 2 MP stroke
gr

c9
0 sg
4338 3163 mt 
(VGA = 3) s
gs 3870 2512 982 1387 rc
c10
360 0 3942 3121 2 MP stroke
gr

c10
0 sg
4338 3332 mt 
(VGA = 4) s
gs 3870 2512 982 1387 rc
c11
360 0 3942 3289 2 MP stroke
gr

c11
0 sg
4338 3500 mt 
(VGA = 5) s
gs 3870 2512 982 1387 rc
c12
360 0 3942 3457 2 MP stroke
gr

c12
0 sg
4338 3668 mt 
(VGA = 6) s
gs 3870 2512 982 1387 rc
c13
360 0 3942 3625 2 MP stroke
gr

c13
0 sg
4338 3836 mt 
(VGA = 7) s
gs 3870 2512 982 1387 rc
c14
360 0 3942 3793 2 MP stroke
6 w
gr

6 w
c14

end %%Color Dict

eplot
%%EndObject

epage
end

showpage

%%Trailer
%%EOF
